20
4
10
17
13
12
7
0
1
8
19
4
6
2
3
11
5
9
14
15
16
18
8 9 [0]
4 5 [0]
0 1 [0]
2 3 [0]
12 13 [0]
10 12 [0]
4 6 [0]
6 9 [0]
2 5 [0]
4 8 [0]
2 6 [0]
6 11 [0]
12 18 [0]
8 15 [0]
2 9 [0]
4 11 [0]
0 7 [0]
10 17 [0]
6 15 [0]
2 11 [0]
4 14 [0]
8 19 [0]
4 16 [0]
4 19 [0]
0 16 [0]
17 18 [0]
15 16 [0]
5 8 [0]
7 10 [0]
15 19 [0]
5 9 [0]
13 17 [0]
7 12 [0]
9 14 [0]
1 7 [0]
5 11 [0]
1 8 [0]
7 15 [0]
3 11 [0]
7 16 [0]
7 18 [0]
1 16 [0]
9 10 [1]
7 8 [1]
3 5 [1]
9 11 [1]
15 18 [1]
10 14 [1]
6 10 [1]
8 12 [1]
5 10 [1]
11 17 [1]
4 10 [1]
3 9 [1]
3 10 [1]
12 19 [1]
9 18 [1]
2 12 [1]
0 12 [1]
4 17 [1]
2 17 [1]
0 17 [1]
13 14 [2]
1 2 [2]
13 15 [2]
7 9 [2]
5 7 [2]
2 4 [2]
0 3 [2]
7 11 [2]
1 5 [2]
3 7 [2]
2 8 [2]
7 13 [2]
7 14 [2]
5 14 [2]
3 19 [2]
6 7 [3]
1 4 [3]
3 6 [3]
0 4 [3]
11 15 [3]
11 18 [3]
9 17 [3]
5 13 [3]
0 10 [3]
2 13 [3]
5 16 [3]
6 18 [3]
1 13 [3]
0 13 [3]
4 18 [3]
3 18 [3]
0 19 [3]
