16
2
11
8
7
13
6
2
3
4
0
12
5
10
14
15
9
1
2 3 [0]
14 15 [0]
4 5 [0]
6 9 [0]
8 11 [0]
2 6 [0]
10 14 [0]
0 4 [0]
10 15 [0]
4 9 [0]
2 9 [0]
6 13 [0]
4 12 [0]
4 15 [0]
0 12 [0]
7 9 [0]
9 13 [0]
7 11 [0]
5 10 [0]
1 7 [0]
7 13 [0]
9 15 [0]
5 12 [0]
1 9 [0]
5 15 [0]
1 11 [0]
12 14 [1]
3 6 [1]
4 7 [1]
3 7 [1]
8 12 [1]
11 15 [1]
8 14 [1]
8 15 [1]
0 8 [1]
5 14 [1]
4 13 [1]
3 13 [1]
1 15 [1]
