9
3
4
0
1
2
3
5
6
7
8
4 5 [0]
3 4 [0]
0 1 [0]
1 2 [0]
2 3 [0]
5 6 [0]
6 7 [0]
7 8 [0]
4 6 [0]
2 4 [0]
0 2 [0]
5 7 [0]
3 5 [0]
4 7 [0]
0 3 [0]
5 8 [0]
4 8 [0]
0 4 [0]
1 3 [1]
6 8 [1]
2 5 [1]
1 5 [1]
0 5 [1]
1 6 [1]
0 6 [1]
0 7 [1]
0 8 [1]
1 4 [2]
3 6 [2]
2 6 [2]
3 7 [2]
2 7 [2]
3 8 [2]
1 7 [2]
2 8 [2]
1 8 [2]
