30
2
15
26
5
7
14
20
29
28
8
24
27
2
4
3
0
19
11
9
6
16
13
18
23
10
1
25
12
22
21
17
4 15 [0]
5 15 [0]
15 17 [0]
15 26 [0]
5 26 [0]
2 5 [0]
4 5 [0]
5 7 [0]
5 8 [0]
5 10 [1]
5 17 [1]
5 21 [1]
2 7 [1]
7 8 [0]
7 12 [1]
7 14 [0]
7 20 [0]
7 24 [1]
7 28 [0]
7 29 [0]
2 14 [1]
14 20 [0]
14 24 [1]
20 28 [1]
20 29 [0]
2 27 [0]
21 27 [0]
0 2 [1]
1 2 [1]
2 3 [1]
2 4 [0]
2 12 [1]
2 21 [0]
2 22 [1]
3 4 [0]
4 6 [0]
4 9 [0]
4 10 [0]
0 3 [0]
3 6 [0]
9 19 [0]
11 19 [0]
6 11 [1]
9 11 [0]
11 13 [1]
11 25 [1]
6 9 [0]
6 13 [0]
6 16 [0]
13 16 [0]
16 18 [0]
16 23 [0]
13 18 [0]
13 23 [1]
13 25 [1]
21 22 [0]
