1600
12
800
919
1166
1049
750
66
397
107
1025
1173
1314
1467
430
832
1419
795
1220
741
1133
6
1343
681
241
1
860
1473
1517
931
698
882
1194
1531
1411
1524
469
1499
709
1114
939
326
924
1453
1045
998
1210
1346
173
870
461
991
1059
554
203
390
886
683
1565
502
237
428
530
325
527
1405
797
977
1511
872
846
1424
223
455
177
964
1117
1184
914
1548
1091
403
937
1369
1322
842
1092
551
164
971
63
837
56
1009
723
1441
634
754
1215
940
257
1347
405
819
798
102
277
966
762
1410
1160
357
505
1251
18
1486
1448
1250
626
260
466
1484
1522
19
15
612
1247
670
1482
1283
1443
470
1550
707
1588
561
828
1118
1370
543
850
134
327
1165
1054
1341
891
149
847
162
286
100
249
695
1508
791
316
540
563
1068
151
380
12
262
30
701
193
1572
199
1469
1105
1471
834
471
426
87
965
3
1186
1157
637
205
80
663
531
1288
366
1490
654
633
334
1019
1149
813
1037
1487
37
1514
480
1123
1254
808
979
582
76
1061
1363
343
1367
705
185
542
1519
1518
782
1438
574
313
1052
1078
869
969
960
1146
1538
1255
876
665
978
118
225
1381
1024
1592
1148
817
752
830
323
1119
1388
880
1356
119
218
422
525
1218
632
691
192
1461
287
811
425
473
777
512
359
624
1510
608
1386
648
1318
676
1593
1268
836
1568
136
717
361
548
268
328
99
1041
34
1375
104
215
393
601
1426
1223
1012
1442
942
1258
1421
1216
734
444
50
1476
1181
1030
139
877
1353
440
196
853
1373
101
1164
952
220
1520
747
1390
1154
1057
1204
494
1206
523
1562
1398
1349
1312
156
386
528
123
697
122
1351
488
370
1170
688
389
580
689
438
227
803
479
235
1262
1466
1397
902
1071
1162
238
630
233
1179
725
821
1501
765
1430
579
1182
703
1115
719
682
57
1479
48
1199
25
776
1104
673
856
387
129
1295
1492
95
273
27
868
806
1330
78
584
1174
1435
1088
519
1480
152
125
1577
1402
910
1491
91
1219
1135
541
1313
535
810
524
1337
1296
1292
437
841
1042
843
383
1007
1111
1020
906
1243
392
70
537
1065
81
786
1563
4
1101
288
1198
1329
379
174
816
189
1470
788
474
67
1478
1559
1060
562
1058
1320
713
1477
183
585
1274
24
653
1372
839
938
121
968
44
281
1253
1141
230
1221
1366
831
1399
669
988
992
1006
376
1040
126
454
1260
239
1416
178
1387
9
476
33
21
678
475
93
308
911
1044
987
1079
7
768
953
1029
1464
154
1331
1245
586
1308
264
520
976
981
1242
1539
1394
59
607
1302
415
736
643
1529
569
1016
497
299
1420
1015
462
875
142
333
526
809
378
818
188
1152
671
294
382
783
499
29
614
1586
1377
486
640
743
1130
1523
10
874
913
606
1352
1530
1396
409
1505
1472
435
217
539
700
335
187
666
599
801
715
1212
46
315
442
408
1048
1269
1303
1263
1485
161
155
1043
374
144
68
1046
769
573
69
728
1306
1573
498
546
620
597
467
907
517
518
901
547
62
49
1125
1440
1305
1099
865
406
412
322
72
904
771
604
1233
933
1365
1064
1106
1528
282
133
256
804
1317
990
1094
191
38
1150
600
501
745
1230
179
1032
1108
720
881
1143
1090
645
985
1325
650
1063
341
253
1415
407
1207
1570
522
358
1378
613
1391
951
1187
1069
1551
1540
1459
1196
730
708
168
871
1506
120
245
384
1380
1571
20
1500
932
401
1293
158
1086
1590
912
1564
896
749
367
45
131
687
1131
71
660
221
240
610
1340
52
42
1259
58
1537
918
352
77
369
785
760
1457
492
338
696
1358
290
1280
1359
1100
348
1261
86
1239
140
796
581
1338
39
1062
8
270
32
1051
1279
746
1227
589
680
450
340
1428
400
1432
549
1127
591
1028
306
416
1554
303
664
716
758
385
1087
128
1595
1027
275
468
753
446
1153
472
814
618
1494
1163
941
578
636
272
433
744
1364
267
812
766
883
727
64
989
833
770
186
787
75
686
255
314
456
274
1244
166
759
1513
975
321
1050
684
982
157
661
568
926
679
226
1217
884
453
1389
35
332
481
347
889
484
1110
421
1103
242
849
558
802
280
463
1226
1434
1532
1362
1002
228
550
1316
1008
564
1276
672
852
594
560
1431
420
948
1384
609
372
1578
170
89
1488
861
848
1228
878
651
138
452
1021
767
324
532
652
135
96
61
1193
36
510
1560
487
1463
1286
1248
1188
908
623
171
1083
920
1287
514
1224
742
1116
410
373
148
845
355
644
1400
418
263
635
419
285
1553
879
692
1178
496
1161
1168
1076
1408
1456
1249
980
478
1013
1496
1238
1368
208
1246
657
112
431
761
699
649
172
1014
1474
1137
1348
1035
1005
229
1095
1298
356
724
399
337
1376
1277
1552
733
1107
1211
822
184
271
55
1576
972
1321
1205
1151
346
1264
1073
1379
704
629
1209
1237
344
945
206
997
1097
402
65
1177
593
1172
1489
1257
1309
516
365
1525
781
137
1122
477
621
1345
863
534
1155
617
515
790
0
824
213
1132
259
655
1031
394
1507
668
1339
1291
150
47
261
83
449
732
1124
949
1208
1275
130
1112
1403
1070
1360
1098
1585
1023
625
1234
1315
805
1425
92
944
269
289
110
658
1536
460
1176
894
175
1575
567
685
757
364
823
1175
642
1451
1113
113
1446
1075
1200
1304
153
899
1544
1055
1142
970
258
1195
1093
711
345
1546
388
362
1336
14
114
718
820
916
1545
925
1222
1344
1327
17
864
1241
493
1197
216
1417
165
1010
300
194
243
1034
772
1444
887
464
867
207
807
511
1503
943
329
1147
1547
1357
97
1371
504
489
54
1332
1582
1458
622
1018
295
127
1383
1502
222
201
1022
751
79
465
929
927
1326
507
559
1067
946
1541
117
1273
656
1521
1436
784
381
1271
60
26
246
143
1413
74
735
266
1297
576
304
587
16
146
1597
557
575
596
973
398
417
265
1594
774
147
1225
659
900
224
1102
961
729
1333
840
1203
862
1089
1361
1299
160
1240
556
815
214
94
892
993
391
1401
675
1418
443
858
1599
1495
740
1134
921
1534
1183
738
22
145
1483
995
794
73
424
368
1392
1232
996
1180
1096
360
1080
252
1294
999
395
1272
950
302
163
350
755
411
1191
1290
1121
764
167
1462
739
577
756
533
276
930
928
538
905
935
721
1213
1159
200
1542
219
1017
109
565
1082
1145
1120
963
1423
958
1307
903
458
1252
427
318
1235
1077
1535
1192
1596
917
198
124
1036
602
234
1475
851
482
436
1266
1569
1301
572
859
693
447
169
305
1468
115
159
616
1407
342
459
513
371
1335
1129
284
775
11
1567
553
590
1382
763
88
508
1267
331
838
1579
1284
1139
615
1429
503
1342
1156
293
197
210
1072
521
212
712
85
396
835
1350
1278
1454
336
1393
31
1256
1527
283
457
1509
1270
1465
545
611
1011
1433
291
1385
638
404
1561
1026
779
1201
1081
1214
737
555
957
292
1189
885
955
662
141
592
1584
509
793
1422
778
1169
571
1066
714
888
1412
413
1281
536
1229
132
857
667
500
826
934
43
915
448
1581
544
780
1574
1185
209
506
967
244
204
1374
922
1003
250
354
731
1406
605
1140
552
947
844
1557
1000
1328
674
1355
854
105
339
485
1591
247
1084
1202
195
1549
890
956
439
1460
232
445
1074
312
1126
628
1039
959
1289
825
53
106
111
248
866
627
694
483
1231
1190
529
1171
307
1138
108
190
116
84
330
1556
799
588
1334
349
646
5
1354
1445
231
254
353
434
773
90
570
1109
429
319
40
1265
236
251
1310
1427
1285
598
1580
595
279
1447
181
180
1533
1497
278
375
986
792
647
748
1526
351
1566
898
311
298
1493
103
1001
1598
451
897
954
310
1319
1409
297
317
827
1555
1282
441
1498
789
1515
1158
423
1589
873
829
182
984
491
211
722
1439
1300
1136
1516
962
82
23
677
974
309
1437
176
41
855
1085
566
641
639
1504
895
1452
414
13
1236
1558
28
1449
1395
994
983
702
1404
2
296
1512
490
1481
1128
377
619
432
909
603
1033
363
1004
706
1167
1414
1144
1450
1056
923
710
1587
51
893
631
1543
202
1047
98
726
1038
690
1583
495
1311
583
1324
1053
1323
320
936
1455
301
800 919 [0]
333 800 [0]
322 800 [0]
919 1166 [0]
780 919 [1]
919 1350 [1]
511 919 [1]
793 919 [1]
647 919 [1]
67 919 [0]
467 919 [1]
919 1479 [0]
1009 1166 [0]
677 1166 [2]
141 1166 [2]
505 1166 [0]
1136 1166 [2]
45 1166 [2]
1049 1166 [0]
360 1049 [3]
1049 1306 [1]
562 1049 [1]
937 1049 [0]
750 1049 [0]
485 1049 [3]
961 1049 [3]
287 1049 [1]
619 750 [4]
380 750 [1]
514 750 [3]
66 750 [0]
207 750 [3]
66 590 [4]
66 1387 [2]
66 797 [0]
66 397 [0]
66 333 [2]
66 1425 [4]
66 1121 [4]
66 1282 [4]
66 747 [2]
66 1506 [2]
397 546 [3]
397 562 [3]
107 397 [0]
107 721 [5]
7 107 [4]
107 1025 [0]
1025 1358 [5]
534 1025 [5]
1025 1173 [0]
1025 1270 [6]
821 1025 [3]
366 1025 [2]
1173 1273 [6]
1173 1479 [4]
1173 1177 [6]
662 1173 [7]
1107 1173 [6]
1173 1314 [0]
990 1314 [5]
216 1314 [7]
1314 1467 [0]
127 1314 [7]
244 1314 [8]
425 1467 [3]
430 1467 [0]
1280 1467 [6]
430 832 [0]
430 439 [9]
430 724 [7]
430 1045 [0]
430 930 [8]
167 430 [8]
430 780 [8]
430 776 [5]
430 701 [2]
198 832 [9]
832 1141 [6]
832 1244 [7]
832 1419 [0]
1163 1419 [7]
1110 1419 [8]
795 1419 [0]
431 1419 [8]
795 1220 [0]
80 795 [3]
382 795 [7]
590 795 [10]
795 1335 [10]
795 1452 [10]
795 1299 [9]
478 1220 [9]
1206 1220 [4]
166 1220 [8]
1220 1449 [11]
577 1220 [10]
1042 1220 [6]
791 1220 [1]
477 1220 [9]
741 1220 [0]
741 1133 [0]
568 741 [9]
488 1133 [5]
6 1133 [0]
1133 1369 [1]
6 973 [10]
6 1081 [11]
6 1343 [0]
6 1141 [7]
6 577 [10]
304 1343 [10]
681 1343 [0]
681 757 [10]
580 681 [6]
629 681 [10]
241 681 [0]
508 681 [11]
1 241 [0]
79 241 [11]
241 1385 [11]
241 1204 [4]
231 241 [11]
241 341 [8]
241 1297 [11]
241 1010 [11]
241 775 [11]
4 241 [7]
216 241 [11]
1 1389 [10]
1 860 [0]
1 541 [7]
1 1341 [2]
527 860 [1]
860 1054 [2]
371 860 [9]
860 1473 [0]
175 860 [11]
420 1473 [11]
522 1473 [9]
1473 1517 [0]
637 1473 [3]
1092 1473 [2]
823 1473 [10]
1284 1473 [5]
1008 1517 [11]
52 1517 [10]
931 1517 [0]
980 1517 [8]
79 931 [4]
59 931 [8]
931 1556 [6]
698 931 [0]
931 1346 [1]
931 1559 [8]
593 698 [11]
698 727 [11]
224 698 [3]
698 882 [0]
698 1140 [0]
305 698 [7]
698 1222 [10]
698 1276 [11]
698 878 [9]
882 983 [2]
178 882 [9]
882 1522 [3]
882 1194 [0]
882 1242 [9]
882 1075 [1]
882 1193 [8]
40 882 [5]
92 1194 [4]
605 1194 [6]
1194 1441 [3]
1194 1531 [0]
593 1194 [11]
298 1531 [9]
399 1531 [10]
1411 1531 [0]
547 1531 [10]
744 1531 [11]
699 1531 [10]
1511 1531 [2]
891 1411 [4]
155 1411 [10]
827 1411 [4]
1411 1524 [0]
54 1411 [8]
408 1524 [10]
53 1524 [0]
469 1524 [0]
1204 1524 [5]
907 1524 [11]
1073 1524 [11]
469 744 [7]
469 1499 [0]
469 891 [4]
469 936 [5]
709 1499 [0]
1499 1572 [5]
410 709 [3]
709 1114 [0]
709 1247 [4]
709 1498 [1]
434 709 [2]
274 709 [10]
709 997 [6]
147 709 [7]
708 1114 [11]
714 1114 [8]
1114 1161 [11]
927 1114 [9]
939 1114 [0]
683 1114 [2]
978 1114 [6]
774 1114 [3]
939 1566 [0]
352 939 [10]
326 939 [0]
939 996 [5]
939 1282 [4]
924 1453 [0]
924 1221 [9]
924 940 [4]
878 1453 [6]
57 1453 [7]
1453 1488 [10]
749 1453 [11]
223 1453 [3]
1332 1453 [9]
1045 1453 [0]
967 1453 [6]
1045 1547 [7]
1045 1400 [11]
998 1045 [0]
998 1210 [0]
998 1111 [8]
994 998 [5]
971 998 [4]
464 998 [1]
893 1210 [0]
1038 1210 [2]
1210 1346 [0]
173 1346 [0]
160 1346 [8]
157 1346 [10]
395 1346 [3]
173 1460 [4]
173 1599 [9]
173 1479 [8]
173 525 [7]
173 870 [0]
870 1327 [1]
870 1082 [6]
519 870 [9]
461 870 [0]
870 1444 [7]
870 1509 [0]
461 1090 [11]
461 489 [5]
461 1383 [10]
30 461 [5]
147 461 [8]
461 991 [0]
991 1116 [11]
991 1059 [0]
991 1337 [10]
945 1059 [1]
554 1059 [0]
203 554 [0]
554 1579 [2]
203 574 [6]
203 954 [5]
203 404 [6]
203 1338 [11]
203 1511 [3]
203 1074 [0]
203 390 [0]
203 1486 [5]
390 886 [0]
250 390 [9]
390 805 [4]
390 788 [11]
390 954 [7]
390 803 [8]
368 390 [3]
390 978 [7]
305 390 [8]
273 390 [9]
215 886 [8]
886 1195 [1]
683 886 [0]
886 1300 [2]
313 886 [7]
567 886 [10]
683 1565 [0]
683 810 [10]
1425 1565 [11]
1413 1565 [0]
502 1565 [0]
822 1565 [4]
451 1565 [5]
1565 1579 [6]
502 923 [9]
30 502 [6]
502 1037 [6]
237 502 [0]
237 567 [1]
237 428 [0]
237 782 [7]
237 503 [0]
428 1457 [11]
428 1316 [3]
428 894 [7]
428 1080 [4]
428 530 [0]
428 1470 [11]
325 530 [0]
530 934 [8]
530 670 [6]
411 530 [2]
130 530 [10]
530 1387 [11]
87 325 [7]
325 759 [1]
325 1593 [8]
325 1162 [9]
325 527 [0]
325 357 [5]
527 1280 [6]
527 1405 [0]
527 643 [11]
468 527 [3]
426 1405 [7]
1405 1561 [0]
111 1405 [5]
797 1405 [0]
797 977 [0]
797 1011 [2]
431 797 [1]
977 1255 [8]
977 1036 [9]
977 1511 [0]
977 1082 [6]
254 977 [4]
545 1511 [0]
997 1511 [10]
872 1511 [0]
673 1511 [10]
1140 1511 [7]
872 995 [3]
575 872 [8]
872 891 [7]
846 872 [0]
731 872 [5]
686 846 [11]
846 1146 [8]
846 999 [1]
688 846 [9]
846 1424 [0]
633 846 [8]
507 1424 [2]
940 1424 [5]
1293 1424 [11]
232 1424 [0]
223 1424 [0]
377 1424 [9]
223 1070 [10]
223 227 [10]
223 455 [0]
223 328 [9]
223 1410 [6]
174 223 [11]
223 1385 [6]
455 714 [4]
455 1387 [11]
455 1538 [9]
110 455 [3]
455 494 [10]
88 455 [2]
177 455 [0]
455 1202 [5]
455 631 [7]
177 705 [9]
177 964 [0]
177 1167 [8]
177 677 [1]
16 177 [0]
177 1558 [3]
964 1462 [11]
964 1117 [0]
523 964 [11]
369 964 [10]
314 964 [4]
1117 1241 [2]
1117 1469 [8]
1064 1117 [6]
1117 1184 [0]
748 1117 [0]
1117 1474 [5]
323 1117 [10]
914 1184 [0]
672 1184 [9]
578 1184 [10]
875 1184 [1]
61 1184 [4]
898 1184 [2]
914 1548 [0]
1091 1548 [0]
175 1548 [6]
403 1091 [0]
973 1091 [5]
403 672 [1]
403 1295 [11]
9 403 [11]
403 1095 [7]
403 1407 [0]
403 1315 [8]
403 937 [0]
403 1224 [3]
62 937 [10]
937 1583 [9]
855 937 [4]
937 1394 [11]
937 1369 [0]
305 1369 [0]
1322 1369 [0]
312 1369 [1]
1322 1561 [5]
1261 1322 [6]
5 1322 [2]
842 1322 [0]
1272 1322 [0]
9 842 [10]
79 842 [3]
842 852 [7]
842 1092 [0]
1092 1556 [8]
433 1092 [10]
158 1092 [11]
831 1092 [6]
426 1092 [9]
551 1092 [0]
848 1092 [0]
830 1092 [10]
79 1092 [2]
247 1092 [4]
551 757 [5]
551 1493 [7]
551 763 [1]
551 661 [3]
485 551 [9]
248 551 [0]
551 1572 [8]
164 551 [0]
551 1027 [6]
551 1426 [11]
164 971 [0]
164 973 [2]
164 369 [11]
164 943 [3]
164 658 [5]
164 953 [10]
164 1484 [1]
68 164 [10]
164 345 [8]
164 861 [1]
164 525 [11]
599 971 [6]
63 971 [0]
971 988 [11]
913 971 [10]
971 1594 [4]
63 784 [0]
63 637 [10]
63 837 [0]
63 316 [8]
63 1323 [2]
837 1450 [5]
328 837 [11]
318 837 [9]
496 837 [3]
234 837 [0]
56 837 [0]
186 837 [1]
56 772 [7]
56 458 [6]
56 1009 [0]
56 346 [4]
880 1009 [11]
723 1009 [0]
753 1009 [1]
723 1456 [8]
723 1441 [0]
1441 1596 [0]
28 1441 [3]
722 1441 [10]
751 1441 [4]
634 1441 [0]
634 754 [0]
634 1219 [11]
299 634 [11]
634 703 [1]
754 1195 [2]
754 802 [9]
754 1215 [0]
647 754 [7]
754 1150 [1]
449 754 [0]
754 1135 [11]
754 1332 [5]
1042 1215 [6]
478 1215 [8]
239 1215 [11]
555 1215 [2]
205 1215 [11]
1215 1371 [0]
1024 1215 [11]
1215 1338 [1]
103 1215 [4]
956 1215 [9]
940 1215 [0]
257 940 [0]
645 940 [6]
135 940 [3]
188 940 [5]
205 940 [11]
257 266 [0]
257 787 [1]
257 1342 [5]
257 1347 [0]
1190 1347 [2]
833 1347 [8]
1162 1347 [11]
405 1347 [0]
1077 1347 [0]
405 1356 [10]
405 600 [6]
273 405 [10]
405 819 [0]
744 819 [3]
507 819 [7]
819 1500 [3]
819 1344 [4]
798 819 [0]
798 1272 [0]
798 1294 [1]
102 798 [0]
128 798 [8]
102 766 [9]
102 387 [11]
102 1397 [10]
102 277 [0]
277 576 [6]
277 726 [3]
277 966 [0]
256 277 [5]
277 335 [10]
966 1514 [11]
762 966 [0]
966 976 [11]
576 966 [2]
603 966 [7]
966 1364 [4]
762 1410 [0]
1334 1410 [5]
260 1410 [1]
1160 1410 [0]
946 1410 [0]
42 1410 [8]
638 1410 [9]
1160 1575 [0]
357 1160 [0]
1034 1160 [2]
201 357 [4]
357 627 [1]
182 357 [6]
60 357 [0]
357 505 [0]
357 1132 [2]
281 357 [10]
219 505 [8]
505 1251 [0]
505 553 [4]
505 506 [3]
505 1327 [0]
1213 1251 [5]
18 1251 [0]
18 1486 [0]
18 507 [2]
18 1056 [10]
18 528 [0]
18 613 [11]
18 394 [0]
1391 1486 [9]
1448 1486 [0]
1263 1486 [7]
1252 1486 [9]
566 1486 [7]
959 1448 [2]
829 1448 [1]
719 1448 [11]
1250 1448 [0]
477 1448 [0]
1448 1598 [5]
786 1250 [6]
721 1250 [4]
624 1250 [0]
100 1250 [0]
348 1250 [0]
707 1250 [0]
738 1250 [8]
626 1250 [0]
626 790 [0]
626 628 [3]
22 626 [6]
626 1353 [11]
126 626 [11]
197 626 [9]
260 626 [0]
260 1146 [10]
260 466 [0]
466 1222 [0]
466 1484 [0]
466 642 [2]
354 466 [4]
466 1479 [10]
624 1484 [10]
740 1484 [5]
7 1484 [1]
1484 1522 [0]
845 1484 [2]
1085 1522 [7]
19 1522 [0]
3 1522 [3]
1462 1522 [6]
15 19 [0]
19 1189 [8]
15 1455 [3]
15 679 [0]
15 612 [0]
15 321 [1]
15 1235 [2]
15 712 [5]
15 1274 [11]
474 612 [10]
612 1247 [0]
362 612 [0]
360 1247 [4]
984 1247 [9]
867 1247 [1]
1247 1249 [0]
1247 1374 [7]
1247 1503 [2]
243 1247 [5]
670 1247 [0]
670 1482 [0]
670 1192 [6]
1183 1482 [4]
189 1482 [10]
24 1482 [11]
383 1482 [10]
50 1482 [8]
1283 1482 [0]
1202 1283 [3]
1055 1283 [0]
1283 1394 [1]
1283 1443 [0]
448 1283 [5]
145 1443 [2]
470 1443 [0]
470 926 [8]
470 1378 [9]
202 470 [1]
470 1550 [0]
707 1550 [0]
34 1550 [11]
1051 1550 [4]
707 1588 [0]
493 707 [4]
707 1459 [0]
707 1595 [10]
707 1237 [0]
1079 1588 [11]
253 1588 [6]
101 1588 [9]
561 1588 [0]
294 1588 [7]
561 888 [3]
561 828 [0]
561 1128 [8]
561 1421 [9]
561 1581 [2]
21 561 [5]
561 834 [3]
561 748 [7]
561 1143 [9]
828 1541 [6]
828 1118 [0]
296 828 [5]
828 1067 [4]
828 936 [0]
163 1118 [9]
1086 1118 [10]
412 1118 [1]
1118 1370 [0]
141 1370 [3]
543 1370 [0]
680 1370 [4]
1370 1566 [2]
1370 1503 [6]
543 960 [11]
543 791 [1]
543 1089 [4]
543 850 [0]
543 1327 [7]
312 543 [11]
49 543 [1]
499 543 [8]
134 850 [0]
850 1140 [5]
134 742 [9]
134 947 [1]
134 327 [0]
134 1436 [10]
134 632 [8]
134 1340 [0]
134 644 [4]
327 1165 [0]
327 521 [7]
327 1199 [6]
327 859 [3]
67 327 [6]
327 1051 [8]
50 327 [0]
13 1165 [2]
16 1165 [9]
1165 1558 [6]
879 1165 [0]
1054 1165 [0]
175 1165 [4]
1054 1341 [0]
568 1054 [5]
672 1054 [0]
596 1341 [5]
250 1341 [8]
767 1341 [4]
215 1341 [11]
115 1341 [1]
891 1341 [0]
879 891 [7]
763 891 [3]
149 891 [0]
149 1523 [0]
149 616 [2]
149 765 [10]
149 303 [4]
149 847 [0]
149 1154 [4]
503 847 [9]
162 847 [0]
847 960 [4]
162 1078 [4]
162 286 [0]
162 1238 [0]
162 928 [5]
286 1192 [7]
47 286 [4]
100 286 [0]
100 201 [6]
100 249 [0]
100 888 [10]
249 695 [0]
249 570 [11]
249 658 [2]
34 249 [0]
249 926 [0]
695 1002 [3]
187 695 [1]
695 1508 [0]
695 923 [8]
695 816 [1]
791 1508 [0]
1485 1508 [4]
1508 1516 [5]
236 1508 [3]
316 791 [0]
791 1018 [2]
542 791 [0]
541 791 [1]
9 791 [0]
316 540 [0]
540 1316 [4]
540 1119 [9]
540 563 [0]
129 563 [1]
563 1068 [0]
267 563 [0]
151 1068 [0]
151 888 [7]
151 631 [9]
151 976 [1]
151 380 [0]
151 821 [6]
151 651 [4]
343 380 [0]
232 380 [2]
12 380 [0]
380 926 [0]
380 1567 [1]
12 262 [0]
12 1459 [6]
12 1008 [4]
12 279 [5]
30 262 [0]
186 262 [0]
30 701 [0]
30 278 [7]
193 701 [0]
232 701 [10]
193 654 [0]
193 1218 [1]
193 693 [6]
193 804 [3]
193 1572 [0]
1572 1593 [5]
199 1572 [0]
702 1572 [8]
574 1572 [1]
199 1244 [4]
199 1469 [0]
1105 1469 [0]
1082 1469 [2]
691 1469 [5]
1277 1469 [3]
379 1469 [11]
472 1469 [4]
704 1469 [9]
993 1105 [1]
1105 1319 [3]
950 1105 [5]
1105 1471 [0]
550 1471 [0]
684 1471 [4]
656 1471 [2]
1204 1471 [11]
1103 1471 [7]
834 1471 [0]
274 1471 [0]
834 1455 [6]
834 943 [9]
40 834 [11]
471 834 [0]
444 834 [10]
471 1318 [4]
433 471 [4]
426 471 [0]
471 854 [2]
471 568 [8]
87 426 [0]
426 562 [1]
306 426 [7]
87 602 [5]
87 674 [1]
87 1224 [0]
87 965 [0]
87 135 [4]
87 274 [7]
87 879 [10]
965 1544 [9]
738 965 [8]
3 965 [0]
293 965 [3]
3 1186 [0]
3 635 [5]
344 1186 [2]
1020 1186 [7]
1157 1186 [0]
1186 1477 [0]
1136 1186 [7]
1108 1157 [4]
280 1157 [2]
606 1157 [6]
637 1157 [0]
637 970 [5]
205 637 [0]
205 1351 [10]
205 1350 [2]
80 205 [0]
205 393 [0]
80 570 [9]
80 959 [6]
80 1047 [3]
80 359 [4]
80 1491 [4]
80 663 [0]
80 1540 [0]
80 1000 [8]
531 663 [0]
663 1363 [1]
663 764 [5]
578 663 [4]
531 1461 [3]
531 1288 [0]
531 1145 [1]
395 531 [10]
1288 1574 [11]
476 1288 [0]
856 1288 [4]
366 1288 [0]
366 1490 [0]
366 932 [4]
222 366 [2]
1197 1490 [7]
654 1490 [0]
806 1490 [0]
288 1490 [0]
917 1490 [5]
611 1490 [3]
654 1378 [4]
146 654 [9]
411 654 [2]
633 654 [0]
182 633 [6]
271 633 [8]
633 1380 [0]
501 633 [4]
334 633 [0]
334 1019 [0]
172 334 [1]
334 417 [7]
876 1019 [2]
717 1019 [2]
1019 1149 [0]
1019 1362 [5]
813 1149 [0]
1012 1149 [10]
550 813 [2]
813 1037 [0]
653 813 [0]
91 813 [10]
1037 1487 [0]
398 1487 [3]
592 1487 [8]
171 1487 [2]
37 1487 [0]
1386 1487 [11]
37 743 [4]
37 887 [9]
37 178 [1]
37 1514 [0]
717 1514 [11]
480 1514 [0]
1260 1514 [4]
480 1200 [5]
480 1123 [0]
480 900 [7]
480 1014 [2]
480 1246 [0]
1123 1132 [5]
1123 1254 [0]
462 1254 [10]
71 1254 [4]
172 1254 [1]
808 1254 [0]
214 1254 [6]
503 808 [3]
808 979 [0]
630 808 [11]
922 979 [9]
582 979 [0]
567 979 [2]
979 1459 [4]
160 979 [5]
582 1406 [11]
212 582 [8]
347 582 [2]
582 1459 [10]
76 582 [0]
76 95 [0]
76 1061 [0]
1061 1363 [0]
343 1363 [0]
1192 1363 [7]
1053 1363 [1]
104 1363 [0]
359 1363 [4]
1010 1363 [2]
92 343 [6]
343 1000 [3]
343 1367 [0]
343 1208 [5]
343 856 [0]
343 1464 [4]
621 1367 [2]
460 1367 [9]
1291 1367 [5]
959 1367 [10]
705 1367 [0]
705 1180 [0]
410 705 [2]
185 705 [0]
8 705 [4]
222 705 [6]
671 705 [7]
185 537 [8]
185 1306 [4]
185 429 [7]
185 542 [0]
185 960 [2]
542 1519 [0]
542 780 [8]
542 560 [2]
542 805 [5]
445 542 [3]
995 1519 [9]
1518 1519 [0]
1032 1518 [2]
688 1518 [11]
1298 1518 [6]
782 1518 [0]
920 1518 [1]
395 782 [5]
782 1438 [0]
168 1438 [4]
574 1438 [0]
58 1438 [2]
313 574 [0]
574 1355 [11]
574 1202 [7]
574 629 [2]
313 899 [0]
313 1052 [0]
481 1052 [6]
1052 1078 [0]
1052 1273 [9]
572 1052 [1]
997 1078 [3]
869 1078 [0]
1078 1527 [8]
22 1078 [5]
869 969 [0]
869 1113 [2]
869 963 [10]
869 1594 [4]
960 969 [0]
728 969 [6]
969 1445 [3]
969 1415 [2]
969 1181 [0]
598 960 [6]
960 1444 [9]
960 1146 [0]
292 1146 [7]
1146 1439 [8]
1146 1538 [0]
500 1146 [1]
1372 1538 [0]
308 1538 [2]
1255 1538 [0]
1255 1306 [5]
876 1255 [0]
665 876 [0]
876 1356 [0]
876 1422 [5]
630 665 [2]
665 978 [0]
602 665 [2]
606 665 [4]
246 978 [9]
118 978 [0]
978 1003 [11]
978 1136 [10]
600 978 [0]
118 1433 [3]
118 865 [4]
118 1380 [7]
118 225 [0]
70 118 [0]
118 1540 [4]
225 1381 [0]
225 1224 [6]
336 1381 [7]
827 1381 [1]
1024 1381 [0]
1024 1121 [8]
1024 1131 [2]
541 1024 [0]
1024 1592 [0]
1148 1592 [0]
132 1592 [9]
717 1592 [2]
1403 1592 [5]
275 1148 [3]
817 1148 [0]
1148 1332 [6]
817 889 [2]
817 859 [3]
576 817 [5]
491 817 [4]
752 817 [0]
752 830 [0]
752 1234 [0]
433 830 [2]
323 830 [0]
323 1223 [6]
323 618 [7]
323 1119 [0]
323 503 [8]
323 383 [11]
323 443 [7]
323 338 [2]
1119 1388 [0]
957 1119 [10]
1119 1278 [6]
951 1119 [2]
32 1119 [9]
10 1119 [5]
1364 1388 [3]
112 1388 [5]
880 1388 [0]
880 1356 [0]
1356 1366 [11]
280 1356 [1]
402 1356 [9]
1356 1576 [2]
878 1356 [3]
119 1356 [0]
999 1356 [8]
718 1356 [0]
1006 1356 [5]
119 218 [0]
119 807 [3]
119 224 [5]
119 547 [7]
119 636 [1]
150 218 [9]
218 1121 [11]
218 422 [0]
46 422 [4]
422 1011 [7]
422 1302 [2]
422 525 [0]
115 525 [6]
525 1218 [0]
525 1155 [2]
525 1350 [3]
632 1218 [0]
387 632 [4]
632 1200 [1]
632 1406 [10]
632 691 [0]
632 703 [7]
192 691 [0]
192 1461 [0]
192 1597 [8]
192 1000 [9]
192 1217 [5]
192 1485 [4]
85 192 [7]
192 888 [0]
192 664 [2]
287 1461 [0]
943 1461 [5]
1461 1497 [4]
186 1461 [8]
1450 1461 [1]
1289 1461 [6]
287 1430 [1]
287 811 [0]
287 1378 [2]
287 1036 [3]
287 510 [2]
287 501 [11]
287 356 [5]
811 1371 [8]
811 1336 [9]
425 811 [0]
425 1018 [7]
425 747 [1]
391 425 [10]
425 473 [0]
473 777 [0]
473 1016 [2]
473 874 [3]
473 1344 [3]
473 1333 [5]
473 656 [8]
176 777 [11]
512 777 [0]
777 1020 [2]
359 512 [0]
512 1290 [9]
512 1004 [6]
512 1122 [2]
512 636 [0]
359 829 [3]
359 702 [1]
359 624 [0]
359 679 [7]
186 359 [4]
359 1239 [5]
359 926 [8]
624 1510 [0]
624 1418 [7]
624 1355 [10]
2 624 [0]
608 1510 [0]
382 1510 [2]
333 1510 [5]
464 1510 [8]
608 1001 [9]
608 1386 [0]
571 608 [5]
608 855 [4]
608 768 [2]
648 1386 [0]
648 739 [3]
648 1318 [0]
148 648 [2]
648 789 [6]
659 1318 [7]
829 1318 [8]
700 1318 [1]
1197 1318 [11]
1087 1318 [2]
676 1318 [0]
676 1141 [1]
676 1593 [0]
676 836 [0]
1268 1593 [0]
1365 1593 [5]
415 1268 [10]
700 1268 [1]
836 1268 [0]
307 1268 [3]
657 1268 [5]
836 1568 [0]
730 1568 [2]
61 1568 [9]
136 1568 [0]
136 315 [7]
136 501 [0]
136 375 [1]
136 717 [0]
128 136 [7]
136 444 [1]
717 1291 [10]
717 856 [2]
361 717 [0]
717 1187 [2]
717 1293 [5]
361 1391 [4]
361 548 [0]
548 1027 [9]
548 946 [6]
268 548 [0]
548 1167 [8]
51 548 [7]
548 1084 [11]
511 548 [9]
268 911 [2]
268 1570 [0]
38 268 [2]
268 328 [0]
268 362 [5]
308 328 [4]
99 328 [0]
99 1187 [3]
99 586 [4]
60 99 [3]
99 1041 [0]
99 764 [6]
169 1041 [10]
915 1041 [2]
1041 1152 [4]
1041 1465 [9]
34 1041 [0]
34 64 [0]
34 1310 [1]
34 1351 [3]
34 1375 [0]
104 1224 [5]
104 1095 [5]
104 215 [0]
104 552 [4]
104 514 [3]
104 1552 [8]
215 1177 [7]
215 393 [0]
215 1464 [0]
0 215 [6]
362 393 [3]
393 1599 [11]
289 393 [5]
393 457 [8]
393 753 [0]
393 601 [0]
601 1378 [7]
568 601 [9]
601 1426 [0]
1223 1426 [0]
526 1426 [10]
324 1223 [3]
1223 1259 [2]
152 1223 [0]
1223 1379 [6]
1012 1223 [0]
1012 1101 [7]
1012 1442 [0]
569 1442 [7]
1442 1546 [9]
1231 1442 [1]
942 1442 [0]
710 1442 [10]
28 1442 [7]
753 1442 [5]
942 1258 [0]
1198 1258 [0]
29 1258 [4]
1258 1503 [3]
1258 1421 [0]
558 1258 [5]
732 1258 [6]
1334 1421 [8]
1216 1421 [0]
734 1216 [0]
424 1216 [2]
135 734 [0]
734 1001 [11]
734 1008 [9]
444 734 [0]
463 734 [3]
734 1537 [4]
196 734 [2]
444 1086 [5]
444 1320 [4]
202 444 [6]
444 1233 [9]
50 444 [0]
50 1476 [0]
113 1476 [3]
1181 1476 [0]
1181 1586 [5]
1181 1219 [0]
1030 1181 [0]
763 1181 [1]
1131 1181 [9]
1030 1233 [5]
139 1030 [0]
178 1030 [4]
106 1030 [7]
1030 1444 [9]
114 1030 [5]
139 877 [0]
877 1353 [0]
407 1353 [0]
440 1353 [0]
196 844 [10]
72 196 [4]
196 1021 [3]
196 853 [0]
196 456 [8]
196 585 [2]
196 610 [2]
536 853 [8]
853 1373 [0]
101 1373 [0]
267 1373 [0]
710 1373 [11]
101 321 [3]
101 1164 [0]
101 922 [4]
101 1368 [9]
101 274 [3]
101 1011 [1]
101 435 [2]
1164 1396 [5]
182 1164 [6]
1164 1516 [3]
1103 1164 [5]
952 1164 [0]
517 1164 [2]
952 1569 [7]
220 952 [0]
952 1549 [0]
123 952 [3]
160 952 [9]
220 1520 [0]
13 220 [10]
220 509 [8]
220 1239 [2]
220 1415 [5]
183 220 [5]
220 1315 [5]
747 1520 [0]
747 1308 [2]
221 747 [1]
747 1390 [0]
255 747 [9]
1390 1573 [2]
986 1390 [6]
1154 1390 [0]
179 1390 [4]
128 1390 [7]
510 1390 [11]
1154 1433 [1]
537 1154 [2]
1057 1154 [0]
1057 1204 [0]
1204 1596 [3]
857 1204 [8]
494 1204 [0]
274 1204 [9]
1035 1204 [2]
494 1206 [0]
494 604 [5]
494 609 [7]
523 823 [9]
523 1185 [4]
523 1562 [0]
523 1293 [0]
54 523 [5]
523 1547 [10]
523 1260 [11]
607 1562 [7]
916 1562 [7]
1398 1562 [0]
94 1562 [6]
1349 1398 [0]
1398 1492 [0]
1129 1398 [1]
263 1349 [9]
367 1349 [3]
1312 1349 [0]
365 1349 [0]
384 1349 [2]
1058 1349 [11]
156 1312 [0]
672 1312 [8]
5 1312 [11]
156 239 [3]
156 386 [0]
156 171 [3]
182 386 [10]
386 1272 [8]
386 897 [7]
386 586 [2]
386 528 [0]
528 1192 [5]
528 756 [9]
123 528 [0]
71 528 [2]
528 1551 [4]
123 697 [0]
123 635 [3]
123 1384 [6]
123 285 [0]
123 718 [1]
392 697 [4]
697 1409 [6]
159 697 [8]
697 1483 [3]
122 697 [0]
122 1351 [0]
1234 1351 [2]
396 1351 [4]
1351 1397 [0]
488 1351 [0]
370 488 [0]
488 852 [9]
370 1291 [5]
370 866 [11]
370 1200 [7]
160 370 [1]
305 370 [10]
370 693 [0]
370 1170 [0]
370 803 [0]
496 1170 [9]
1108 1170 [3]
578 1170 [8]
688 1170 [0]
379 688 [2]
389 688 [0]
667 688 [8]
389 580 [0]
389 854 [3]
389 890 [6]
270 389 [5]
389 1083 [2]
389 1414 [7]
52 580 [9]
580 689 [0]
580 1362 [5]
437 580 [4]
689 1559 [4]
689 1231 [1]
689 861 [9]
438 689 [0]
689 1132 [10]
689 1077 [11]
65 689 [4]
438 1241 [9]
227 438 [0]
365 438 [5]
24 227 [2]
7 227 [2]
227 1368 [8]
227 1067 [6]
227 803 [0]
498 803 [0]
803 1010 [3]
803 1291 [10]
479 803 [0]
803 1139 [8]
479 645 [2]
479 729 [1]
479 844 [0]
235 479 [0]
479 1458 [7]
479 1179 [1]
235 1262 [0]
674 1262 [4]
1262 1466 [0]
416 1262 [5]
1187 1262 [2]
250 1262 [11]
506 1466 [9]
1397 1466 [0]
947 1466 [6]
1459 1466 [3]
902 1397 [0]
1116 1397 [5]
222 1397 [3]
347 1397 [2]
1397 1465 [10]
902 1071 [0]
902 1583 [7]
1071 1162 [0]
1071 1598 [1]
913 1071 [5]
1137 1162 [8]
148 1162 [5]
238 1162 [0]
594 1162 [3]
238 699 [8]
238 746 [9]
238 630 [0]
238 454 [2]
238 1017 [6]
238 1245 [2]
131 630 [0]
630 1285 [11]
233 630 [0]
233 1590 [9]
233 1179 [0]
233 1554 [3]
233 1316 [5]
233 1598 [10]
544 1179 [4]
907 1179 [2]
725 1179 [0]
892 1179 [8]
1179 1439 [9]
725 821 [0]
725 751 [3]
618 725 [0]
725 1504 [1]
725 1507 [7]
821 1501 [0]
821 848 [5]
821 1018 [6]
295 821 [2]
765 1501 [0]
319 1501 [8]
46 1501 [0]
929 1501 [3]
765 1212 [5]
765 1430 [0]
536 765 [11]
504 765 [6]
619 765 [10]
1430 1516 [7]
1097 1430 [5]
618 1430 [0]
1063 1430 [4]
579 1430 [0]
579 1500 [9]
579 1182 [0]
465 579 [6]
478 579 [9]
579 1095 [3]
703 1182 [0]
435 703 [2]
623 703 [1]
703 1115 [0]
703 1082 [4]
485 703 [0]
169 703 [8]
719 1115 [0]
1115 1233 [5]
457 1115 [11]
682 719 [0]
719 889 [5]
719 1450 [1]
719 947 [2]
719 1199 [1]
719 1553 [9]
57 682 [0]
57 412 [3]
57 439 [7]
57 1479 [0]
57 1235 [6]
57 319 [10]
57 650 [3]
48 1479 [0]
209 1479 [3]
93 1479 [5]
1276 1479 [9]
26 48 [8]
48 935 [5]
48 913 [4]
48 1199 [0]
1199 1498 [6]
515 1199 [9]
1199 1480 [3]
94 1199 [11]
25 1199 [0]
25 776 [0]
776 929 [8]
596 776 [7]
776 1104 [0]
228 1104 [0]
613 1104 [4]
673 1104 [0]
673 1135 [5]
673 849 [3]
673 1203 [1]
673 1594 [10]
673 856 [0]
673 1018 [8]
387 1020 [2]
387 1108 [2]
387 646 [4]
129 387 [0]
129 533 [9]
129 1295 [0]
129 1221 [5]
129 1001 [11]
129 1366 [2]
463 1295 [3]
1295 1492 [0]
690 1295 [0]
95 1492 [0]
230 1492 [5]
95 1209 [7]
95 273 [0]
95 1454 [1]
0 95 [5]
273 483 [10]
273 1103 [3]
273 712 [6]
27 273 [0]
273 1556 [2]
273 1276 [8]
273 895 [7]
27 600 [3]
27 1124 [8]
27 868 [0]
27 456 [9]
27 518 [3]
27 83 [3]
868 974 [5]
806 868 [0]
868 950 [1]
52 868 [9]
868 900 [6]
806 1330 [0]
1297 1330 [8]
1330 1578 [9]
757 1330 [4]
78 1330 [0]
78 596 [11]
39 78 [3]
78 1379 [10]
78 584 [0]
435 584 [0]
584 1174 [0]
1174 1435 [0]
459 1174 [7]
1174 1549 [6]
252 1174 [8]
1174 1498 [9]
1088 1435 [0]
519 1088 [0]
1088 1326 [1]
1088 1432 [3]
1088 1429 [10]
519 1480 [0]
1036 1480 [0]
421 1480 [3]
152 1480 [0]
802 1480 [2]
152 1289 [11]
125 152 [0]
152 406 [4]
125 1497 [4]
125 1253 [9]
125 1577 [0]
124 125 [1]
1402 1577 [0]
1063 1577 [3]
910 1402 [0]
910 1491 [0]
91 1491 [0]
1382 1491 [8]
431 1491 [5]
954 1491 [7]
976 1491 [3]
91 1219 [0]
91 1584 [3]
137 1219 [6]
356 1219 [2]
1135 1219 [0]
186 1135 [10]
913 1135 [0]
564 1135 [9]
986 1135 [10]
541 1135 [0]
49 541 [5]
541 1313 [0]
541 962 [11]
431 1313 [6]
535 1313 [0]
1313 1326 [0]
606 1313 [5]
401 1313 [9]
874 1313 [5]
314 535 [8]
535 1242 [1]
535 1034 [1]
206 535 [6]
535 810 [0]
396 535 [8]
810 1384 [9]
524 810 [0]
726 810 [2]
524 905 [7]
524 1079 [5]
524 1576 [5]
524 1337 [0]
524 1017 [4]
1337 1458 [6]
206 1337 [3]
1225 1337 [1]
1080 1337 [9]
1296 1337 [0]
1292 1296 [0]
758 1296 [0]
1230 1296 [10]
583 1292 [11]
165 1292 [6]
757 1292 [8]
90 1292 [10]
437 1292 [0]
841 1257 [7]
841 1460 [0]
841 1042 [0]
460 841 [3]
841 1211 [5]
375 841 [1]
1042 1321 [6]
843 1042 [0]
975 1042 [8]
1042 1324 [4]
843 1420 [9]
718 843 [7]
383 843 [0]
500 843 [9]
201 843 [8]
383 1007 [0]
383 1573 [3]
236 383 [6]
114 1007 [3]
1007 1111 [0]
1007 1208 [5]
1007 1294 [10]
1007 1493 [7]
1111 1382 [11]
1020 1111 [0]
1111 1136 [2]
1111 1537 [8]
1111 1563 [1]
1020 1213 [1]
906 1020 [0]
1003 1020 [0]
409 1020 [8]
133 906 [8]
906 1213 [8]
906 1243 [0]
293 906 [10]
239 906 [5]
392 1243 [0]
392 1100 [3]
392 1178 [5]
300 392 [6]
392 1001 [11]
70 392 [0]
70 537 [0]
70 1425 [9]
537 1065 [0]
537 908 [3]
537 767 [4]
537 715 [7]
537 696 [1]
81 1065 [0]
332 1065 [7]
59 1065 [5]
818 1065 [3]
1043 1065 [8]
450 1065 [8]
81 786 [0]
81 1222 [6]
786 1563 [0]
786 1192 [1]
786 893 [10]
786 1270 [7]
786 1394 [5]
1227 1563 [9]
4 1563 [0]
1563 1583 [4]
4 1101 [0]
4 302 [8]
42 1101 [3]
288 1101 [0]
288 1198 [0]
288 617 [2]
210 288 [0]
1198 1329 [0]
411 1329 [6]
399 1329 [5]
1202 1329 [9]
539 1329 [3]
379 1329 [0]
1329 1570 [3]
379 1423 [11]
174 379 [0]
211 379 [3]
379 1126 [1]
379 1077 [7]
174 1543 [8]
174 816 [0]
189 816 [0]
189 302 [6]
189 1470 [0]
285 1470 [5]
788 1470 [0]
1470 1543 [2]
692 1470 [10]
1125 1470 [0]
474 788 [0]
788 1090 [9]
31 788 [11]
788 1459 [0]
685 788 [7]
474 1317 [9]
67 474 [0]
474 1350 [4]
170 474 [5]
474 583 [10]
474 1099 [9]
307 474 [1]
474 1389 [9]
67 1478 [0]
858 1478 [6]
1257 1478 [0]
727 1478 [3]
1478 1559 [0]
635 1559 [7]
1060 1559 [0]
441 1559 [11]
562 1060 [0]
815 1060 [8]
562 1058 [0]
97 562 [9]
433 562 [5]
562 710 [0]
562 655 [6]
1058 1507 [7]
1058 1271 [3]
1058 1320 [0]
959 1058 [4]
1103 1320 [5]
713 1320 [0]
713 1477 [0]
713 1595 [2]
713 1468 [10]
276 713 [1]
700 1477 [8]
183 1477 [0]
183 585 [0]
183 1026 [7]
183 381 [6]
7 183 [8]
183 251 [11]
183 655 [8]
585 1274 [0]
780 1274 [9]
24 1274 [0]
24 943 [2]
24 291 [5]
24 653 [0]
11 24 [1]
499 653 [3]
653 1372 [0]
148 653 [8]
653 1017 [10]
486 653 [3]
653 1282 [6]
234 653 [3]
653 943 [8]
464 1372 [7]
950 1372 [0]
410 1372 [4]
839 1372 [0]
839 938 [0]
839 1404 [11]
839 1046 [2]
47 839 [1]
567 938 [10]
589 938 [9]
2 938 [8]
75 938 [7]
938 1299 [6]
283 938 [2]
439 938 [4]
938 1332 [7]
339 938 [10]
121 938 [0]
121 1130 [5]
121 1513 [9]
121 606 [3]
121 672 [5]
121 968 [0]
121 202 [1]
121 1094 [3]
968 1440 [0]
572 968 [0]
44 968 [0]
968 1571 [9]
44 1446 [3]
44 281 [0]
44 1032 [9]
44 538 [11]
281 1253 [0]
281 529 [7]
281 1455 [6]
281 1055 [9]
402 1253 [5]
73 1253 [10]
1141 1253 [0]
305 1253 [11]
267 1253 [8]
500 1141 [4]
230 1141 [0]
990 1141 [2]
230 448 [1]
230 1221 [0]
230 1414 [0]
1221 1366 [0]
1026 1366 [8]
477 1366 [3]
831 1366 [0]
831 893 [2]
831 1399 [0]
402 831 [9]
497 1399 [6]
669 1399 [0]
625 1399 [7]
590 669 [10]
669 1308 [6]
362 669 [6]
476 669 [6]
669 988 [0]
547 669 [5]
988 1244 [5]
988 992 [0]
988 1150 [3]
163 988 [11]
467 988 [9]
289 992 [7]
23 992 [4]
484 992 [9]
992 1006 [0]
1006 1474 [6]
376 1006 [0]
376 657 [1]
376 1040 [0]
376 745 [3]
1040 1244 [5]
126 1040 [0]
126 418 [8]
126 454 [0]
126 1102 [11]
126 603 [10]
454 511 [6]
454 1596 [3]
454 696 [9]
454 1260 [0]
239 1260 [0]
239 1392 [1]
239 1416 [0]
239 926 [7]
239 495 [0]
178 1416 [0]
1016 1416 [5]
178 1387 [0]
755 1387 [8]
9 1387 [0]
462 1387 [5]
9 476 [0]
9 598 [11]
33 476 [0]
476 993 [7]
217 476 [9]
476 901 [9]
476 1350 [2]
33 340 [5]
21 33 [0]
33 1142 [6]
33 1303 [9]
33 907 [9]
33 1427 [9]
21 678 [0]
21 335 [5]
475 678 [0]
350 678 [1]
678 1429 [4]
93 475 [0]
475 1100 [5]
475 1002 [6]
93 187 [3]
93 1352 [3]
93 308 [0]
93 929 [8]
93 1252 [10]
60 93 [7]
308 352 [6]
308 944 [6]
308 1544 [11]
308 911 [0]
911 1044 [0]
391 1044 [1]
447 1044 [3]
987 1044 [0]
253 1044 [5]
103 1044 [0]
1044 1082 [11]
867 987 [8]
987 1137 [6]
987 1079 [0]
7 1079 [0]
550 1079 [5]
589 1079 [2]
7 768 [0]
7 722 [10]
768 953 [0]
953 1029 [0]
79 953 [7]
766 953 [9]
953 1358 [6]
108 953 [4]
631 953 [1]
953 1036 [11]
631 1029 [2]
1029 1306 [9]
1029 1464 [0]
154 1464 [0]
154 1331 [0]
231 1331 [6]
1245 1331 [0]
453 1331 [8]
1159 1331 [7]
62 1245 [5]
679 1245 [9]
191 1245 [3]
586 1245 [0]
586 1308 [0]
586 1319 [8]
927 1308 [5]
581 1308 [3]
264 1308 [0]
738 1308 [10]
763 1308 [11]
1035 1308 [0]
264 1456 [9]
264 1362 [3]
264 520 [0]
179 264 [4]
264 1558 [1]
264 1368 [6]
520 1093 [7]
112 520 [0]
520 976 [0]
236 976 [4]
757 976 [10]
976 981 [0]
848 976 [6]
981 1409 [11]
499 981 [9]
981 1242 [0]
981 1197 [2]
500 981 [9]
1242 1244 [5]
1242 1539 [0]
290 1242 [3]
1242 1578 [6]
1232 1242 [8]
1150 1242 [0]
1394 1539 [0]
1026 1539 [10]
59 1394 [0]
59 1462 [7]
59 644 [6]
59 1252 [0]
59 607 [0]
59 799 [3]
447 607 [11]
607 1333 [1]
607 1512 [5]
607 1302 [0]
607 667 [6]
69 607 [2]
1151 1302 [2]
415 1302 [0]
983 1302 [4]
1302 1403 [8]
1302 1444 [7]
415 1496 [10]
415 1217 [9]
415 736 [0]
135 736 [1]
643 736 [0]
643 1529 [0]
613 643 [0]
643 728 [2]
293 643 [11]
643 1103 [8]
643 1598 [10]
497 1529 [0]
29 1529 [0]
1454 1529 [1]
569 1529 [0]
644 1529 [7]
1140 1529 [0]
207 1529 [6]
984 1529 [2]
569 1542 [8]
569 1400 [7]
569 1016 [0]
569 1257 [9]
569 1497 [11]
739 1016 [3]
497 1016 [0]
674 1016 [4]
299 497 [0]
11 497 [7]
497 1527 [5]
497 925 [6]
299 1420 [0]
299 1598 [10]
1004 1420 [1]
1015 1420 [0]
1276 1420 [9]
462 1015 [0]
761 1015 [8]
486 1015 [6]
503 1015 [0]
462 875 [0]
142 875 [0]
142 449 [6]
142 622 [11]
142 1535 [2]
142 333 [0]
333 526 [0]
333 639 [4]
333 1034 [8]
333 1574 [11]
333 644 [7]
526 809 [0]
526 1485 [11]
526 1502 [3]
618 809 [9]
809 1391 [6]
809 812 [6]
378 809 [0]
378 818 [0]
378 1017 [10]
378 744 [7]
378 577 [1]
378 855 [9]
818 1432 [5]
595 818 [7]
188 818 [0]
818 927 [6]
188 1152 [0]
188 221 [8]
893 1152 [0]
671 1152 [0]
1152 1360 [8]
294 671 [0]
671 743 [1]
419 671 [5]
671 1357 [11]
671 1434 [10]
671 674 [2]
671 748 [1]
294 382 [0]
294 478 [3]
382 967 [10]
382 1557 [11]
382 783 [0]
499 783 [0]
783 1110 [6]
29 499 [0]
345 499 [8]
499 1147 [4]
29 858 [6]
29 614 [0]
614 920 [5]
614 1586 [0]
303 614 [7]
614 1535 [7]
614 667 [3]
1377 1586 [0]
1299 1586 [8]
1136 1377 [0]
486 1377 [0]
429 1377 [10]
1377 1525 [9]
936 1377 [11]
486 640 [0]
486 900 [1]
640 1528 [5]
106 640 [4]
640 743 [0]
640 967 [2]
640 1026 [5]
732 743 [6]
743 1130 [0]
124 743 [1]
1130 1523 [0]
337 1130 [7]
439 1130 [8]
1124 1523 [6]
232 1523 [9]
693 1523 [10]
763 1523 [7]
10 1523 [0]
485 1523 [11]
10 613 [3]
10 946 [4]
10 961 [1]
10 116 [0]
10 1082 [3]
10 874 [0]
874 913 [0]
913 1583 [6]
195 913 [2]
606 913 [0]
606 825 [10]
606 1352 [0]
606 1382 [5]
606 1324 [4]
1352 1530 [0]
506 1352 [11]
113 1352 [1]
1021 1352 [8]
240 1530 [7]
566 1530 [7]
1396 1530 [0]
679 1396 [9]
409 1396 [0]
409 920 [8]
409 1505 [0]
409 1286 [1]
599 1472 [4]
435 1472 [0]
258 1472 [1]
217 435 [0]
335 435 [0]
217 560 [3]
217 539 [0]
217 1290 [0]
539 700 [0]
700 1409 [10]
700 878 [8]
335 700 [0]
335 1033 [2]
335 510 [6]
187 335 [0]
187 1187 [9]
187 259 [11]
187 666 [0]
187 1039 [1]
599 666 [0]
666 699 [8]
521 666 [11]
411 599 [9]
599 801 [0]
464 599 [5]
599 657 [6]
801 1168 [3]
801 929 [4]
801 1239 [8]
715 801 [0]
472 801 [7]
141 715 [0]
346 715 [6]
715 1212 [0]
46 1212 [0]
46 315 [0]
46 890 [7]
315 442 [0]
408 442 [0]
442 1454 [8]
408 1048 [0]
52 408 [3]
175 408 [11]
1048 1252 [10]
822 1048 [6]
1048 1269 [0]
575 1048 [1]
1269 1303 [0]
887 1269 [4]
349 1303 [5]
1263 1303 [0]
1263 1485 [0]
684 1263 [3]
1263 1333 [11]
1225 1263 [9]
1263 1291 [6]
161 1485 [0]
155 161 [0]
155 1043 [0]
374 1043 [0]
824 1043 [2]
293 374 [10]
144 374 [0]
68 144 [0]
144 1143 [3]
68 572 [1]
68 1046 [0]
68 1558 [0]
68 974 [11]
68 923 [4]
171 1046 [8]
769 1046 [0]
573 769 [0]
739 769 [7]
573 1454 [3]
69 573 [0]
69 745 [6]
69 728 [0]
69 566 [2]
728 1536 [6]
728 1306 [0]
547 728 [6]
1306 1573 [0]
498 1573 [0]
1109 1573 [10]
351 1573 [8]
498 733 [1]
381 498 [9]
498 546 [0]
498 826 [6]
58 546 [5]
546 620 [0]
546 893 [1]
597 620 [0]
620 1371 [7]
467 1213 [11]
467 907 [0]
467 854 [5]
85 907 [0]
423 907 [4]
517 907 [0]
516 907 [3]
907 1317 [11]
746 907 [7]
907 1103 [7]
517 518 [0]
278 517 [10]
517 1580 [2]
518 611 [11]
518 901 [0]
337 518 [9]
459 518 [7]
518 1066 [8]
71 518 [6]
547 901 [0]
901 1428 [3]
190 901 [1]
45 901 [6]
53 901 [0]
62 547 [0]
547 1039 [11]
232 547 [6]
547 684 [9]
83 547 [5]
62 500 [4]
62 318 [10]
49 62 [0]
49 948 [3]
49 1125 [0]
49 452 [7]
49 1336 [9]
49 1498 [2]
1305 1440 [0]
915 1440 [3]
1145 1440 [10]
322 1440 [0]
1229 1440 [7]
1098 1305 [8]
1099 1305 [0]
1282 1305 [5]
865 1099 [0]
1099 1509 [11]
898 1099 [1]
1099 1256 [4]
406 865 [0]
423 865 [0]
337 865 [6]
406 412 [0]
406 1317 [2]
412 1494 [8]
322 412 [0]
222 412 [8]
412 738 [10]
72 322 [0]
322 812 [9]
72 350 [11]
72 1413 [9]
72 758 [6]
72 348 [6]
72 1236 [2]
72 1541 [10]
72 904 [0]
559 904 [7]
771 904 [0]
773 904 [4]
604 771 [0]
148 771 [6]
23 771 [1]
604 1233 [0]
840 1233 [11]
933 1233 [0]
970 1233 [8]
933 1365 [0]
1365 1436 [3]
1257 1365 [6]
456 1365 [5]
1064 1365 [0]
1064 1106 [0]
1064 1457 [5]
146 1064 [10]
591 1064 [0]
1064 1417 [0]
677 1106 [5]
1106 1240 [11]
1063 1106 [7]
1106 1528 [0]
191 1528 [0]
642 1528 [7]
282 1528 [0]
282 1358 [9]
282 920 [8]
133 282 [0]
282 344 [6]
133 256 [0]
133 515 [10]
133 1414 [9]
256 804 [0]
256 1036 [4]
804 1317 [0]
804 1406 [10]
28 804 [3]
131 804 [8]
990 1317 [0]
197 1317 [11]
97 1317 [8]
132 990 [1]
990 1094 [0]
231 1094 [7]
106 1094 [0]
191 1094 [0]
8 38 [6]
38 1201 [2]
38 1150 [0]
38 138 [6]
38 175 [11]
38 879 [6]
38 42 [8]
600 1150 [0]
108 600 [4]
600 748 [10]
600 1026 [8]
112 600 [6]
263 600 [5]
501 600 [0]
600 758 [1]
55 600 [1]
501 745 [0]
501 1379 [11]
522 745 [1]
745 1230 [0]
179 1230 [0]
1051 1230 [7]
564 1230 [2]
179 1032 [0]
179 854 [0]
179 1034 [1]
179 730 [9]
179 829 [11]
1032 1291 [7]
198 1032 [9]
1032 1108 [0]
1032 1575 [6]
944 1032 [5]
1032 1235 [2]
1108 1408 [3]
916 1108 [1]
720 1108 [0]
52 720 [7]
720 881 [0]
47 720 [4]
881 1143 [0]
1090 1143 [0]
201 1090 [10]
645 1090 [0]
645 985 [0]
645 1463 [7]
677 985 [4]
985 1340 [8]
985 1325 [0]
861 985 [6]
650 1325 [0]
297 1325 [1]
1325 1422 [3]
339 1325 [7]
650 1063 [0]
157 650 [8]
650 1384 [5]
650 757 [8]
507 650 [0]
1063 1549 [10]
197 1063 [11]
341 1063 [0]
253 1332 [6]
253 825 [2]
253 1415 [0]
407 1415 [0]
1297 1415 [5]
407 724 [9]
407 1207 [0]
255 407 [8]
407 1339 [0]
1207 1570 [0]
696 1207 [8]
522 1570 [0]
982 1570 [6]
489 1570 [11]
358 522 [0]
522 1392 [1]
358 1378 [0]
490 1378 [9]
944 1378 [8]
613 1378 [0]
613 1265 [4]
613 1391 [0]
613 1070 [10]
951 1391 [0]
951 1516 [3]
951 1197 [7]
304 951 [11]
951 1187 [0]
1069 1187 [0]
1069 1551 [0]
668 1069 [6]
153 1551 [0]
1540 1551 [0]
692 1540 [5]
1124 1540 [2]
1459 1540 [0]
1074 1540 [10]
1163 1459 [8]
712 1459 [1]
710 1459 [0]
1196 1459 [0]
222 1459 [11]
1439 1459 [2]
1028 1459 [6]
825 1196 [5]
730 1196 [0]
621 1196 [7]
503 1196 [8]
168 708 [0]
708 1203 [6]
708 970 [11]
708 1145 [4]
168 545 [7]
168 871 [0]
168 229 [10]
694 871 [11]
871 1506 [0]
65 1506 [1]
198 1506 [10]
903 1506 [9]
949 1506 [3]
146 1506 [1]
120 1506 [0]
120 1018 [4]
120 245 [0]
120 1481 [6]
245 1211 [2]
245 384 [0]
61 245 [8]
170 384 [5]
75 384 [0]
384 807 [4]
384 1380 [0]
553 1380 [0]
1380 1554 [3]
1380 1571 [0]
1017 1380 [10]
201 1571 [1]
20 1571 [0]
423 1571 [2]
724 1571 [7]
737 1571 [3]
20 1456 [8]
20 1500 [0]
625 1500 [11]
55 1500 [5]
932 1500 [0]
796 1500 [9]
615 1500 [4]
401 932 [0]
401 1293 [0]
685 1293 [1]
158 1293 [0]
975 1293 [9]
536 1293 [11]
1112 1293 [7]
158 1465 [10]
158 655 [8]
132 158 [9]
158 1086 [0]
158 296 [0]
1086 1590 [0]
352 1590 [5]
912 1590 [0]
568 1590 [5]
912 1564 [0]
885 912 [1]
912 1002 [5]
1050 1564 [7]
896 1564 [0]
1449 1564 [4]
234 1564 [7]
749 896 [0]
677 896 [6]
367 749 [0]
749 1338 [5]
194 749 [11]
367 693 [2]
367 1168 [8]
45 367 [0]
45 1169 [3]
45 1018 [10]
45 131 [0]
45 1070 [5]
131 848 [11]
131 687 [0]
131 285 [11]
687 1131 [0]
687 851 [1]
687 963 [11]
116 687 [10]
1131 1580 [8]
71 1131 [0]
649 1131 [9]
71 631 [0]
71 660 [0]
73 660 [2]
221 660 [0]
310 660 [4]
660 1433 [7]
660 1271 [5]
190 660 [11]
240 610 [0]
610 1224 [9]
610 1340 [0]
610 1021 [3]
439 610 [1]
610 1578 [6]
52 431 [6]
42 52 [0]
42 132 [2]
42 1259 [0]
42 1291 [3]
42 1451 [10]
143 1259 [9]
117 1259 [4]
58 1259 [0]
686 1259 [5]
918 1537 [0]
609 1537 [6]
77 792 [0]
77 369 [0]
369 1542 [10]
369 785 [0]
760 785 [0]
785 873 [5]
785 1195 [7]
785 1360 [8]
785 789 [3]
760 1457 [0]
293 1457 [11]
492 1457 [0]
492 802 [6]
338 492 [0]
338 961 [1]
338 418 [6]
338 1428 [10]
338 696 [0]
270 696 [7]
92 696 [4]
696 1358 [0]
258 1358 [2]
989 1358 [9]
514 1358 [6]
861 1358 [8]
1191 1358 [10]
290 1358 [0]
254 1358 [7]
290 1280 [0]
290 1422 [4]
290 398 [9]
1280 1452 [1]
1280 1359 [0]
489 1280 [11]
1280 1384 [6]
947 1280 [2]
1280 1345 [8]
894 1359 [6]
1100 1359 [0]
583 1100 [0]
348 1100 [0]
250 1100 [10]
348 1261 [0]
94 348 [11]
1127 1261 [0]
890 1261 [4]
1261 1345 [8]
86 1261 [0]
86 1239 [0]
86 1585 [3]
140 1239 [0]
450 1239 [0]
1239 1575 [5]
1239 1301 [9]
1239 1560 [6]
140 692 [11]
140 796 [0]
35 140 [6]
140 1076 [7]
140 271 [11]
796 1188 [6]
581 796 [0]
176 796 [2]
510 581 [8]
581 1338 [0]
331 1338 [11]
1235 1338 [1]
704 1338 [10]
39 1338 [0]
493 1338 [3]
39 291 [4]
39 1062 [0]
744 1062 [11]
148 1062 [6]
8 1062 [0]
1062 1323 [5]
32 1051 [0]
32 594 [7]
1051 1228 [8]
1051 1279 [0]
254 1051 [10]
909 1279 [0]
1279 1532 [6]
746 1279 [0]
746 1227 [0]
589 1227 [0]
1227 1515 [7]
983 1227 [9]
342 680 [8]
175 680 [11]
111 680 [6]
591 680 [1]
450 680 [0]
450 770 [3]
450 1213 [1]
340 450 [0]
340 1177 [3]
340 1428 [0]
340 922 [4]
337 340 [11]
400 1428 [0]
43 400 [2]
400 922 [11]
124 400 [10]
211 400 [3]
400 1432 [0]
400 1008 [1]
1013 1432 [1]
1229 1432 [0]
549 1432 [0]
363 1432 [5]
664 1432 [2]
549 1127 [0]
822 1127 [8]
591 1127 [0]
1127 1382 [4]
591 1028 [0]
591 844 [1]
591 947 [2]
375 416 [7]
416 1554 [0]
303 1554 [0]
303 857 [10]
303 664 [0]
716 758 [0]
716 1286 [6]
716 1455 [9]
90 758 [11]
758 815 [8]
758 982 [6]
385 758 [0]
385 538 [0]
385 1082 [4]
11 385 [6]
385 1301 [3]
385 1087 [0]
385 621 [1]
385 820 [2]
381 1087 [10]
128 1087 [0]
128 1595 [0]
128 997 [1]
128 844 [4]
972 1595 [7]
1027 1595 [0]
275 1027 [0]
395 468 [0]
468 1209 [8]
468 668 [11]
468 753 [0]
446 753 [0]
446 1205 [5]
446 1153 [0]
446 825 [2]
472 1153 [0]
879 1153 [10]
472 814 [0]
198 472 [1]
472 1139 [10]
618 814 [0]
105 618 [9]
618 1121 [11]
618 1494 [0]
36 618 [6]
1163 1494 [0]
1316 1494 [7]
1257 1494 [7]
867 1494 [3]
1301 1494 [0]
732 1163 [8]
941 1163 [0]
507 1163 [5]
578 941 [0]
578 636 [0]
636 1177 [6]
611 636 [4]
272 636 [0]
272 344 [7]
272 342 [11]
272 433 [0]
433 714 [1]
433 744 [0]
433 1383 [10]
744 792 [2]
744 1364 [0]
247 744 [7]
267 283 [3]
267 812 [0]
356 812 [8]
109 812 [0]
766 812 [0]
766 883 [0]
727 883 [0]
883 1371 [6]
453 883 [2]
883 887 [4]
64 989 [0]
254 989 [5]
575 989 [10]
833 989 [0]
420 989 [8]
770 833 [0]
685 833 [9]
219 833 [11]
186 770 [0]
770 1532 [8]
186 787 [0]
787 1566 [4]
75 787 [0]
75 686 [0]
255 686 [0]
452 686 [8]
255 314 [0]
314 456 [0]
314 1116 [6]
314 799 [0]
28 314 [9]
274 456 [0]
274 1327 [1]
274 1249 [10]
274 1244 [0]
166 1244 [0]
166 269 [10]
166 759 [0]
166 1444 [8]
759 1392 [3]
759 1513 [0]
96 759 [6]
759 784 [11]
759 1413 [1]
1290 1513 [2]
1513 1574 [10]
324 1513 [7]
975 1513 [0]
975 1183 [7]
346 975 [6]
300 975 [11]
321 975 [0]
321 1384 [5]
321 1050 [0]
684 1050 [0]
1050 1222 [4]
684 1504 [0]
254 684 [5]
135 684 [8]
684 982 [0]
955 982 [1]
157 982 [0]
982 1567 [4]
432 982 [2]
157 1532 [4]
157 661 [0]
89 157 [8]
337 661 [6]
661 984 [3]
360 661 [11]
568 661 [0]
631 661 [8]
568 926 [0]
568 1271 [10]
679 926 [0]
926 1462 [7]
226 679 [0]
679 1344 [9]
226 945 [6]
226 1217 [0]
226 534 [4]
1155 1217 [11]
903 1217 [4]
460 1217 [1]
36 1217 [10]
884 1217 [0]
862 884 [10]
453 884 [0]
251 884 [9]
347 884 [0]
506 884 [0]
453 1389 [0]
453 1497 [11]
228 1389 [11]
176 1389 [1]
35 1389 [0]
35 332 [0]
35 565 [7]
332 481 [0]
332 925 [6]
332 506 [5]
332 1546 [2]
347 481 [0]
289 481 [10]
347 598 [4]
347 1229 [3]
347 889 [0]
484 889 [0]
431 889 [10]
889 1512 [2]
484 1110 [0]
1110 1195 [10]
421 1110 [0]
928 1110 [0]
805 1110 [8]
242 1103 [0]
92 1103 [7]
972 1103 [6]
127 1103 [10]
936 1103 [9]
242 849 [0]
97 849 [11]
558 849 [0]
558 1248 [6]
558 1300 [5]
558 802 [0]
280 802 [0]
802 1383 [8]
280 514 [7]
280 463 [0]
463 1226 [0]
463 1080 [0]
463 1589 [3]
1226 1434 [0]
448 1434 [4]
1434 1532 [0]
1362 1532 [0]
208 1362 [7]
1002 1362 [0]
799 1362 [1]
959 1362 [10]
60 1002 [11]
228 1002 [0]
228 1460 [6]
228 1102 [7]
228 244 [0]
228 550 [0]
550 1316 [0]
550 851 [2]
550 1003 [4]
1008 1316 [0]
564 1276 [0]
511 564 [11]
564 1201 [8]
672 1276 [0]
1276 1326 [7]
950 1276 [11]
1276 1427 [9]
672 852 [0]
594 852 [0]
852 1022 [1]
560 594 [0]
594 1474 [5]
560 1547 [10]
560 1431 [0]
963 1431 [2]
420 1431 [0]
420 948 [0]
391 420 [0]
420 1458 [3]
410 948 [5]
948 1549 [5]
948 1384 [0]
692 948 [6]
491 1384 [4]
609 1384 [0]
722 1384 [7]
609 784 [1]
372 609 [0]
375 609 [0]
11 609 [11]
356 609 [10]
372 1382 [3]
372 448 [2]
372 1578 [0]
413 1578 [10]
170 1578 [0]
170 577 [8]
89 170 [0]
89 1488 [0]
89 301 [6]
1188 1488 [1]
210 1488 [9]
861 1488 [0]
861 1195 [1]
350 861 [1]
848 861 [0]
11 861 [11]
861 1177 [3]
231 848 [5]
751 848 [4]
848 1228 [0]
1222 1228 [2]
878 1228 [0]
721 878 [0]
878 1183 [10]
616 878 [3]
651 878 [0]
138 651 [0]
22 651 [8]
138 399 [7]
138 867 [9]
138 452 [0]
452 507 [1]
452 1021 [0]
452 1033 [2]
767 1021 [0]
532 1504 [4]
532 1297 [7]
532 652 [0]
135 652 [0]
92 135 [11]
96 135 [0]
61 96 [0]
214 1193 [0]
36 1193 [0]
36 1463 [0]
36 510 [0]
36 866 [9]
510 1560 [0]
247 510 [10]
510 1298 [6]
510 1191 [11]
487 1560 [0]
487 1463 [0]
487 557 [1]
1286 1463 [0]
1248 1286 [0]
402 1286 [8]
917 1286 [3]
413 1248 [0]
1188 1248 [0]
1188 1231 [6]
417 1188 [7]
908 1188 [0]
908 1458 [8]
623 908 [0]
216 908 [5]
908 1552 [1]
710 908 [1]
171 623 [0]
171 515 [11]
171 603 [9]
171 1083 [0]
514 1224 [0]
742 1116 [0]
929 1116 [11]
410 1116 [0]
410 1237 [4]
373 410 [0]
373 424 [4]
148 373 [0]
148 845 [0]
845 1489 [2]
355 845 [0]
826 845 [2]
668 845 [3]
355 644 [0]
285 355 [0]
1176 1400 [7]
418 1400 [0]
263 418 [0]
418 980 [1]
418 1266 [5]
418 658 [8]
418 950 [3]
263 635 [0]
263 291 [0]
419 635 [0]
285 419 [0]
285 1553 [0]
285 460 [10]
285 1498 [4]
1345 1553 [11]
1000 1553 [7]
879 1553 [0]
692 879 [0]
692 1232 [11]
504 692 [10]
692 1178 [0]
692 1128 [8]
82 692 [6]
496 1178 [0]
496 1161 [0]
496 1155 [3]
496 1446 [10]
496 1574 [5]
1168 1197 [3]
1168 1409 [2]
1168 1515 [0]
1076 1168 [0]
113 1168 [11]
356 1168 [4]
124 1168 [3]
659 1076 [11]
1076 1585 [10]
1076 1408 [0]
576 1076 [1]
216 1408 [9]
1408 1456 [0]
1018 1408 [10]
276 1456 [4]
449 1456 [7]
1249 1456 [0]
312 1456 [9]
490 1456 [5]
182 1456 [7]
1249 1455 [3]
980 1249 [0]
478 980 [0]
642 980 [1]
251 478 [11]
478 1013 [0]
478 1462 [10]
1013 1496 [0]
772 1496 [8]
1238 1496 [0]
259 1238 [1]
1238 1368 [0]
208 1246 [0]
16 208 [4]
208 756 [2]
431 545 [0]
431 761 [0]
699 761 [0]
761 1429 [6]
649 699 [0]
699 956 [1]
699 1521 [8]
699 1465 [4]
699 1392 [10]
649 1350 [2]
649 1169 [9]
649 899 [8]
172 649 [0]
649 867 [0]
172 1014 [0]
204 1474 [4]
1137 1474 [0]
1075 1137 [0]
731 1137 [5]
1137 1348 [0]
1035 1348 [0]
1005 1035 [0]
1005 1557 [6]
229 1005 [0]
229 1594 [11]
229 1095 [0]
1095 1298 [0]
1095 1122 [8]
667 1095 [0]
1095 1404 [8]
866 1095 [7]
295 356 [10]
356 724 [0]
202 356 [3]
356 909 [9]
289 356 [1]
356 729 [2]
724 1290 [1]
399 724 [0]
399 1084 [10]
261 399 [11]
337 399 [0]
399 500 [2]
399 685 [11]
337 377 [5]
337 1376 [0]
337 995 [4]
1277 1376 [0]
114 1277 [11]
365 1277 [1]
1277 1407 [0]
1277 1552 [0]
733 1270 [1]
733 1107 [0]
733 1189 [4]
1107 1113 [11]
1107 1211 [0]
822 1211 [0]
822 1256 [6]
184 822 [0]
619 822 [7]
184 667 [9]
184 1534 [3]
184 271 [0]
132 184 [2]
55 271 [0]
55 1576 [0]
54 1576 [11]
181 1576 [8]
236 1576 [0]
603 1576 [10]
516 1576 [11]
1454 1576 [4]
1541 1576 [11]
972 1576 [0]
779 972 [3]
972 1321 [0]
1205 1321 [0]
781 1321 [1]
445 1321 [5]
1144 1321 [6]
1151 1205 [0]
132 1205 [9]
346 1151 [0]
346 1264 [0]
346 1542 [1]
243 346 [2]
602 1264 [11]
1185 1264 [2]
1264 1310 [0]
1073 1264 [0]
1073 1379 [0]
571 1073 [4]
377 1379 [8]
929 1379 [7]
259 1379 [1]
704 1379 [0]
1379 1423 [3]
704 1355 [9]
629 704 [0]
629 1109 [5]
629 1209 [0]
1209 1237 [0]
344 1237 [0]
1237 1299 [1]
898 1237 [7]
1237 1436 [10]
344 504 [11]
344 945 [0]
1031 1097 [6]
1097 1574 [4]
627 1097 [2]
402 1097 [0]
65 402 [0]
231 402 [6]
402 775 [3]
65 1395 [1]
65 146 [10]
65 1177 [0]
593 1177 [0]
593 792 [0]
293 593 [11]
593 1172 [0]
552 1489 [9]
396 1489 [5]
1257 1489 [0]
304 1257 [10]
297 1257 [8]
993 1257 [4]
732 1257 [3]
1257 1309 [0]
516 1309 [0]
0 516 [3]
365 516 [0]
365 895 [3]
365 1525 [0]
781 1525 [0]
781 1451 [7]
137 781 [0]
137 927 [10]
137 147 [2]
137 1122 [0]
137 970 [7]
1122 1401 [4]
477 1122 [0]
477 1545 [11]
477 621 [0]
82 621 [6]
621 1345 [0]
863 1345 [0]
778 1345 [9]
605 1345 [5]
83 863 [7]
534 863 [0]
534 1294 [0]
534 1155 [0]
617 1155 [0]
515 617 [0]
515 1169 [2]
515 790 [0]
0 790 [0]
0 1444 [10]
0 1222 [11]
0 824 [0]
213 824 [0]
213 1132 [0]
259 1132 [0]
259 655 [0]
259 1124 [2]
232 655 [7]
655 659 [1]
181 655 [4]
655 1031 [0]
394 1031 [0]
857 1031 [10]
394 1507 [0]
668 1507 [0]
944 1339 [11]
1291 1339 [0]
150 1291 [0]
545 1291 [0]
835 1291 [11]
150 1134 [1]
47 150 [0]
47 1202 [9]
47 261 [0]
261 900 [8]
83 261 [0]
83 559 [3]
83 449 [0]
732 1124 [0]
1124 1311 [5]
949 1124 [0]
1124 1422 [2]
949 1208 [0]
949 1270 [6]
1208 1275 [0]
858 1208 [0]
984 1208 [3]
667 1208 [7]
130 1275 [0]
195 1275 [8]
1267 1275 [4]
130 1112 [0]
130 1265 [1]
605 1112 [0]
1036 1112 [2]
1112 1301 [10]
1112 1403 [0]
391 1403 [11]
1070 1403 [0]
1070 1272 [9]
1070 1567 [6]
1070 1360 [0]
1098 1360 [0]
1098 1585 [0]
1023 1585 [0]
625 1234 [0]
805 1315 [0]
805 1136 [5]
124 805 [4]
805 1425 [0]
92 1425 [0]
92 1026 [2]
92 955 [9]
92 944 [0]
43 944 [11]
269 944 [0]
84 944 [7]
269 289 [0]
269 1574 [10]
110 289 [0]
110 658 [0]
658 1536 [0]
658 1412 [0]
201 658 [8]
729 1536 [3]
460 1536 [0]
417 1536 [4]
300 1536 [8]
460 1176 [0]
894 1176 [0]
175 1575 [0]
1138 1575 [6]
807 1575 [1]
567 1575 [0]
176 567 [8]
567 587 [1]
567 685 [0]
364 823 [0]
234 364 [3]
145 364 [4]
823 1175 [0]
823 887 [9]
642 1175 [0]
1175 1437 [2]
212 1175 [9]
1175 1240 [4]
1175 1465 [5]
642 1451 [0]
642 866 [0]
113 1113 [0]
113 211 [1]
113 351 [3]
113 278 [7]
113 1446 [0]
113 1497 [10]
113 815 [11]
5 113 [6]
1075 1446 [0]
1185 1446 [4]
1075 1200 [0]
900 1075 [11]
1075 1301 [9]
851 1200 [5]
1200 1304 [0]
1195 1304 [3]
153 1304 [0]
153 899 [0]
153 1512 [8]
899 1214 [2]
899 1544 [0]
628 899 [5]
1055 1544 [0]
23 1055 [9]
1055 1142 [0]
835 1055 [0]
970 1142 [0]
258 970 [0]
970 1256 [11]
258 1195 [0]
1093 1195 [0]
711 1093 [0]
345 711 [0]
345 1546 [0]
345 1089 [4]
388 1546 [0]
362 388 [0]
362 1336 [0]
14 1336 [0]
301 1336 [6]
423 1336 [3]
14 114 [0]
14 529 [7]
820 916 [0]
721 820 [4]
702 820 [10]
925 1545 [0]
925 1222 [0]
503 1222 [2]
1222 1344 [0]
694 1344 [1]
2 1344 [0]
1327 1344 [0]
17 1327 [0]
864 1241 [0]
851 864 [5]
864 1022 [11]
493 1241 [0]
489 493 [4]
493 1197 [0]
493 857 [4]
675 1197 [2]
371 1197 [11]
1197 1460 [5]
216 1197 [0]
216 1417 [0]
165 1417 [0]
165 1010 [0]
165 204 [9]
194 300 [0]
194 243 [0]
1034 1183 [8]
772 1034 [0]
772 986 [2]
772 1273 [7]
772 1444 [0]
330 772 [3]
887 1444 [0]
464 887 [0]
464 867 [0]
26 867 [1]
207 867 [0]
511 807 [0]
807 1527 [7]
1284 1503 [8]
943 1503 [0]
903 943 [6]
329 943 [0]
943 984 [1]
943 950 [4]
329 1147 [0]
1147 1294 [0]
1147 1547 [0]
1357 1547 [0]
619 1547 [9]
710 1547 [5]
97 1357 [0]
489 504 [0]
489 1542 [11]
489 923 [6]
54 489 [0]
54 1332 [0]
1458 1582 [0]
622 1458 [0]
622 1018 [0]
622 1449 [10]
295 1018 [0]
295 641 [8]
127 295 [0]
127 1383 [0]
201 212 [4]
201 1022 [0]
751 1022 [0]
79 751 [0]
751 1414 [0]
465 929 [0]
98 465 [7]
927 929 [0]
927 1326 [0]
706 1326 [2]
507 1326 [0]
1326 1354 [11]
507 559 [0]
559 1067 [0]
1067 1138 [3]
413 1067 [4]
946 1067 [0]
946 1541 [0]
117 1541 [0]
117 1273 [0]
755 1521 [1]
844 1521 [6]
1436 1521 [0]
784 1462 [9]
381 784 [0]
60 1271 [0]
740 1271 [5]
60 1272 [5]
26 60 [0]
26 246 [0]
246 862 [8]
143 246 [0]
143 1413 [0]
11 1413 [4]
74 1413 [0]
74 592 [9]
73 74 [10]
74 1452 [8]
74 735 [0]
266 735 [0]
266 1297 [0]
266 1192 [3]
603 1297 [5]
576 1297 [0]
304 576 [0]
576 731 [7]
304 587 [0]
16 587 [0]
16 146 [0]
557 1597 [0]
200 1597 [0]
224 1597 [0]
1225 1597 [0]
575 596 [0]
575 859 [10]
596 973 [0]
398 1414 [1]
398 739 [11]
398 417 [0]
265 417 [0]
417 1418 [2]
11 417 [2]
774 1594 [0]
1281 1594 [6]
147 774 [0]
147 1225 [0]
90 147 [3]
659 1225 [0]
659 900 [0]
224 1102 [0]
224 1189 [0]
961 1102 [0]
729 961 [0]
961 1498 [9]
51 961 [11]
729 1333 [0]
729 857 [4]
729 1120 [2]
840 1333 [0]
840 1203 [0]
862 1203 [0]
283 862 [10]
862 1089 [0]
169 862 [7]
1089 1361 [0]
1299 1361 [0]
291 1299 [2]
160 1299 [0]
40 1299 [6]
854 1299 [7]
556 1240 [0]
793 1240 [0]
556 1355 [5]
556 815 [0]
413 556 [4]
214 815 [0]
94 892 [0]
94 674 [8]
892 993 [0]
710 993 [3]
391 993 [0]
391 957 [10]
391 1401 [0]
675 1418 [0]
858 1599 [0]
740 1495 [0]
921 1134 [0]
1033 1134 [2]
921 1581 [9]
307 921 [1]
921 1534 [0]
1183 1574 [7]
738 1183 [0]
22 145 [0]
145 1483 [0]
995 1483 [0]
995 1393 [6]
995 1307 [0]
794 995 [0]
503 995 [4]
73 794 [0]
368 424 [0]
424 439 [5]
424 1085 [8]
368 838 [10]
368 1555 [6]
368 1392 [0]
897 1392 [9]
1284 1392 [0]
1232 1392 [0]
996 1180 [0]
360 1096 [0]
986 1096 [7]
647 1096 [11]
360 1080 [0]
252 1080 [0]
302 950 [0]
350 755 [0]
411 1191 [0]
411 590 [4]
1191 1407 [10]
1191 1290 [0]
1121 1290 [0]
764 1549 [1]
167 764 [0]
167 1462 [0]
167 1393 [0]
167 182 [5]
167 219 [4]
739 1462 [0]
577 739 [0]
533 756 [0]
276 533 [0]
538 928 [0]
538 905 [0]
905 935 [0]
721 1213 [0]
1159 1213 [0]
132 1542 [4]
219 1542 [0]
219 1017 [0]
109 1017 [0]
109 565 [0]
565 1082 [0]
1082 1145 [0]
1120 1145 [0]
963 1120 [0]
284 963 [3]
963 1581 [10]
963 1423 [0]
234 963 [8]
458 903 [0]
458 1567 [2]
458 1252 [0]
318 427 [0]
318 1235 [0]
181 1077 [8]
1077 1535 [0]
296 1077 [3]
198 917 [0]
247 917 [6]
124 1036 [0]
602 1036 [0]
922 1036 [0]
602 890 [2]
234 602 [0]
851 1475 [0]
545 1475 [9]
482 851 [0]
436 627 [1]
436 1266 [0]
1084 1266 [9]
1266 1569 [0]
1301 1569 [0]
572 859 [0]
572 1526 [10]
693 859 [0]
169 305 [0]
115 159 [0]
115 773 [7]
159 1256 [4]
159 616 [0]
159 292 [4]
616 1407 [0]
342 459 [0]
342 763 [0]
342 631 [6]
459 513 [0]
459 710 [11]
371 513 [0]
371 1335 [0]
284 1129 [0]
284 775 [0]
11 775 [0]
775 1281 [0]
11 1567 [0]
553 590 [0]
182 553 [5]
85 553 [2]
88 763 [0]
763 1084 [1]
105 763 [2]
181 763 [8]
331 1267 [0]
331 838 [0]
292 331 [4]
1284 1579 [0]
1139 1566 [9]
615 1139 [0]
1139 1256 [0]
503 1429 [0]
247 1342 [7]
1156 1342 [0]
293 1156 [0]
85 293 [2]
197 293 [0]
197 1584 [4]
197 210 [0]
197 1498 [3]
545 1072 [0]
521 1072 [0]
957 1072 [0]
212 521 [0]
212 712 [0]
85 712 [0]
85 396 [0]
396 835 [0]
780 835 [1]
835 1350 [0]
552 835 [10]
1278 1350 [0]
857 1454 [4]
336 1454 [0]
336 1393 [0]
190 1393 [8]
31 1393 [0]
31 1256 [0]
1256 1527 [0]
283 1527 [0]
445 457 [1]
457 1509 [0]
1270 1509 [0]
1270 1319 [2]
1270 1465 [0]
545 611 [0]
611 1011 [0]
291 1433 [0]
291 1385 [0]
404 638 [0]
638 1584 [0]
592 638 [0]
779 1201 [0]
710 779 [5]
1081 1214 [0]
737 1584 [5]
555 737 [0]
311 555 [6]
309 555 [0]
555 957 [0]
292 957 [0]
885 1189 [0]
885 955 [0]
141 662 [0]
141 592 [0]
592 1056 [7]
592 1584 [0]
432 592 [3]
509 1584 [0]
571 1169 [0]
714 888 [0]
202 1412 [11]
413 1412 [0]
413 1281 [0]
536 1281 [0]
106 1229 [4]
132 1229 [0]
667 857 [0]
500 667 [0]
500 826 [0]
826 934 [0]
363 826 [10]
43 934 [0]
43 915 [0]
448 1581 [0]
544 1581 [0]
544 780 [0]
780 1566 [9]
780 1574 [0]
1185 1574 [0]
1185 1481 [8]
209 1185 [0]
506 967 [0]
204 244 [0]
922 1003 [0]
250 354 [0]
354 731 [0]
731 1406 [0]
605 1406 [0]
641 1406 [1]
605 1140 [0]
552 1140 [0]
844 1557 [0]
1000 1557 [0]
529 1557 [4]
1000 1328 [0]
339 485 [0]
485 1591 [0]
195 1202 [0]
195 897 [9]
195 1549 [0]
890 1549 [0]
890 956 [0]
232 1460 [0]
312 1074 [0]
628 1126 [0]
959 1289 [0]
106 111 [0]
111 248 [0]
627 1409 [2]
598 627 [6]
627 694 [0]
483 694 [0]
278 483 [0]
483 1231 [0]
529 1171 [0]
307 1171 [0]
84 1447 [4]
84 330 [0]
588 799 [0]
1136 1334 [0]
349 1334 [0]
5 1354 [0]
1354 1445 [0]
90 570 [0]
429 1109 [0]
319 429 [0]
598 1580 [0]
598 1323 [6]
279 1447 [0]
375 986 [0]
297 792 [4]
647 792 [0]
351 1526 [0]
451 1566 [3]
898 1566 [0]
1001 1598 [0]
451 897 [0]
310 954 [0]
936 1319 [9]
1319 1409 [0]
1047 1319 [4]
297 317 [0]
1282 1555 [0]
1158 1515 [0]
211 722 [0]
1136 1516 [0]
962 1516 [0]
23 82 [0]
309 1437 [0]
432 619 [0]
710 1587 [0]
98 1047 [0]
