32
3
16
30
4
21
13
5
17
24
10
2
28
19
14
9
12
8
11
6
27
31
25
1
29
7
23
20
18
3
22
0
15
26
16 19 [0]
6 16 [0]
11 16 [0]
14 16 [0]
15 16 [0]
16 30 [0]
21 30 [0]
20 30 [1]
23 30 [1]
4 30 [0]
4 21 [0]
4 24 [1]
10 21 [0]
13 21 [0]
21 25 [2]
11 13 [2]
5 13 [0]
13 26 [2]
5 8 [2]
5 17 [0]
0 5 [2]
17 24 [0]
10 17 [0]
12 24 [1]
10 24 [0]
2 10 [0]
2 28 [0]
23 28 [1]
7 28 [1]
19 28 [0]
19 31 [0]
14 19 [0]
8 14 [0]
9 14 [0]
9 12 [0]
9 23 [1]
12 27 [1]
8 12 [0]
8 20 [2]
8 27 [1]
8 11 [0]
11 27 [1]
6 11 [0]
11 15 [0]
6 29 [2]
6 27 [0]
18 27 [0]
27 31 [0]
22 31 [0]
25 31 [0]
23 31 [0]
20 31 [0]
25 29 [0]
1 25 [0]
1 15 [1]
1 29 [0]
20 23 [0]
18 20 [0]
