30
2
27
21
22
0
3
6
9
11
13
18
16
1
2
8
7
24
12
14
29
20
28
5
17
26
23
25
19
15
10
4
2 3 [0]
4 5 [0]
0 2 [0]
2 4 [0]
16 18 [0]
0 3 [0]
6 9 [0]
2 5 [0]
6 11 [0]
2 7 [0]
4 10 [0]
14 20 [0]
6 13 [0]
20 29 [0]
2 12 [0]
6 16 [0]
14 24 [0]
4 15 [0]
2 14 [0]
2 21 [0]
2 22 [0]
2 27 [0]
7 8 [0]
1 2 [0]
9 11 [0]
11 13 [0]
15 17 [0]
3 6 [0]
13 16 [0]
5 10 [0]
13 18 [0]
21 27 [0]
5 15 [0]
15 26 [0]
5 17 [0]
5 21 [0]
7 24 [0]
5 26 [0]
3 4 [1]
21 22 [1]
5 7 [1]
4 6 [1]
5 8 [1]
7 12 [1]
4 9 [1]
16 23 [1]
7 14 [1]
11 19 [1]
20 28 [1]
13 23 [1]
9 19 [1]
13 25 [1]
7 20 [1]
11 25 [1]
7 28 [1]
7 29 [1]
