32
3
16
19
28
23
20
30
21
4
24
12
27
18
0
5
8
14
9
1
15
11
13
26
2
10
17
3
6
29
25
31
22
7
7 28 [0]
19 31 [1]
23 31 [0]
6 16 [2]
20 31 [0]
21 25 [0]
2 28 [1]
27 31 [0]
11 16 [2]
15 16 [2]
10 21 [0]
6 27 [0]
17 24 [1]
14 16 [2]
10 24 [1]
14 19 [2]
13 21 [0]
9 23 [1]
1 25 [0]
5 17 [0]
1 29 [1]
8 20 [2]
11 27 [0]
18 20 [2]
9 12 [1]
6 11 [2]
5 13 [0]
8 11 [0]
8 12 [1]
16 30 [0]
8 27 [1]
23 30 [1]
4 30 [1]
16 19 [0]
20 23 [0]
0 5 [0]
8 14 [0]
10 17 [0]
2 10 [0]
18 27 [0]
22 31 [0]
20 30 [0]
12 24 [0]
12 27 [0]
4 21 [0]
4 24 [0]
6 29 [0]
11 13 [0]
5 8 [0]
11 15 [0]
25 29 [0]
9 14 [0]
23 28 [0]
25 31 [0]
19 28 [0]
21 30 [0]
13 26 [0]
1 15 [0]
