1000
8
500
855
2
554
9
213
316
1
838
92
387
6
219
440
384
3
811
5
157
739
10
832
8
85
704
209
663
22
333
4
392
188
924
357
549
267
113
825
23
816
11
79
682
80
871
114
266
100
7
374
366
604
216
593
36
510
48
944
241
147
489
436
566
158
75
229
27
236
14
131
890
225
56
258
38
760
343
409
420
272
508
16
96
0
902
129
571
887
87
358
865
280
29
403
821
295
955
423
154
42
231
853
211
557
665
720
452
185
73
494
511
69
631
276
345
958
148
196
444
652
486
399
933
186
518
28
53
986
479
35
845
822
725
749
458
255
966
363
707
678
197
787
201
66
415
791
50
477
64
313
167
13
847
204
262
91
607
909
442
260
762
93
51
173
33
341
485
117
475
922
748
550
94
44
753
529
32
926
323
813
714
407
471
591
925
86
273
321
119
638
332
12
583
101
83
576
334
839
109
784
645
318
411
20
706
141
975
233
809
989
469
626
858
435
421
540
960
509
90
159
711
360
24
386
938
603
450
590
143
416
352
900
39
330
112
181
222
686
996
247
772
21
61
348
263
596
722
199
519
544
176
210
187
246
58
228
286
70
434
836
734
987
105
826
25
730
601
703
661
149
973
34
287
301
377
979
82
758
189
621
643
249
283
646
152
912
401
820
282
735
988
190
888
930
17
257
198
449
530
969
284
687
623
37
315
731
291
634
594
319
98
614
742
227
311
567
102
116
659
528
683
905
356
940
480
99
507
179
764
54
713
192
896
156
115
916
68
310
49
800
770
305
128
135
556
892
585
391
884
84
235
208
331
906
558
232
300
296
268
137
889
18
968
15
292
915
619
690
894
327
497
126
586
642
563
175
521
89
949
19
913
350
525
548
708
700
76
630
344
103
488
426
353
428
534
74
520
433
541
561
981
406
378
849
97
498
140
506
347
617
111
182
468
977
624
281
122
964
206
577
88
911
346
463
688
215
841
961
532
786
799
171
676
41
620
455
487
539
203
43
230
242
803
794
880
427
441
957
777
178
335
240
349
718
597
842
297
908
259
174
57
459
754
221
560
662
195
815
385
397
985
447
942
616
740
121
879
130
953
78
553
664
45
338
106
866
52
859
790
750
354
644
878
759
581
765
582
747
429
464
856
466
499
963
183
983
108
398
727
483
361
774
844
107
380
692
256
572
565
882
191
736
177
636
737
864
655
503
921
741
26
408
400
104
264
755
609
322
309
517
943
810
830
685
533
139
941
608
410
992
828
956
951
342
869
781
673
613
881
639
417
920
796
697
935
622
362
513
252
523
768
516
145
929
446
59
904
325
445
719
277
605
937
775
244
381
412
788
867
31
118
627
751
200
782
651
419
470
611
536
633
588
877
40
142
568
835
389
299
394
876
699
239
587
801
95
336
795
552
997
270
843
207
337
551
473
165
804
439
589
971
632
999
155
314
138
490
848
418
653
288
402
457
779
891
715
808
390
253
658
798
771
60
672
840
733
261
732
290
903
598
265
886
538
379
650
312
862
30
274
124
492
453
505
47
641
823
151
164
701
939
512
948
628
543
371
797
657
153
144
555
372
72
245
303
55
180
947
618
202
998
542
606
355
901
656
324
824
689
792
993
950
723
679
806
168
120
677
317
789
691
375
456
388
984
978
546
726
431
728
746
680
307
425
818
834
895
917
438
302
569
829
393
238
745
304
351
812
602
424
610
422
294
982
359
474
833
910
694
414
364
443
169
515
972
625
600
46
612
382
289
285
250
932
872
897
705
254
243
952
648
807
814
654
783
861
161
907
780
852
448
376
868
637
77
326
454
476
413
709
462
936
484
133
370
717
482
237
527
575
669
670
710
383
570
702
668
946
502
945
166
819
465
831
248
875
914
976
467
671
873
980
615
134
160
67
493
279
579
578
778
744
437
584
293
793
432
860
761
769
649
995
170
592
766
127
919
802
163
205
531
478
757
251
899
874
132
226
743
994
220
125
962
234
967
696
184
218
559
870
595
776
846
396
599
328
854
667
472
298
368
970
65
329
885
857
851
684
269
271
62
756
959
224
827
369
367
738
63
660
365
162
805
763
712
893
647
931
308
545
395
212
340
695
504
729
991
918
481
547
537
461
674
863
785
721
724
278
339
214
681
71
430
535
965
817
275
526
373
123
923
150
635
934
217
767
136
883
193
640
81
698
524
666
752
223
496
675
306
562
146
564
773
898
451
580
405
491
954
514
693
110
629
172
460
927
573
501
716
974
928
837
404
495
574
990
320
194
522
850
0 500 [0]
1 500 [0]
2 500 [0]
4 500 [0]
5 500 [0]
8 500 [0]
9 500 [0]
22 500 [0]
60 500 [0]
500 672 [0]
500 733 [0]
500 840 [0]
500 855 [0]
0 855 [1]
2 855 [0]
4 855 [1]
9 855 [1]
22 855 [1]
60 855 [1]
672 855 [1]
733 855 [1]
0 2 [2]
1 2 [2]
2 3 [2]
2 4 [2]
2 5 [2]
2 6 [2]
2 7 [2]
2 8 [2]
2 9 [0]
2 10 [2]
2 11 [2]
2 12 [2]
2 13 [2]
2 14 [2]
2 15 [2]
2 16 [2]
2 17 [2]
2 18 [2]
2 19 [2]
2 20 [2]
2 22 [2]
2 23 [2]
2 24 [2]
2 25 [2]
2 27 [2]
2 28 [2]
2 29 [2]
2 30 [2]
2 31 [2]
2 33 [2]
2 34 [2]
2 35 [2]
2 36 [2]
2 37 [2]
2 38 [2]
2 40 [2]
2 42 [2]
2 44 [2]
2 45 [2]
2 46 [2]
2 47 [2]
2 48 [2]
2 50 [2]
2 51 [2]
2 52 [2]
2 53 [2]
2 54 [2]
2 55 [2]
2 56 [2]
2 57 [2]
2 58 [2]
2 59 [2]
2 60 [2]
2 62 [2]
2 63 [2]
2 64 [2]
2 65 [2]
2 67 [2]
2 71 [2]
2 75 [2]
2 78 [2]
2 82 [2]
2 84 [2]
2 85 [2]
2 86 [2]
2 87 [2]
2 88 [2]
2 90 [2]
2 91 [2]
2 93 [2]
2 94 [2]
2 96 [2]
2 98 [2]
2 99 [2]
2 102 [2]
2 104 [2]
2 105 [2]
2 106 [2]
2 107 [2]
2 108 [2]
2 109 [2]
2 110 [2]
2 116 [2]
2 117 [2]
2 118 [2]
2 119 [2]
2 120 [2]
2 122 [2]
2 123 [2]
2 124 [2]
2 125 [2]
2 126 [2]
2 127 [2]
2 129 [2]
2 131 [2]
2 133 [2]
2 136 [2]
2 139 [2]
2 141 [2]
2 142 [2]
2 143 [2]
2 146 [2]
2 147 [2]
2 148 [2]
2 149 [2]
2 151 [2]
2 152 [2]
2 154 [2]
2 157 [2]
2 158 [2]
2 163 [2]
2 164 [2]
2 165 [2]
2 167 [2]
2 168 [2]
2 169 [2]
2 170 [2]
2 173 [2]
2 174 [2]
2 175 [2]
2 176 [2]
2 177 [2]
2 178 [2]
2 179 [2]
2 183 [2]
2 184 [2]
2 186 [2]
2 187 [2]
2 189 [2]
2 191 [2]
2 192 [2]
2 193 [2]
2 194 [2]
2 196 [2]
2 198 [2]
2 200 [2]
2 205 [2]
2 206 [2]
2 207 [2]
2 208 [2]
2 209 [2]
2 210 [2]
2 211 [2]
2 212 [2]
2 214 [2]
2 216 [2]
2 217 [2]
2 219 [2]
2 220 [2]
2 221 [2]
2 225 [2]
2 228 [2]
2 229 [2]
2 231 [2]
2 233 [2]
2 235 [2]
2 236 [2]
2 238 [2]
2 239 [2]
2 240 [2]
2 241 [2]
2 244 [2]
2 246 [2]
2 249 [2]
2 252 [2]
2 253 [2]
2 254 [2]
2 255 [2]
2 257 [2]
2 259 [2]
2 260 [2]
2 261 [2]
2 264 [2]
2 265 [2]
2 270 [2]
2 271 [2]
2 272 [2]
2 273 [2]
2 277 [2]
2 278 [2]
2 281 [2]
2 283 [2]
2 284 [2]
2 287 [2]
2 288 [2]
2 289 [2]
2 290 [2]
2 292 [2]
2 293 [2]
2 295 [2]
2 297 [2]
2 298 [2]
2 299 [2]
2 301 [2]
2 307 [2]
2 308 [2]
2 309 [2]
2 313 [2]
2 315 [2]
2 317 [2]
2 318 [2]
2 321 [2]
2 322 [2]
2 324 [2]
2 327 [2]
2 329 [2]
2 331 [2]
2 332 [2]
2 334 [2]
2 335 [2]
2 338 [2]
2 339 [2]
2 340 [2]
2 341 [2]
2 342 [2]
2 343 [2]
2 346 [2]
2 349 [2]
2 350 [2]
2 351 [2]
2 354 [2]
2 355 [2]
2 356 [2]
2 358 [2]
2 360 [2]
2 361 [2]
2 363 [2]
2 365 [2]
2 366 [2]
2 368 [2]
2 370 [2]
2 371 [2]
2 373 [2]
2 374 [2]
2 377 [2]
2 378 [2]
2 379 [2]
2 380 [2]
2 381 [2]
2 382 [2]
2 383 [2]
2 384 [2]
2 386 [2]
2 388 [2]
2 389 [2]
2 390 [2]
2 391 [2]
2 394 [2]
2 398 [2]
2 401 [2]
2 402 [2]
2 403 [2]
2 404 [2]
2 405 [2]
2 406 [2]
2 407 [2]
2 409 [2]
2 410 [2]
2 411 [2]
2 413 [2]
2 416 [2]
2 417 [2]
2 420 [2]
2 423 [2]
2 427 [2]
2 428 [2]
2 430 [2]
2 431 [2]
2 432 [2]
2 436 [2]
2 437 [2]
2 439 [2]
2 440 [2]
2 441 [2]
2 442 [2]
2 444 [2]
2 447 [2]
2 449 [2]
2 450 [2]
2 455 [2]
2 456 [2]
2 457 [2]
2 458 [2]
2 459 [2]
2 460 [2]
2 461 [2]
2 469 [2]
2 470 [2]
2 471 [2]
2 472 [2]
2 473 [2]
2 475 [2]
2 479 [2]
2 480 [2]
2 484 [2]
2 485 [2]
2 487 [2]
2 489 [2]
2 491 [2]
2 497 [2]
2 499 [2]
2 501 [2]
2 502 [2]
2 503 [2]
2 505 [2]
2 507 [2]
2 508 [2]
2 509 [2]
2 510 [2]
2 512 [2]
2 513 [2]
2 514 [2]
2 515 [2]
2 517 [2]
2 518 [2]
2 525 [2]
2 526 [2]
2 528 [2]
2 530 [2]
2 532 [2]
2 533 [2]
2 535 [2]
2 536 [2]
2 537 [2]
2 538 [2]
2 543 [2]
2 544 [2]
2 548 [2]
2 550 [2]
2 552 [2]
2 553 [2]
2 554 [0]
2 555 [2]
2 557 [2]
2 559 [2]
2 560 [2]
2 561 [2]
2 562 [2]
2 566 [2]
2 568 [2]
2 570 [2]
2 574 [2]
2 577 [2]
2 578 [2]
2 581 [2]
2 584 [2]
2 586 [2]
2 587 [2]
2 589 [2]
2 591 [2]
2 592 [2]
2 593 [2]
2 595 [2]
2 597 [2]
2 601 [2]
2 604 [2]
2 605 [2]
2 606 [2]
2 607 [2]
2 608 [2]
2 609 [2]
2 612 [2]
2 613 [2]
2 615 [2]
2 619 [2]
2 621 [2]
2 622 [2]
2 623 [2]
2 624 [2]
2 626 [2]
2 627 [2]
2 628 [2]
2 629 [2]
2 632 [2]
2 636 [2]
2 638 [2]
2 639 [2]
2 640 [2]
2 641 [2]
2 642 [2]
2 643 [2]
2 645 [2]
2 646 [2]
2 648 [2]
2 651 [2]
2 653 [2]
2 655 [2]
2 656 [2]
2 657 [2]
2 658 [2]
2 659 [2]
2 660 [2]
2 661 [2]
2 662 [2]
2 664 [2]
2 665 [2]
2 667 [2]
2 670 [2]
2 671 [2]
2 672 [2]
2 674 [2]
2 683 [2]
2 685 [2]
2 687 [2]
2 689 [2]
2 690 [2]
2 693 [2]
2 694 [2]
2 695 [2]
2 697 [2]
2 698 [2]
2 699 [2]
2 701 [2]
2 702 [2]
2 703 [2]
2 704 [2]
2 706 [2]
2 707 [2]
2 708 [2]
2 710 [2]
2 712 [2]
2 713 [2]
2 714 [2]
2 715 [2]
2 716 [2]
2 718 [2]
2 719 [2]
2 720 [2]
2 724 [2]
2 725 [2]
2 730 [2]
2 733 [2]
2 734 [2]
2 736 [2]
2 737 [2]
2 739 [2]
2 744 [2]
2 746 [2]
2 748 [2]
2 749 [2]
2 750 [2]
2 751 [2]
2 752 [2]
2 753 [2]
2 754 [2]
2 755 [2]
2 756 [2]
2 758 [2]
2 759 [2]
2 760 [2]
2 761 [2]
2 762 [2]
2 763 [2]
2 764 [2]
2 766 [2]
2 767 [2]
2 768 [2]
2 769 [2]
2 771 [2]
2 773 [2]
2 774 [2]
2 777 [2]
2 778 [2]
2 781 [2]
2 782 [2]
2 783 [2]
2 784 [2]
2 785 [2]
2 786 [2]
2 790 [2]
2 792 [2]
2 793 [2]
2 795 [2]
2 796 [2]
2 797 [2]
2 798 [2]
2 804 [2]
2 805 [2]
2 807 [2]
2 808 [2]
2 809 [2]
2 810 [2]
2 811 [2]
2 812 [2]
2 821 [2]
2 822 [2]
2 823 [2]
2 824 [2]
2 826 [2]
2 827 [2]
2 828 [2]
2 829 [2]
2 830 [2]
2 835 [2]
2 836 [2]
2 837 [2]
2 839 [2]
2 842 [2]
2 843 [2]
2 844 [2]
2 845 [2]
2 852 [2]
2 857 [2]
2 858 [2]
2 859 [2]
2 860 [2]
2 862 [2]
2 864 [2]
2 865 [2]
2 867 [2]
2 869 [2]
2 872 [2]
2 873 [2]
2 876 [2]
2 877 [2]
2 881 [2]
2 883 [2]
2 884 [2]
2 885 [2]
2 890 [2]
2 891 [2]
2 894 [2]
2 896 [2]
2 897 [2]
2 898 [2]
2 902 [2]
2 903 [2]
2 905 [2]
2 908 [2]
2 909 [2]
2 910 [2]
2 911 [2]
2 912 [2]
2 913 [2]
2 914 [2]
2 915 [2]
2 918 [2]
2 919 [2]
2 920 [2]
2 922 [2]
2 925 [2]
2 928 [2]
2 930 [2]
2 934 [2]
2 939 [2]
2 940 [2]
2 941 [2]
2 943 [2]
2 944 [2]
2 948 [2]
2 950 [2]
2 951 [2]
2 955 [2]
2 956 [2]
2 958 [2]
2 959 [2]
2 961 [2]
2 962 [2]
2 963 [2]
2 964 [2]
2 965 [2]
2 966 [2]
2 969 [2]
2 971 [2]
2 972 [2]
2 973 [2]
2 974 [2]
2 975 [2]
2 977 [2]
2 979 [2]
2 980 [2]
2 981 [2]
2 983 [2]
2 984 [2]
2 986 [2]
2 987 [2]
2 989 [2]
2 997 [2]
1 554 [2]
4 554 [3]
8 554 [3]
9 554 [0]
12 554 [3]
47 554 [3]
151 554 [3]
164 554 [3]
0 9 [4]
1 9 [0]
3 9 [1]
4 9 [4]
5 9 [1]
6 9 [1]
7 9 [4]
8 9 [1]
9 10 [1]
9 11 [4]
9 12 [4]
9 13 [4]
9 14 [4]
9 15 [4]
9 16 [4]
9 17 [4]
9 18 [4]
9 19 [4]
9 20 [4]
9 21 [4]
9 22 [1]
9 23 [4]
9 24 [4]
9 25 [4]
9 26 [4]
9 30 [4]
9 31 [4]
9 33 [4]
9 34 [4]
9 36 [4]
9 37 [4]
9 39 [4]
9 40 [4]
9 45 [4]
9 46 [4]
9 47 [4]
9 48 [4]
9 49 [4]
9 51 [4]
9 52 [4]
9 54 [4]
9 55 [4]
9 57 [4]
9 59 [4]
9 60 [4]
9 61 [4]
9 62 [4]
9 65 [4]
9 67 [4]
9 68 [4]
9 69 [4]
9 70 [4]
9 71 [4]
9 72 [4]
9 73 [4]
9 74 [4]
9 78 [4]
9 79 [4]
9 80 [4]
9 81 [4]
9 83 [4]
9 84 [4]
9 88 [4]
9 89 [4]
9 90 [4]
9 92 [1]
9 95 [4]
9 96 [4]
9 97 [4]
9 99 [4]
9 100 [4]
9 101 [4]
9 107 [4]
9 109 [4]
9 111 [4]
9 112 [4]
9 113 [4]
9 114 [4]
9 115 [4]
9 117 [4]
9 118 [4]
9 121 [4]
9 122 [4]
9 124 [4]
9 125 [4]
9 130 [4]
9 132 [4]
9 134 [4]
9 137 [4]
9 140 [4]
9 141 [4]
9 142 [4]
9 143 [4]
9 144 [4]
9 145 [4]
9 148 [4]
9 150 [4]
9 151 [4]
9 152 [4]
9 153 [4]
9 156 [4]
9 160 [4]
9 163 [4]
9 164 [4]
9 166 [4]
9 173 [4]
9 174 [4]
9 177 [4]
9 179 [4]
9 180 [4]
9 181 [4]
9 182 [4]
9 183 [4]
9 184 [4]
9 185 [4]
9 188 [4]
9 190 [4]
9 191 [4]
9 193 [4]
9 194 [4]
9 195 [4]
9 196 [4]
9 199 [4]
9 200 [4]
9 206 [4]
9 208 [4]
9 212 [4]
9 213 [0]
9 214 [4]
9 216 [4]
9 218 [4]
9 221 [4]
9 222 [4]
9 223 [4]
9 226 [4]
9 232 [4]
9 233 [4]
9 234 [4]
9 235 [4]
9 238 [4]
9 239 [4]
9 245 [4]
9 247 [4]
9 252 [4]
9 253 [4]
9 259 [4]
9 263 [4]
9 266 [4]
9 267 [4]
9 268 [4]
9 271 [4]
9 274 [4]
9 275 [4]
9 276 [4]
9 277 [4]
9 281 [4]
9 282 [4]
9 283 [4]
9 284 [4]
9 291 [4]
9 292 [4]
9 294 [4]
9 296 [4]
9 297 [4]
9 300 [4]
9 302 [4]
9 303 [4]
9 304 [4]
9 306 [4]
9 307 [4]
9 308 [4]
9 309 [4]
9 310 [4]
9 312 [4]
9 318 [4]
9 320 [4]
9 322 [4]
9 324 [4]
9 328 [4]
9 330 [4]
9 331 [4]
9 333 [4]
9 334 [4]
9 337 [4]
9 339 [4]
9 341 [4]
9 345 [4]
9 346 [4]
9 347 [4]
9 348 [4]
9 350 [4]
9 352 [4]
9 355 [4]
9 356 [4]
9 359 [4]
9 361 [4]
9 364 [4]
9 369 [4]
9 371 [4]
9 375 [4]
9 376 [4]
9 379 [4]
9 380 [4]
9 386 [4]
9 387 [1]
9 388 [4]
9 391 [4]
9 393 [4]
9 396 [4]
9 401 [4]
9 402 [4]
9 404 [4]
9 405 [4]
9 413 [4]
9 414 [4]
9 416 [4]
9 417 [4]
9 418 [4]
9 419 [4]
9 421 [4]
9 422 [4]
9 424 [4]
9 425 [4]
9 427 [4]
9 430 [4]
9 433 [4]
9 435 [4]
9 437 [4]
9 438 [4]
9 441 [4]
9 443 [4]
9 446 [4]
9 447 [4]
9 448 [4]
9 451 [4]
9 452 [4]
9 453 [4]
9 455 [4]
9 456 [4]
9 459 [4]
9 461 [4]
9 462 [4]
9 468 [4]
9 469 [4]
9 470 [4]
9 474 [4]
9 480 [4]
9 482 [4]
9 483 [4]
9 484 [4]
9 487 [4]
9 490 [4]
9 492 [4]
9 494 [4]
9 496 [4]
9 498 [4]
9 499 [4]
9 501 [4]
9 505 [4]
9 506 [4]
9 507 [4]
9 510 [4]
9 511 [4]
9 512 [4]
9 513 [4]
9 516 [4]
9 517 [4]
9 519 [4]
9 520 [4]
9 523 [4]
9 525 [4]
9 526 [4]
9 530 [4]
9 532 [4]
9 534 [4]
9 540 [4]
9 541 [4]
9 543 [4]
9 548 [4]
9 551 [4]
9 553 [4]
9 555 [4]
9 559 [4]
9 560 [4]
9 561 [4]
9 563 [4]
9 564 [4]
9 568 [4]
9 569 [4]
9 573 [4]
9 574 [4]
9 576 [4]
9 577 [4]
9 578 [4]
9 580 [4]
9 581 [4]
9 582 [4]
9 587 [4]
9 593 [4]
9 596 [4]
9 597 [4]
9 599 [4]
9 602 [4]
9 605 [4]
9 606 [4]
9 609 [4]
9 610 [4]
9 615 [4]
9 616 [4]
9 617 [4]
9 618 [4]
9 619 [4]
9 624 [4]
9 626 [4]
9 628 [4]
9 631 [4]
9 634 [4]
9 635 [4]
9 636 [4]
9 641 [4]
9 645 [4]
9 646 [4]
9 647 [4]
9 649 [4]
9 650 [4]
9 651 [4]
9 656 [4]
9 662 [4]
9 664 [4]
9 668 [4]
9 672 [4]
9 673 [4]
9 675 [4]
9 684 [4]
9 686 [4]
9 687 [4]
9 689 [4]
9 690 [4]
9 692 [4]
9 694 [4]
9 697 [4]
9 701 [4]
9 705 [4]
9 706 [4]
9 708 [4]
9 709 [4]
9 715 [4]
9 717 [4]
9 718 [4]
9 721 [4]
9 727 [4]
9 728 [4]
9 731 [4]
9 733 [4]
9 735 [4]
9 736 [4]
9 740 [4]
9 741 [4]
9 743 [4]
9 744 [4]
9 745 [4]
9 746 [4]
9 747 [4]
9 754 [4]
9 756 [4]
9 759 [4]
9 763 [4]
9 764 [4]
9 765 [4]
9 769 [4]
9 770 [4]
9 771 [4]
9 773 [4]
9 774 [4]
9 778 [4]
9 780 [4]
9 783 [4]
9 784 [4]
9 786 [4]
9 792 [4]
9 793 [4]
9 794 [4]
9 795 [4]
9 796 [4]
9 798 [4]
9 800 [4]
9 801 [4]
9 802 [4]
9 805 [4]
9 807 [4]
9 808 [4]
9 814 [4]
9 815 [4]
9 816 [4]
9 817 [4]
9 820 [4]
9 823 [4]
9 824 [4]
9 828 [4]
9 829 [4]
9 833 [4]
9 838 [1]
9 840 [4]
9 842 [4]
9 844 [4]
9 846 [4]
9 848 [4]
9 849 [4]
9 852 [4]
9 862 [4]
9 868 [4]
9 870 [4]
9 871 [4]
9 874 [4]
9 875 [4]
9 877 [4]
9 879 [4]
9 884 [4]
9 888 [4]
9 891 [4]
9 898 [4]
9 899 [4]
9 900 [4]
9 901 [4]
9 904 [4]
9 907 [4]
9 908 [4]
9 911 [4]
9 912 [4]
9 913 [4]
9 915 [4]
9 917 [4]
9 920 [4]
9 923 [4]
9 927 [4]
9 929 [4]
9 931 [4]
9 936 [4]
9 940 [4]
9 942 [4]
9 943 [4]
9 945 [4]
9 946 [4]
9 947 [4]
9 953 [4]
9 954 [4]
9 957 [4]
9 958 [4]
9 959 [4]
9 960 [4]
9 962 [4]
9 963 [4]
9 964 [4]
9 967 [4]
9 968 [4]
9 975 [4]
9 981 [4]
9 983 [4]
9 988 [4]
9 994 [4]
9 995 [4]
9 999 [4]
1 213 [0]
5 213 [3]
6 213 [3]
7 213 [5]
8 213 [3]
10 213 [3]
15 213 [5]
30 213 [5]
213 316 [0]
213 899 [5]
1 316 [0]
5 316 [4]
6 316 [3]
7 316 [5]
8 316 [4]
10 316 [4]
15 316 [6]
30 316 [6]
0 1 [6]
1 3 [0]
1 4 [5]
1 5 [0]
1 6 [0]
1 7 [5]
1 8 [5]
1 10 [5]
1 12 [6]
1 13 [6]
1 14 [6]
1 15 [6]
1 16 [6]
1 17 [6]
1 18 [6]
1 19 [7]
1 20 [6]
1 21 [6]
1 22 [5]
1 24 [6]
1 25 [6]
1 26 [7]
1 27 [6]
1 28 [6]
1 29 [6]
1 30 [7]
1 31 [7]
1 32 [6]
1 33 [6]
1 35 [6]
1 39 [6]
1 40 [7]
1 41 [7]
1 42 [6]
1 43 [7]
1 44 [6]
1 45 [7]
1 47 [7]
1 49 [6]
1 50 [6]
1 51 [6]
1 53 [6]
1 54 [6]
1 58 [6]
1 59 [7]
1 60 [7]
1 61 [6]
1 63 [7]
1 64 [6]
1 65 [7]
1 66 [6]
1 67 [7]
1 68 [6]
1 69 [6]
1 70 [6]
1 71 [7]
1 72 [7]
1 73 [6]
1 74 [7]
1 75 [6]
1 76 [7]
1 77 [7]
1 78 [7]
1 82 [6]
1 83 [6]
1 85 [5]
1 86 [6]
1 88 [7]
1 89 [7]
1 91 [6]
1 92 [0]
1 93 [6]
1 94 [6]
1 95 [7]
1 96 [6]
1 97 [7]
1 99 [6]
1 101 [6]
1 104 [7]
1 106 [7]
1 107 [7]
1 111 [7]
1 115 [6]
1 118 [7]
1 119 [6]
1 120 [7]
1 121 [7]
1 122 [7]
1 124 [7]
1 125 [7]
1 127 [7]
1 130 [7]
1 134 [7]
1 137 [6]
1 138 [7]
1 140 [7]
1 143 [6]
1 145 [7]
1 146 [7]
1 148 [6]
1 150 [7]
1 151 [7]
1 152 [6]
1 154 [6]
1 155 [7]
1 156 [6]
1 157 [5]
1 163 [7]
1 164 [7]
1 165 [7]
1 166 [7]
1 168 [7]
1 170 [7]
1 171 [7]
1 173 [6]
1 176 [6]
1 177 [7]
1 179 [6]
1 182 [7]
1 183 [7]
1 187 [6]
1 189 [6]
1 191 [7]
1 192 [6]
1 194 [7]
1 195 [7]
1 196 [6]
1 197 [6]
1 198 [6]
1 199 [6]
1 201 [6]
1 203 [7]
1 206 [7]
1 207 [7]
1 209 [5]
1 212 [7]
1 215 [7]
1 217 [7]
1 224 [7]
1 228 [6]
1 230 [7]
1 232 [6]
1 234 [7]
1 237 [7]
1 239 [7]
1 242 [7]
1 244 [7]
1 246 [6]
1 248 [7]
1 249 [6]
1 250 [7]
1 251 [7]
1 252 [7]
1 257 [6]
1 260 [6]
1 261 [7]
1 263 [6]
1 264 [7]
1 268 [6]
1 269 [7]
1 270 [7]
1 271 [7]
1 273 [6]
1 274 [7]
1 275 [7]
1 276 [6]
1 280 [6]
1 281 [7]
1 283 [6]
1 284 [6]
1 285 [7]
1 286 [6]
1 288 [7]
1 289 [7]
1 290 [7]
1 292 [7]
1 294 [7]
1 295 [6]
1 296 [6]
1 298 [7]
1 299 [7]
1 300 [6]
1 302 [7]
1 306 [7]
1 307 [7]
1 309 [7]
1 310 [6]
1 312 [7]
1 314 [7]
1 320 [7]
1 321 [6]
1 323 [6]
1 324 [7]
1 325 [7]
1 326 [7]
1 328 [7]
1 332 [6]
1 333 [5]
1 336 [7]
1 338 [7]
1 340 [7]
1 345 [6]
1 346 [7]
1 348 [6]
1 350 [7]
1 351 [7]
1 352 [6]
1 354 [7]
1 355 [7]
1 356 [6]
1 359 [7]
1 360 [6]
1 361 [7]
1 362 [7]
1 365 [7]
1 367 [7]
1 371 [7]
1 373 [7]
1 376 [7]
1 377 [6]
1 378 [7]
1 380 [7]
1 381 [7]
1 382 [7]
1 386 [6]
1 387 [0]
1 388 [7]
1 389 [7]
1 390 [7]
1 394 [7]
1 395 [7]
1 396 [7]
1 400 [7]
1 402 [7]
1 403 [6]
1 404 [7]
1 405 [7]
1 406 [7]
1 407 [6]
1 408 [7]
1 412 [7]
1 413 [7]
1 414 [7]
1 415 [6]
1 416 [6]
1 417 [7]
1 418 [7]
1 419 [7]
1 422 [7]
1 423 [6]
1 425 [7]
1 428 [7]
1 429 [7]
1 430 [7]
1 431 [7]
1 434 [6]
1 438 [7]
1 442 [6]
1 444 [6]
1 446 [7]
1 447 [7]
1 448 [7]
1 449 [6]
1 450 [6]
1 451 [7]
1 453 [7]
1 454 [7]
1 455 [7]
1 456 [7]
1 460 [7]
1 461 [7]
1 462 [7]
1 463 [7]
1 464 [7]
1 465 [7]
1 471 [6]
1 473 [7]
1 476 [7]
1 477 [6]
1 480 [6]
1 481 [7]
1 482 [7]
1 483 [7]
1 486 [6]
1 487 [7]
1 490 [7]
1 492 [7]
1 495 [7]
1 499 [7]
1 504 [7]
1 505 [7]
1 507 [6]
1 512 [7]
1 513 [7]
1 516 [7]
1 519 [6]
1 525 [7]
1 526 [7]
1 527 [7]
1 528 [6]
1 529 [6]
1 530 [6]
1 532 [7]
1 544 [6]
1 546 [7]
1 548 [7]
1 552 [7]
1 553 [7]
1 555 [7]
1 558 [6]
1 559 [7]
1 561 [7]
1 562 [7]
1 563 [7]
1 564 [7]
1 573 [7]
1 574 [7]
1 575 [7]
1 577 [7]
1 579 [7]
1 582 [7]
1 583 [6]
1 587 [7]
1 590 [6]
1 591 [6]
1 595 [7]
1 596 [6]
1 599 [7]
1 603 [6]
1 606 [7]
1 607 [6]
1 612 [7]
1 616 [7]
1 619 [7]
1 620 [7]
1 621 [6]
1 622 [7]
1 623 [6]
1 624 [7]
1 627 [7]
1 629 [7]
1 631 [6]
1 632 [7]
1 635 [7]
1 636 [7]
1 637 [7]
1 638 [6]
1 639 [7]
1 641 [7]
1 643 [6]
1 644 [7]
1 646 [6]
1 647 [7]
1 649 [7]
1 652 [6]
1 653 [7]
1 654 [7]
1 656 [7]
1 657 [7]
1 659 [6]
1 663 [5]
1 664 [7]
1 667 [7]
1 668 [7]
1 671 [7]
1 672 [7]
1 673 [7]
1 675 [7]
1 676 [7]
1 678 [6]
1 680 [7]
1 687 [6]
1 688 [7]
1 689 [7]
1 690 [7]
1 693 [7]
1 694 [7]
1 695 [7]
1 697 [7]
1 699 [7]
1 701 [7]
1 704 [5]
1 708 [7]
1 709 [7]
1 713 [6]
1 715 [7]
1 717 [7]
1 721 [7]
1 722 [6]
1 726 [7]
1 727 [7]
1 728 [7]
1 729 [7]
1 732 [7]
1 733 [7]
1 734 [6]
1 736 [7]
1 738 [7]
1 739 [5]
1 740 [7]
1 741 [7]
1 747 [7]
1 750 [7]
1 751 [7]
1 752 [7]
1 753 [6]
1 755 [7]
1 762 [6]
1 764 [6]
1 765 [7]
1 769 [7]
1 770 [6]
1 771 [7]
1 772 [6]
1 774 [7]
1 776 [7]
1 781 [7]
1 783 [7]
1 785 [7]
1 786 [7]
1 787 [6]
1 788 [7]
1 793 [7]
1 795 [7]
1 797 [7]
1 798 [7]
1 799 [7]
1 800 [6]
1 801 [7]
1 802 [7]
1 804 [7]
1 807 [7]
1 808 [7]
1 811 [0]
1 812 [7]
1 815 [7]
1 817 [7]
1 819 [7]
1 821 [6]
1 822 [6]
1 823 [7]
1 824 [7]
1 828 [7]
1 829 [7]
1 831 [7]
1 835 [7]
1 838 [0]
1 840 [7]
1 844 [7]
1 848 [7]
1 849 [7]
1 850 [7]
1 854 [7]
1 856 [7]
1 862 [7]
1 866 [7]
1 867 [7]
1 868 [7]
1 869 [7]
1 870 [7]
1 875 [7]
1 876 [7]
1 878 [7]
1 879 [7]
1 883 [7]
1 889 [6]
1 891 [7]
1 893 [7]
1 896 [6]
1 897 [7]
1 898 [7]
1 900 [6]
1 901 [7]
1 903 [7]
1 904 [7]
1 905 [6]
1 906 [6]
1 909 [6]
1 911 [7]
1 914 [7]
1 915 [7]
1 916 [6]
1 917 [7]
1 918 [7]
1 919 [7]
1 921 [7]
1 923 [7]
1 927 [7]
1 929 [7]
1 930 [6]
1 931 [7]
1 934 [7]
1 935 [7]
1 936 [7]
1 940 [6]
1 942 [7]
1 945 [7]
1 949 [7]
1 953 [7]
1 954 [7]
1 955 [6]
1 959 [7]
1 961 [7]
1 962 [7]
1 964 [7]
1 967 [7]
1 968 [6]
1 969 [6]
1 970 [7]
1 978 [7]
1 979 [6]
1 982 [7]
1 983 [7]
1 991 [7]
1 995 [7]
0 838 [7]
4 838 [6]
5 838 [4]
6 838 [2]
22 838 [6]
39 838 [7]
92 838 [0]
0 92 [7]
4 92 [7]
5 92 [4]
6 92 [2]
10 92 [6]
22 92 [6]
39 92 [7]
92 112 [7]
92 223 [3]
92 387 [0]
92 496 [1]
0 387 [7]
4 387 [7]
6 387 [0]
10 387 [6]
22 387 [7]
39 387 [7]
3 6 [0]
4 6 [6]
5 6 [3]
6 7 [0]
6 8 [7]
6 10 [6]
6 11 [6]
6 12 [7]
6 13 [5]
6 15 [0]
6 18 [3]
6 19 [1]
6 20 [7]
6 21 [3]
6 22 [7]
6 23 [4]
6 29 [6]
6 30 [0]
6 31 [1]
6 32 [7]
6 33 [3]
6 36 [2]
6 37 [5]
6 39 [7]
6 41 [3]
6 42 [0]
6 44 [1]
6 45 [3]
6 46 [5]
6 47 [3]
6 48 [6]
6 49 [7]
6 52 [0]
6 57 [1]
6 58 [0]
6 60 [3]
6 61 [7]
6 66 [4]
6 67 [1]
6 69 [6]
6 70 [3]
6 71 [5]
6 72 [0]
6 73 [7]
6 74 [1]
6 78 [3]
6 79 [2]
6 80 [6]
6 83 [7]
6 85 [7]
6 88 [3]
6 89 [0]
6 90 [7]
6 94 [1]
6 95 [3]
6 97 [5]
6 99 [7]
6 100 [6]
6 106 [0]
6 109 [1]
6 111 [3]
6 112 [0]
6 114 [2]
6 118 [3]
6 119 [7]
6 120 [1]
6 121 [5]
6 122 [3]
6 124 [0]
6 125 [1]
6 126 [7]
6 127 [3]
6 130 [5]
6 132 [0]
6 137 [7]
6 138 [3]
6 140 [1]
6 141 [4]
6 144 [3]
6 147 [6]
6 148 [6]
6 150 [1]
6 151 [5]
6 152 [7]
6 153 [0]
6 154 [6]
6 159 [3]
6 165 [1]
6 166 [3]
6 168 [0]
6 172 [5]
6 174 [1]
6 177 [3]
6 178 [0]
6 179 [7]
6 181 [7]
6 182 [1]
6 185 [6]
6 190 [3]
6 191 [3]
6 195 [0]
6 196 [2]
6 197 [7]
6 199 [1]
6 200 [5]
6 201 [4]
6 206 [3]
6 209 [7]
6 211 [6]
6 212 [0]
6 214 [1]
6 216 [7]
6 219 [0]
6 220 [3]
6 221 [5]
6 222 [7]
6 224 [1]
6 226 [0]
6 228 [7]
6 232 [3]
6 233 [7]
6 237 [3]
6 240 [1]
6 241 [6]
6 244 [0]
6 246 [5]
6 247 [7]
6 249 [3]
6 252 [0]
6 253 [1]
6 255 [6]
6 259 [3]
6 263 [7]
6 268 [5]
6 271 [3]
6 274 [1]
6 275 [0]
6 276 [4]
6 277 [3]
6 278 [1]
6 280 [2]
6 281 [0]
6 282 [7]
6 283 [5]
6 284 [7]
6 286 [3]
6 289 [0]
6 291 [3]
6 294 [1]
6 295 [6]
6 302 [5]
6 308 [3]
6 312 [3]
6 315 [7]
6 317 [1]
6 318 [7]
6 320 [0]
6 323 [4]
6 327 [3]
6 328 [5]
6 330 [7]
6 332 [1]
6 334 [0]
6 335 [3]
6 336 [1]
6 337 [0]
6 338 [3]
6 340 [5]
6 342 [1]
6 345 [6]
6 346 [0]
6 347 [3]
6 348 [7]
6 349 [3]
6 351 [1]
6 356 [7]
6 359 [0]
6 363 [6]
6 366 [2]
6 367 [3]
6 368 [5]
6 369 [1]
6 371 [3]
6 374 [2]
6 375 [0]
6 381 [3]
6 383 [1]
6 384 [0]
6 388 [5]
6 401 [7]
6 402 [0]
6 403 [4]
6 404 [3]
6 405 [0]
6 411 [7]
6 413 [1]
6 414 [3]
6 415 [7]
6 417 [5]
6 418 [1]
6 419 [0]
6 422 [3]
6 423 [6]
6 424 [1]
6 425 [0]
6 427 [3]
6 429 [5]
6 430 [3]
6 432 [1]
6 433 [7]
6 434 [7]
6 436 [2]
6 437 [0]
6 438 [5]
6 440 [0]
6 441 [3]
6 444 [6]
6 447 [1]
6 451 [0]
6 452 [4]
6 453 [3]
6 455 [1]
6 458 [7]
6 459 [3]
6 460 [5]
6 462 [3]
6 464 [0]
6 466 [1]
6 469 [7]
6 473 [0]
6 474 [3]
6 480 [7]
6 482 [1]
6 486 [2]
6 487 [0]
6 489 [6]
6 490 [5]
6 492 [3]
6 494 [4]
6 495 [1]
6 497 [7]
6 498 [0]
6 501 [3]
6 502 [5]
6 504 [1]
6 509 [7]
6 510 [6]
6 511 [6]
6 512 [0]
6 513 [3]
6 520 [7]
6 526 [3]
6 527 [1]
6 530 [7]
6 532 [0]
6 534 [5]
6 537 [3]
6 543 [0]
6 545 [1]
6 550 [4]
6 551 [3]
6 552 [5]
6 555 [3]
6 557 [6]
6 558 [7]
6 559 [0]
6 560 [1]
6 562 [3]
6 563 [7]
6 569 [1]
6 570 [5]
6 573 [0]
6 576 [4]
6 577 [3]
6 578 [1]
6 579 [0]
6 586 [7]
6 587 [3]
6 596 [7]
6 602 [5]
6 604 [2]
6 605 [1]
6 610 [3]
6 613 [0]
6 616 [1]
6 617 [3]
6 620 [0]
6 624 [5]
6 626 [6]
6 628 [3]
6 629 [1]
6 631 [2]
6 634 [7]
6 636 [0]
6 638 [7]
6 639 [3]
6 641 [5]
6 642 [7]
6 644 [0]
6 646 [1]
6 647 [3]
6 648 [1]
6 649 [0]
6 651 [3]
6 652 [6]
6 657 [5]
6 658 [3]
6 660 [1]
6 662 [0]
6 663 [7]
6 665 [4]
6 668 [3]
6 670 [0]
6 677 [1]
6 678 [7]
6 682 [2]
6 684 [5]
6 691 [3]
6 692 [0]
6 695 [1]
6 698 [3]
6 704 [7]
6 707 [7]
6 709 [5]
6 710 [0]
6 711 [7]
6 715 [3]
6 717 [1]
6 719 [3]
6 720 [6]
6 721 [0]
6 722 [7]
6 725 [4]
6 728 [3]
6 729 [1]
6 731 [7]
6 734 [7]
6 738 [5]
6 740 [3]
6 746 [0]
6 748 [7]
6 749 [6]
6 753 [7]
6 754 [1]
6 756 [3]
6 761 [5]
6 764 [7]
6 771 [1]
6 775 [0]
6 777 [3]
6 778 [1]
6 779 [3]
6 780 [0]
6 782 [3]
6 783 [5]
6 786 [1]
6 787 [2]
6 789 [3]
6 792 [0]
6 793 [1]
6 794 [3]
6 795 [5]
6 796 [0]
6 797 [3]
6 798 [1]
6 802 [0]
6 803 [7]
6 804 [3]
6 807 [1]
6 808 [5]
6 809 [4]
6 812 [3]
6 814 [0]
6 815 [1]
6 816 [6]
6 819 [5]
6 821 [6]
6 823 [3]
6 828 [1]
6 833 [0]
6 836 [7]
6 839 [6]
6 846 [3]
6 848 [1]
6 849 [7]
6 850 [5]
6 851 [3]
6 852 [0]
6 856 [1]
6 857 [3]
6 858 [4]
6 860 [1]
6 862 [0]
6 866 [3]
6 868 [5]
6 870 [1]
6 872 [3]
6 875 [0]
6 878 [3]
6 879 [1]
6 881 [5]
6 883 [0]
6 888 [7]
6 889 [7]
6 891 [3]
6 894 [7]
6 898 [1]
6 899 [3]
6 905 [7]
6 907 [5]
6 910 [0]
6 911 [3]
6 912 [7]
6 914 [1]
6 917 [3]
6 919 [0]
6 920 [1]
6 923 [5]
6 926 [2]
6 927 [3]
6 928 [0]
6 931 [1]
6 936 [3]
6 937 [5]
6 940 [7]
6 942 [1]
6 944 [6]
6 946 [0]
6 949 [7]
6 951 [3]
6 954 [1]
6 955 [6]
6 956 [3]
6 957 [0]
6 958 [6]
6 959 [5]
6 961 [3]
6 962 [1]
6 964 [0]
6 966 [4]
6 967 [3]
6 968 [7]
6 969 [7]
6 970 [0]
6 972 [5]
6 975 [4]
6 982 [3]
6 990 [1]
6 991 [3]
6 995 [0]
6 997 [1]
3 219 [1]
4 219 [6]
7 219 [2]
8 219 [7]
36 219 [6]
48 219 [6]
147 219 [6]
219 241 [2]
219 278 [5]
219 317 [1]
219 384 [1]
219 436 [6]
219 440 [0]
219 489 [6]
219 677 [0]
3 440 [3]
8 440 [7]
36 440 [2]
48 440 [6]
317 440 [3]
384 440 [0]
3 384 [0]
7 384 [4]
8 384 [7]
36 384 [2]
48 384 [7]
317 384 [5]
384 677 [1]
384 691 [0]
0 3 [4]
3 4 [6]
3 5 [1]
3 7 [6]
3 8 [7]
3 11 [2]
3 19 [7]
3 23 [6]
3 33 [4]
3 36 [6]
3 37 [3]
3 48 [6]
3 51 [3]
3 55 [5]
3 57 [1]
3 62 [5]
3 65 [0]
3 67 [1]
3 71 [3]
3 79 [2]
3 89 [7]
3 90 [6]
3 93 [4]
3 95 [5]
3 107 [1]
3 117 [2]
3 126 [0]
3 147 [4]
3 159 [7]
3 173 [4]
3 174 [0]
3 180 [5]
3 194 [1]
3 200 [3]
3 221 [0]
3 241 [6]
3 245 [5]
3 259 [0]
3 278 [5]
3 288 [0]
3 297 [3]
3 303 [6]
3 309 [3]
3 315 [7]
3 317 [1]
3 322 [0]
3 327 [4]
3 328 [5]
3 336 [0]
3 339 [3]
3 341 [2]
3 342 [1]
3 350 [7]
3 361 [0]
3 368 [5]
3 375 [1]
3 379 [0]
3 380 [1]
3 407 [2]
3 410 [0]
3 432 [5]
3 436 [4]
3 448 [3]
3 455 [7]
3 459 [1]
3 466 [0]
3 471 [4]
3 475 [6]
3 483 [1]
3 485 [2]
3 487 [0]
3 489 [4]
3 501 [5]
3 502 [1]
3 509 [7]
3 510 [6]
3 514 [0]
3 517 [3]
3 523 [5]
3 525 [3]
3 548 [1]
3 560 [3]
3 578 [6]
3 581 [1]
3 586 [7]
3 591 [4]
3 592 [5]
3 597 [0]
3 608 [1]
3 609 [3]
3 613 [0]
3 618 [5]
3 642 [1]
3 651 [0]
3 653 [1]
3 660 [5]
3 662 [3]
3 674 [0]
3 677 [1]
3 690 [4]
3 691 [3]
3 694 [5]
3 698 [1]
3 708 [7]
3 711 [2]
3 714 [7]
3 718 [0]
3 754 [3]
3 756 [6]
3 759 [5]
3 762 [4]
3 766 [0]
3 774 [5]
3 782 [3]
3 789 [5]
3 792 [1]
3 801 [0]
3 811 [0]
3 813 [7]
3 829 [5]
3 837 [3]
3 842 [7]
3 844 [1]
3 881 [0]
3 897 [1]
3 908 [2]
3 913 [4]
3 922 [7]
3 934 [5]
3 943 [0]
3 944 [6]
3 947 [0]
3 949 [1]
3 951 [1]
3 954 [5]
3 956 [3]
3 992 [1]
0 811 [6]
5 811 [0]
7 811 [4]
33 811 [7]
51 811 [7]
173 811 [4]
0 5 [6]
4 5 [2]
5 7 [2]
5 8 [0]
5 10 [0]
5 11 [6]
5 12 [7]
5 13 [7]
5 14 [6]
5 15 [0]
5 16 [4]
5 17 [3]
5 20 [0]
5 21 [3]
5 22 [2]
5 24 [0]
5 25 [3]
5 26 [0]
5 27 [2]
5 28 [7]
5 29 [6]
5 30 [5]
5 31 [1]
5 32 [3]
5 33 [4]
5 34 [3]
5 35 [7]
5 36 [2]
5 38 [6]
5 39 [3]
5 41 [0]
5 42 [7]
5 43 [3]
5 44 [7]
5 46 [5]
5 48 [2]
5 49 [0]
5 50 [1]
5 51 [3]
5 52 [0]
5 53 [4]
5 54 [1]
5 55 [1]
5 58 [3]
5 59 [3]
5 60 [5]
5 61 [0]
5 63 [0]
5 64 [7]
5 66 [6]
5 67 [5]
5 68 [3]
5 69 [2]
5 70 [7]
5 71 [1]
5 72 [3]
5 74 [0]
5 75 [4]
5 76 [0]
5 77 [5]
5 81 [6]
5 82 [7]
5 83 [4]
5 84 [0]
5 85 [2]
5 86 [4]
5 88 [0]
5 91 [2]
5 93 [7]
5 94 [3]
5 96 [7]
5 97 [1]
5 98 [3]
5 99 [0]
5 101 [3]
5 102 [0]
5 103 [1]
5 104 [5]
5 105 [3]
5 107 [0]
5 111 [1]
5 112 [3]
5 115 [3]
5 116 [1]
5 117 [7]
5 118 [5]
5 120 [1]
5 122 [0]
5 123 [5]
5 124 [3]
5 126 [0]
5 127 [0]
5 133 [1]
5 134 [3]
5 138 [5]
5 139 [0]
5 140 [7]
5 143 [4]
5 145 [5]
5 149 [2]
5 150 [6]
5 154 [4]
5 155 [1]
5 156 [0]
5 157 [0]
5 158 [4]
5 160 [5]
5 161 [0]
5 163 [3]
5 167 [7]
5 168 [1]
5 170 [5]
5 171 [7]
5 173 [4]
5 175 [0]
5 176 [4]
5 177 [0]
5 180 [1]
5 181 [2]
5 182 [0]
5 183 [3]
5 184 [5]
5 187 [0]
5 189 [0]
5 192 [0]
5 194 [1]
5 195 [0]
5 197 [7]
5 198 [3]
5 200 [0]
5 201 [7]
5 203 [3]
5 204 [4]
5 205 [6]
5 206 [3]
5 208 [7]
5 209 [2]
5 210 [5]
5 211 [2]
5 215 [0]
5 216 [4]
5 217 [5]
5 218 [3]
5 220 [0]
5 222 [4]
5 223 [1]
5 224 [5]
5 227 [7]
5 228 [2]
5 229 [4]
5 230 [0]
5 231 [7]
5 234 [3]
5 235 [0]
5 237 [5]
5 238 [1]
5 242 [0]
5 244 [0]
5 246 [7]
5 247 [4]
5 249 [7]
5 250 [6]
5 251 [5]
5 254 [0]
5 255 [2]
5 257 [1]
5 260 [3]
5 261 [1]
5 262 [3]
5 264 [3]
5 269 [5]
5 271 [1]
5 273 [7]
5 274 [0]
5 276 [4]
5 279 [3]
5 284 [7]
5 285 [5]
5 286 [4]
5 287 [0]
5 288 [0]
5 289 [1]
5 290 [5]
5 292 [7]
5 293 [6]
5 294 [3]
5 297 [0]
5 298 [5]
5 299 [0]
5 301 [2]
5 302 [1]
5 304 [0]
5 306 [5]
5 307 [3]
5 310 [7]
5 311 [4]
5 313 [7]
5 319 [1]
5 321 [7]
5 324 [1]
5 325 [0]
5 326 [5]
5 330 [4]
5 331 [3]
5 333 [2]
5 339 [6]
5 341 [2]
5 344 [3]
5 345 [7]
5 346 [1]
5 347 [0]
5 352 [7]
5 353 [3]
5 354 [0]
5 359 [1]
5 361 [3]
5 362 [0]
5 363 [7]
5 364 [5]
5 365 [3]
5 366 [2]
5 367 [0]
5 370 [1]
5 371 [5]
5 372 [5]
5 373 [1]
5 374 [2]
5 376 [5]
5 377 [7]
5 378 [4]
5 380 [0]
5 381 [3]
5 382 [6]
5 385 [7]
5 386 [2]
5 388 [0]
5 389 [5]
5 390 [3]
5 393 [5]
5 395 [1]
5 396 [0]
5 397 [3]
5 400 [5]
5 405 [5]
5 406 [4]
5 407 [2]
5 410 [3]
5 412 [1]
5 415 [7]
5 416 [7]
5 418 [0]
5 422 [1]
5 424 [3]
5 426 [7]
5 428 [0]
5 429 [5]
5 430 [6]
5 431 [0]
5 433 [5]
5 434 [2]
5 438 [5]
5 442 [4]
5 443 [1]
5 445 [3]
5 446 [0]
5 448 [5]
5 449 [7]
5 450 [4]
5 451 [0]
5 453 [1]
5 454 [3]
5 455 [7]
5 456 [5]
5 457 [1]
5 458 [2]
5 462 [6]
5 463 [5]
5 464 [0]
5 467 [5]
5 470 [3]
5 471 [4]
5 474 [1]
5 475 [4]
5 476 [0]
5 477 [2]
5 478 [5]
5 479 [7]
5 481 [3]
5 483 [1]
5 484 [0]
5 485 [7]
5 487 [1]
5 488 [7]
5 490 [5]
5 493 [1]
5 495 [6]
5 496 [5]
5 498 [4]
5 499 [3]
5 501 [0]
5 503 [3]
5 506 [2]
5 510 [7]
5 514 [1]
5 516 [5]
5 520 [7]
5 523 [5]
5 524 [3]
5 526 [5]
5 527 [0]
5 528 [4]
5 529 [7]
5 531 [1]
5 533 [0]
5 534 [7]
5 537 [6]
5 539 [3]
5 541 [5]
5 543 [5]
5 545 [0]
5 546 [1]
5 547 [3]
5 550 [4]
5 552 [5]
5 557 [2]
5 561 [7]
5 563 [4]
5 564 [5]
5 566 [2]
5 569 [1]
5 573 [0]
5 574 [5]
5 575 [3]
5 576 [2]
5 578 [1]
5 579 [6]
5 580 [0]
5 581 [7]
5 582 [3]
5 583 [4]
5 584 [5]
5 586 [1]
5 590 [2]
5 591 [4]
5 593 [4]
5 594 [1]
5 595 [1]
5 597 [3]
5 599 [5]
5 600 [0]
5 601 [3]
5 602 [3]
5 603 [7]
5 604 [2]
5 607 [4]
5 608 [1]
5 610 [5]
5 612 [0]
5 614 [7]
5 615 [6]
5 617 [1]
5 619 [1]
5 620 [3]
5 621 [4]
5 622 [5]
5 623 [1]
5 625 [1]
5 627 [5]
5 628 [3]
5 629 [0]
5 630 [7]
5 631 [2]
5 632 [5]
5 635 [5]
5 636 [1]
5 643 [3]
5 647 [1]
5 648 [3]
5 649 [0]
5 651 [5]
5 653 [6]
5 654 [5]
5 656 [1]
5 657 [3]
5 659 [4]
5 661 [2]
5 663 [7]
5 665 [7]
5 666 [0]
5 667 [5]
5 668 [1]
5 671 [3]
5 672 [7]
5 673 [0]
5 674 [5]
5 675 [6]
5 676 [4]
5 678 [2]
5 680 [1]
5 683 [0]
5 685 [0]
5 686 [2]
5 688 [3]
5 690 [0]
5 694 [5]
5 699 [0]
5 700 [3]
5 707 [7]
5 713 [1]
5 714 [4]
5 715 [1]
5 716 [5]
5 717 [3]
5 718 [0]
5 720 [7]
5 726 [0]
5 727 [1]
5 728 [1]
5 729 [5]
5 732 [3]
5 738 [0]
5 739 [0]
5 741 [7]
5 742 [4]
5 743 [6]
5 745 [1]
5 747 [3]
5 748 [2]
5 750 [5]
5 752 [5]
5 753 [4]
5 755 [0]
5 756 [1]
5 757 [3]
5 758 [7]
5 759 [0]
5 762 [2]
5 765 [0]
5 768 [5]
5 770 [7]
5 771 [5]
5 773 [0]
5 774 [1]
5 776 [3]
5 778 [5]
5 781 [1]
5 782 [6]
5 788 [4]
5 791 [2]
5 792 [1]
5 795 [0]
5 796 [5]
5 797 [5]
5 798 [3]
5 799 [7]
5 800 [0]
5 808 [1]
5 813 [2]
5 814 [0]
5 826 [7]
5 833 [5]
5 835 [1]
5 837 [3]
5 841 [0]
5 842 [5]
5 843 [5]
5 849 [0]
5 850 [6]
5 853 [2]
5 854 [1]
5 856 [0]
5 857 [5]
5 861 [0]
5 862 [3]
5 867 [1]
5 872 [5]
5 875 [0]
5 883 [1]
5 885 [5]
5 891 [4]
5 896 [7]
5 897 [3]
5 899 [6]
5 900 [7]
5 903 [0]
5 904 [2]
5 908 [7]
5 909 [7]
5 911 [1]
5 914 [5]
5 915 [3]
5 917 [1]
5 920 [0]
5 921 [3]
5 922 [4]
5 923 [5]
5 925 [7]
5 928 [0]
5 929 [3]
5 930 [7]
5 931 [1]
5 932 [5]
5 934 [3]
5 935 [0]
5 936 [6]
5 938 [4]
5 945 [5]
5 946 [1]
5 948 [0]
5 963 [7]
5 964 [3]
5 965 [5]
5 966 [2]
5 973 [4]
5 978 [1]
5 979 [3]
5 981 [0]
5 982 [0]
5 983 [3]
5 984 [5]
5 985 [3]
5 986 [2]
5 987 [4]
5 990 [1]
5 991 [0]
5 992 [3]
5 995 [5]
5 996 [7]
5 997 [6]
5 999 [3]
0 157 [2]
7 157 [2]
8 157 [7]
10 157 [1]
13 157 [7]
14 157 [2]
157 378 [1]
157 406 [5]
157 739 [0]
0 739 [4]
7 739 [2]
10 739 [0]
13 739 [7]
378 739 [0]
0 10 [4]
4 10 [2]
7 10 [2]
8 10 [0]
10 12 [7]
10 13 [4]
10 14 [2]
10 15 [1]
10 16 [7]
10 17 [5]
10 18 [5]
10 20 [3]
10 21 [1]
10 22 [6]
10 24 [3]
10 25 [0]
10 26 [5]
10 27 [4]
10 28 [7]
10 29 [3]
10 30 [1]
10 32 [3]
10 34 [0]
10 35 [3]
10 38 [6]
10 39 [3]
10 40 [5]
10 41 [0]
10 42 [4]
10 43 [3]
10 44 [7]
10 45 [5]
10 47 [5]
10 50 [2]
10 52 [0]
10 53 [6]
10 54 [1]
10 56 [4]
10 58 [3]
10 63 [1]
10 66 [7]
10 69 [4]
10 70 [3]
10 73 [7]
10 76 [3]
10 77 [5]
10 81 [6]
10 83 [0]
10 84 [0]
10 87 [4]
10 94 [0]
10 96 [2]
10 97 [3]
10 101 [0]
10 103 [0]
10 105 [7]
10 106 [0]
10 108 [3]
10 109 [4]
10 110 [5]
10 111 [1]
10 112 [0]
10 119 [7]
10 120 [1]
10 121 [0]
10 128 [3]
10 129 [2]
10 130 [3]
10 131 [2]
10 132 [0]
10 135 [1]
10 136 [6]
10 137 [7]
10 138 [1]
10 140 [3]
10 141 [4]
10 142 [5]
10 143 [3]
10 145 [5]
10 146 [3]
10 148 [2]
10 149 [4]
10 150 [1]
10 152 [7]
10 162 [5]
10 163 [0]
10 166 [6]
10 168 [5]
10 169 [1]
10 170 [3]
10 171 [2]
10 178 [4]
10 181 [7]
10 182 [0]
10 183 [5]
10 185 [7]
10 192 [0]
10 193 [5]
10 195 [0]
10 196 [7]
10 197 [7]
10 198 [1]
10 201 [7]
10 203 [1]
10 205 [6]
10 208 [0]
10 214 [1]
10 215 [0]
10 222 [7]
10 223 [3]
10 224 [0]
10 225 [2]
10 226 [5]
10 228 [4]
10 230 [7]
10 233 [2]
10 234 [1]
10 235 [4]
10 236 [2]
10 237 [5]
10 238 [6]
10 239 [3]
10 240 [0]
10 242 [0]
10 243 [5]
10 247 [7]
10 248 [1]
10 249 [3]
10 250 [0]
10 251 [3]
10 252 [5]
10 254 [5]
10 256 [2]
10 257 [4]
10 272 [7]
10 275 [6]
10 276 [7]
10 280 [7]
10 283 [7]
10 284 [1]
10 285 [1]
10 286 [0]
10 287 [0]
10 289 [5]
10 290 [0]
10 292 [3]
10 294 [3]
10 301 [4]
10 304 [1]
10 305 [7]
10 306 [6]
10 307 [5]
10 308 [0]
10 312 [5]
10 320 [1]
10 323 [4]
10 326 [3]
10 329 [5]
10 330 [7]
10 332 [2]
10 333 [4]
10 338 [0]
10 343 [4]
10 344 [7]
10 345 [4]
10 347 [3]
10 351 [5]
10 352 [4]
10 353 [0]
10 354 [1]
10 355 [6]
10 358 [2]
10 359 [0]
10 360 [7]
10 364 [3]
10 367 [1]
10 369 [5]
10 371 [0]
10 373 [6]
10 378 [2]
10 383 [3]
10 385 [4]
10 386 [7]
10 388 [1]
10 393 [5]
10 396 [5]
10 397 [7]
10 398 [0]
10 400 [1]
10 401 [4]
10 402 [1]
10 404 [3]
10 406 [0]
10 408 [0]
10 409 [2]
10 412 [5]
10 416 [7]
10 419 [1]
10 420 [2]
10 422 [6]
10 424 [5]
10 425 [0]
10 426 [1]
10 434 [2]
10 437 [1]
10 443 [5]
10 444 [4]
10 446 [3]
10 447 [7]
10 449 [4]
10 450 [0]
10 451 [6]
10 452 [2]
10 454 [5]
10 456 [0]
10 460 [3]
10 462 [1]
10 463 [7]
10 465 [5]
10 469 [4]
10 470 [0]
10 472 [1]
10 474 [5]
10 476 [6]
10 478 [3]
10 479 [2]
10 484 [0]
10 486 [4]
10 488 [4]
10 490 [5]
10 491 [1]
10 494 [2]
10 496 [5]
10 498 [7]
10 503 [0]
10 504 [3]
10 506 [2]
10 508 [4]
10 511 [7]
10 513 [6]
10 515 [0]
10 524 [1]
10 527 [5]
10 528 [7]
10 529 [4]
10 530 [4]
10 531 [3]
10 535 [6]
10 536 [5]
10 539 [0]
10 543 [5]
10 545 [0]
10 550 [7]
10 556 [7]
10 564 [1]
10 565 [2]
10 568 [5]
10 570 [5]
10 571 [4]
10 572 [3]
10 573 [6]
10 575 [1]
10 576 [4]
10 579 [3]
10 580 [0]
10 582 [7]
10 583 [4]
10 585 [5]
10 588 [5]
10 590 [4]
10 599 [5]
10 600 [1]
10 601 [7]
10 602 [3]
10 603 [2]
10 606 [0]
10 610 [5]
10 611 [1]
10 615 [6]
10 616 [4]
10 617 [7]
10 619 [3]
10 620 [5]
10 625 [5]
10 626 [2]
10 628 [1]
10 630 [0]
10 631 [3]
10 632 [0]
10 633 [3]
10 635 [5]
10 637 [1]
10 640 [6]
10 644 [0]
10 646 [7]
10 647 [3]
10 652 [4]
10 655 [0]
10 659 [4]
10 661 [2]
10 666 [1]
10 668 [5]
10 671 [0]
10 673 [7]
10 678 [4]
10 679 [5]
10 680 [3]
10 681 [6]
10 683 [1]
10 684 [1]
10 686 [2]
10 687 [4]
10 688 [5]
10 696 [5]
10 699 [0]
10 700 [3]
10 702 [3]
10 703 [7]
10 706 [4]
10 710 [5]
10 712 [6]
10 715 [1]
10 723 [0]
10 724 [1]
10 728 [5]
10 729 [3]
10 730 [7]
10 732 [0]
10 737 [2]
10 740 [7]
10 741 [5]
10 743 [5]
10 744 [6]
10 745 [1]
10 746 [4]
10 747 [0]
10 748 [7]
10 750 [3]
10 753 [0]
10 757 [0]
10 760 [2]
10 763 [5]
10 765 [1]
10 772 [7]
10 777 [3]
10 780 [1]
10 781 [3]
10 787 [2]
10 788 [5]
10 790 [0]
10 795 [6]
10 797 [5]
10 799 [7]
10 805 [1]
10 806 [3]
10 807 [0]
10 808 [5]
10 809 [4]
10 812 [5]
10 814 [6]
10 815 [2]
10 817 [3]
10 819 [1]
10 822 [4]
10 826 [7]
10 831 [0]
10 832 [0]
10 833 [5]
10 841 [4]
10 843 [5]
10 845 [7]
10 848 [1]
10 849 [7]
10 851 [6]
10 854 [5]
10 858 [0]
10 862 [0]
10 864 [3]
10 865 [2]
10 866 [1]
10 869 [1]
10 873 [3]
10 874 [5]
10 875 [0]
10 876 [4]
10 877 [1]
10 882 [7]
10 887 [2]
10 891 [1]
10 892 [2]
10 896 [3]
10 898 [6]
10 899 [5]
10 900 [0]
10 901 [1]
10 903 [0]
10 912 [3]
10 914 [3]
10 915 [7]
10 920 [5]
10 921 [1]
10 926 [4]
10 928 [5]
10 931 [0]
10 932 [6]
10 936 [1]
10 938 [4]
10 939 [3]
10 942 [2]
10 945 [5]
10 946 [1]
10 950 [0]
10 953 [7]
10 958 [4]
10 959 [3]
10 967 [6]
10 968 [4]
10 969 [5]
10 973 [7]
10 974 [5]
10 975 [0]
10 977 [1]
10 980 [0]
10 985 [1]
10 986 [2]
10 987 [7]
10 989 [4]
10 990 [1]
10 991 [3]
10 994 [5]
10 996 [2]
0 832 [4]
8 832 [0]
14 832 [7]
16 832 [6]
27 832 [7]
38 832 [4]
56 832 [7]
243 832 [6]
832 952 [0]
0 8 [7]
4 8 [3]
7 8 [4]
8 11 [4]
8 12 [7]
8 13 [4]
8 14 [2]
8 15 [1]
8 16 [7]
8 17 [5]
8 18 [1]
8 19 [5]
8 21 [3]
8 22 [0]
8 23 [4]
8 24 [3]
8 25 [1]
8 26 [5]
8 27 [7]
8 28 [7]
8 29 [4]
8 30 [1]
8 31 [5]
8 32 [3]
8 33 [3]
8 34 [3]
8 35 [7]
8 36 [2]
8 37 [3]
8 38 [4]
8 39 [0]
8 40 [5]
8 41 [0]
8 42 [7]
8 43 [3]
8 44 [7]
8 46 [6]
8 47 [1]
8 48 [2]
8 49 [0]
8 50 [4]
8 51 [2]
8 52 [5]
8 53 [7]
8 54 [3]
8 55 [5]
8 56 [4]
8 57 [0]
8 59 [1]
8 60 [3]
8 62 [5]
8 63 [6]
8 64 [7]
8 65 [0]
8 66 [4]
8 68 [1]
8 69 [7]
8 70 [7]
8 71 [1]
8 73 [4]
8 74 [3]
8 75 [2]
8 76 [3]
8 77 [5]
8 79 [2]
8 80 [2]
8 81 [3]
8 82 [4]
8 83 [7]
8 85 [0]
8 86 [2]
8 87 [7]
8 88 [0]
8 89 [1]
8 90 [7]
8 93 [4]
8 94 [0]
8 95 [1]
8 96 [2]
8 97 [0]
8 98 [0]
8 99 [5]
8 100 [6]
8 101 [7]
8 102 [5]
8 103 [5]
8 104 [6]
8 105 [0]
8 107 [5]
8 108 [1]
8 110 [0]
8 111 [5]
8 113 [2]
8 114 [2]
8 115 [4]
8 116 [3]
8 117 [7]
8 118 [5]
8 120 [1]
8 121 [5]
8 122 [3]
8 123 [6]
8 124 [5]
8 125 [3]
8 126 [2]
8 127 [1]
8 128 [7]
8 129 [4]
8 130 [5]
8 131 [4]
8 132 [5]
8 133 [0]
8 134 [6]
8 135 [7]
8 136 [1]
8 137 [4]
8 138 [3]
8 139 [5]
8 140 [2]
8 142 [5]
8 143 [7]
8 144 [0]
8 145 [5]
8 146 [3]
8 147 [4]
8 148 [7]
8 149 [7]
8 150 [6]
8 151 [5]
8 152 [4]
8 153 [1]
8 155 [5]
8 158 [2]
8 159 [0]
8 160 [0]
8 161 [1]
8 162 [5]
8 164 [3]
8 166 [6]
8 167 [7]
8 168 [1]
8 169 [4]
8 171 [7]
8 172 [0]
8 174 [2]
8 176 [3]
8 177 [5]
8 179 [3]
8 180 [5]
8 182 [1]
8 183 [3]
8 186 [7]
8 187 [7]
8 188 [2]
8 189 [1]
8 190 [1]
8 191 [1]
8 192 [5]
8 194 [6]
8 195 [5]
8 196 [2]
8 197 [7]
8 198 [3]
8 200 [5]
8 201 [7]
8 202 [1]
8 203 [0]
8 205 [3]
8 206 [5]
8 207 [5]
8 210 [7]
8 211 [4]
8 212 [0]
8 215 [1]
8 216 [2]
8 217 [6]
8 218 [5]
8 220 [1]
8 224 [3]
8 225 [2]
8 227 [4]
8 229 [2]
8 231 [7]
8 232 [7]
8 234 [5]
8 236 [2]
8 237 [0]
8 238 [1]
8 239 [2]
8 241 [4]
8 243 [6]
8 245 [4]
8 248 [3]
8 250 [1]
8 251 [5]
8 252 [7]
8 253 [0]
8 254 [6]
8 255 [7]
8 256 [1]
8 258 [2]
8 261 [5]
8 264 [3]
8 265 [0]
8 266 [2]
8 267 [4]
8 268 [1]
8 269 [1]
8 271 [5]
8 272 [7]
8 273 [7]
8 274 [3]
8 275 [6]
8 279 [0]
8 280 [4]
8 281 [4]
8 282 [7]
8 283 [2]
8 285 [5]
8 286 [3]
8 287 [1]
8 288 [1]
8 289 [3]
8 290 [1]
8 291 [7]
8 292 [0]
8 293 [5]
8 294 [0]
8 296 [4]
8 298 [6]
8 299 [1]
8 300 [2]
8 301 [7]
8 304 [3]
8 305 [5]
8 306 [1]
8 307 [5]
8 308 [0]
8 310 [7]
8 311 [3]
8 312 [5]
8 314 [3]
8 315 [4]
8 317 [6]
8 319 [7]
8 321 [2]
8 323 [4]
8 324 [5]
8 325 [1]
8 326 [3]
8 327 [0]
8 328 [6]
8 329 [5]
8 333 [3]
8 336 [1]
8 337 [0]
8 339 [1]
8 340 [3]
8 341 [7]
8 342 [2]
8 343 [4]
8 346 [7]
8 347 [0]
8 350 [4]
8 351 [5]
8 352 [0]
8 354 [0]
8 355 [6]
8 356 [7]
8 357 [4]
8 358 [4]
8 359 [5]
8 360 [0]
8 361 [1]
8 362 [0]
8 363 [4]
8 364 [1]
8 365 [3]
8 366 [2]
8 367 [5]
8 368 [6]
8 369 [0]
8 370 [1]
8 372 [5]
8 373 [3]
8 374 [2]
8 375 [7]
8 376 [4]
8 377 [2]
8 380 [5]
8 382 [6]
8 386 [0]
8 388 [1]
8 389 [5]
8 390 [0]
8 392 [2]
8 393 [5]
8 394 [1]
8 395 [3]
8 396 [0]
8 399 [2]
8 400 [5]
8 401 [7]
8 404 [6]
8 405 [1]
8 408 [5]
8 409 [2]
8 410 [5]
8 412 [5]
8 415 [2]
8 417 [4]
8 418 [5]
8 419 [7]
8 420 [2]
8 421 [3]
8 422 [0]
8 424 [3]
8 425 [5]
8 428 [1]
8 429 [1]
8 430 [6]
8 431 [1]
8 432 [5]
8 433 [2]
8 435 [4]
8 436 [7]
8 439 [0]
8 444 [7]
8 445 [3]
8 447 [1]
8 448 [6]
8 450 [7]
8 453 [5]
8 454 [3]
8 456 [1]
8 457 [0]
8 458 [4]
8 460 [5]
8 461 [1]
8 463 [2]
8 464 [7]
8 465 [0]
8 466 [4]
8 468 [3]
8 470 [6]
8 472 [3]
8 474 [5]
8 475 [7]
8 476 [1]
8 477 [2]
8 479 [7]
8 480 [0]
8 481 [6]
8 483 [0]
8 484 [5]
8 485 [4]
8 486 [7]
8 490 [3]
8 491 [0]
8 492 [1]
8 493 [5]
8 497 [7]
8 498 [4]
8 499 [2]
8 501 [3]
8 502 [1]
8 503 [5]
8 504 [6]
8 505 [5]
8 506 [7]
8 507 [0]
8 508 [4]
8 509 [4]
8 510 [2]
8 512 [1]
8 513 [0]
8 514 [6]
8 515 [5]
8 516 [3]
8 518 [7]
8 520 [0]
8 522 [1]
8 526 [0]
8 527 [5]
8 528 [7]
8 533 [3]
8 534 [2]
8 535 [4]
8 536 [5]
8 537 [6]
8 538 [3]
8 540 [7]
8 541 [7]
8 542 [1]
8 544 [0]
8 545 [5]
8 546 [0]
8 547 [3]
8 549 [2]
8 550 [2]
8 551 [1]
8 552 [1]
8 555 [5]
8 556 [7]
8 557 [2]
8 558 [0]
8 559 [6]
8 561 [0]
8 563 [1]
8 564 [1]
8 565 [5]
8 566 [4]
8 567 [0]
8 571 [2]
8 572 [5]
8 573 [3]
8 574 [0]
8 576 [7]
8 577 [4]
8 578 [5]
8 579 [6]
8 582 [7]
8 583 [2]
8 584 [1]
8 585 [5]
8 586 [5]
8 587 [5]
8 588 [3]
8 589 [0]
8 590 [4]
8 592 [5]
8 593 [2]
8 594 [2]
8 595 [6]
8 598 [1]
8 599 [3]
8 601 [7]
8 602 [0]
8 603 [4]
8 604 [7]
8 606 [5]
8 608 [1]
8 610 [5]
8 611 [1]
8 612 [6]
8 613 [7]
8 614 [4]
8 615 [3]
8 618 [0]
8 619 [2]
8 620 [1]
8 621 [1]
8 622 [5]
8 623 [1]
8 627 [5]
8 629 [1]
8 632 [5]
8 633 [0]
8 634 [4]
8 635 [6]
8 636 [3]
8 637 [5]
8 639 [7]
8 640 [0]
8 641 [3]
8 642 [2]
8 643 [1]
8 644 [1]
8 646 [4]
8 648 [5]
8 649 [6]
8 650 [1]
8 651 [3]
8 653 [5]
8 654 [1]
8 655 [0]
8 656 [5]
8 657 [3]
8 658 [7]
8 660 [6]
8 661 [4]
8 665 [2]
8 667 [0]
8 668 [1]
8 669 [5]
8 670 [3]
8 673 [2]
8 674 [4]
8 675 [6]
8 676 [5]
8 677 [1]
8 678 [7]
8 679 [5]
8 680 [0]
8 682 [7]
8 684 [3]
8 688 [7]
8 689 [5]
8 690 [1]
8 691 [1]
8 692 [5]
8 693 [0]
8 694 [5]
8 695 [6]
8 696 [1]
8 697 [2]
8 698 [3]
8 699 [5]
8 701 [7]
8 702 [5]
8 703 [4]
8 705 [1]
8 709 [0]
8 711 [4]
8 712 [6]
8 713 [3]
8 715 [5]
8 716 [3]
8 717 [1]
8 720 [2]
8 721 [5]
8 723 [0]
8 724 [6]
8 725 [7]
8 726 [1]
8 727 [4]
8 728 [7]
8 729 [0]
8 730 [2]
8 731 [3]
8 732 [5]
8 735 [3]
8 736 [1]
8 737 [5]
8 738 [3]
8 741 [5]
8 742 [1]
8 747 [1]
8 749 [2]
8 750 [5]
8 751 [5]
8 752 [6]
8 753 [4]
8 755 [1]
8 756 [0]
8 758 [7]
8 760 [2]
8 761 [5]
8 762 [4]
8 764 [1]
8 765 [1]
8 766 [3]
8 767 [6]
8 768 [1]
8 769 [5]
8 770 [4]
8 772 [2]
8 773 [1]
8 774 [7]
8 776 [0]
8 778 [3]
8 779 [5]
8 781 [5]
8 782 [4]
8 783 [6]
8 785 [1]
8 787 [2]
8 788 [5]
8 789 [0]
8 790 [3]
8 791 [7]
8 793 [5]
8 799 [2]
8 800 [7]
8 801 [3]
8 806 [6]
8 808 [1]
8 810 [0]
8 812 [5]
8 815 [7]
8 816 [4]
8 817 [3]
8 818 [1]
8 819 [0]
8 820 [4]
8 822 [2]
8 823 [5]
8 824 [6]
8 825 [2]
8 826 [4]
8 828 [5]
8 829 [1]
8 830 [5]
8 833 [5]
8 834 [0]
8 835 [3]
8 837 [6]
8 841 [7]
8 844 [2]
8 845 [4]
8 846 [1]
8 850 [5]
8 851 [3]
8 853 [4]
8 856 [0]
8 859 [7]
8 860 [1]
8 861 [0]
8 862 [4]
8 863 [6]
8 864 [5]
8 865 [2]
8 867 [5]
8 868 [3]
8 869 [5]
8 870 [1]
8 871 [2]
8 872 [5]
8 873 [0]
8 875 [6]
8 876 [7]
8 877 [2]
8 878 [3]
8 879 [5]
8 882 [5]
8 883 [1]
8 885 [3]
8 886 [5]
8 888 [4]
8 889 [0]
8 890 [4]
8 891 [5]
8 893 [0]
8 895 [6]
8 896 [7]
8 899 [5]
8 900 [4]
8 901 [1]
8 902 [2]
8 903 [3]
8 904 [1]
8 905 [7]
8 906 [0]
8 911 [0]
8 912 [4]
8 914 [6]
8 915 [2]
8 916 [5]
8 918 [5]
8 920 [3]
8 921 [1]
8 922 [7]
8 923 [0]
8 924 [4]
8 926 [4]
8 927 [1]
8 929 [3]
8 930 [7]
8 932 [5]
8 934 [6]
8 935 [3]
8 938 [4]
8 939 [0]
8 941 [5]
8 942 [2]
8 945 [1]
8 946 [5]
8 947 [3]
8 949 [7]
8 950 [6]
8 951 [4]
8 952 [0]
8 953 [1]
8 954 [5]
8 956 [7]
8 958 [2]
8 959 [3]
8 960 [1]
8 962 [1]
8 963 [0]
8 964 [5]
8 966 [2]
8 968 [0]
8 971 [6]
8 973 [4]
8 974 [1]
8 978 [5]
8 979 [7]
8 980 [3]
8 981 [0]
8 982 [0]
8 983 [5]
8 984 [6]
8 988 [2]
8 991 [5]
8 992 [7]
8 993 [1]
8 995 [3]
8 997 [4]
8 998 [0]
8 999 [5]
0 85 [2]
22 85 [0]
29 85 [6]
42 85 [2]
85 127 [6]
85 154 [7]
85 209 [0]
85 211 [1]
85 220 [1]
85 231 [7]
85 244 [5]
85 295 [7]
85 381 [3]
85 403 [4]
85 423 [7]
85 495 [0]
85 557 [7]
85 562 [6]
85 663 [0]
85 665 [2]
85 704 [0]
85 720 [4]
85 734 [5]
85 761 [5]
85 836 [7]
85 853 [4]
85 919 [3]
85 961 [1]
0 704 [2]
22 704 [1]
29 704 [4]
42 704 [7]
209 704 [0]
704 734 [1]
704 836 [1]
0 209 [2]
22 209 [1]
29 209 [7]
42 209 [4]
209 244 [1]
209 495 [0]
209 663 [0]
209 734 [7]
209 836 [5]
0 663 [4]
22 663 [0]
29 663 [2]
495 663 [6]
0 22 [4]
4 22 [0]
22 29 [5]
22 32 [5]
22 39 [5]
22 41 [5]
22 42 [1]
22 44 [1]
22 60 [1]
22 66 [3]
22 74 [5]
22 77 [3]
22 88 [5]
22 97 [5]
22 99 [5]
22 112 [7]
22 122 [5]
22 145 [5]
22 148 [4]
22 152 [1]
22 171 [1]
22 179 [2]
22 181 [4]
22 196 [7]
22 197 [7]
22 201 [1]
22 211 [1]
22 220 [1]
22 222 [5]
22 223 [3]
22 231 [7]
22 247 [5]
22 252 [5]
22 280 [0]
22 281 [0]
22 283 [5]
22 289 [6]
22 308 [0]
22 323 [7]
22 326 [5]
22 330 [4]
22 333 [0]
22 351 [1]
22 352 [7]
22 356 [2]
22 373 [6]
22 388 [5]
22 396 [3]
22 401 [4]
22 415 [7]
22 417 [0]
22 424 [1]
22 429 [5]
22 433 [7]
22 444 [2]
22 454 [6]
22 456 [5]
22 460 [0]
22 464 [3]
22 476 [1]
22 480 [4]
22 486 [7]
22 495 [3]
22 507 [5]
22 512 [5]
22 513 [2]
22 516 [7]
22 520 [0]
22 526 [6]
22 529 [4]
22 532 [5]
22 537 [1]
22 557 [4]
22 563 [5]
22 580 [0]
22 587 [5]
22 599 [6]
22 602 [3]
22 610 [5]
22 620 [4]
22 624 [1]
22 629 [1]
22 637 [7]
22 639 [5]
22 644 [2]
22 646 [0]
22 648 [3]
22 652 [0]
22 657 [0]
22 672 [5]
22 676 [6]
22 678 [4]
22 686 [4]
22 729 [6]
22 733 [5]
22 734 [0]
22 761 [3]
22 764 [0]
22 769 [0]
22 771 [1]
22 783 [5]
22 787 [2]
22 793 [1]
22 795 [7]
22 798 [3]
22 799 [4]
22 812 [6]
22 814 [0]
22 828 [5]
22 836 [2]
22 840 [5]
22 853 [4]
22 856 [1]
22 878 [3]
22 900 [7]
22 905 [5]
22 912 [1]
22 914 [6]
22 926 [2]
22 929 [5]
22 940 [0]
22 958 [4]
22 990 [3]
22 991 [1]
22 996 [0]
22 999 [5]
4 333 [0]
97 333 [0]
145 333 [0]
333 929 [5]
0 4 [1]
4 7 [0]
4 11 [0]
4 12 [4]
4 15 [7]
4 18 [2]
4 19 [1]
4 20 [4]
4 21 [6]
4 23 [0]
4 25 [0]
4 26 [5]
4 29 [3]
4 31 [1]
4 32 [7]
4 34 [3]
4 36 [1]
4 37 [0]
4 39 [3]
4 41 [0]
4 43 [3]
4 44 [4]
4 45 [5]
4 46 [6]
4 47 [1]
4 48 [1]
4 49 [5]
4 52 [5]
4 55 [3]
4 57 [0]
4 58 [7]
4 60 [6]
4 61 [2]
4 62 [0]
4 65 [5]
4 66 [4]
4 67 [1]
4 68 [7]
4 72 [3]
4 74 [4]
4 77 [6]
4 78 [5]
4 79 [0]
4 80 [0]
4 81 [2]
4 83 [7]
4 84 [0]
4 88 [1]
4 89 [3]
4 90 [7]
4 94 [4]
4 95 [5]
4 97 [0]
4 99 [1]
4 100 [0]
4 101 [3]
4 105 [3]
4 106 [1]
4 109 [3]
4 111 [0]
4 112 [3]
4 113 [0]
4 115 [3]
4 119 [7]
4 120 [6]
4 121 [5]
4 122 [1]
4 125 [3]
4 126 [0]
4 130 [5]
4 137 [1]
4 144 [6]
4 145 [5]
4 147 [1]
4 148 [4]
4 149 [0]
4 151 [1]
4 152 [7]
4 153 [0]
4 156 [4]
4 159 [5]
4 163 [5]
4 164 [1]
4 165 [3]
4 166 [6]
4 168 [0]
4 171 [7]
4 177 [2]
4 178 [1]
4 179 [4]
4 180 [3]
4 181 [5]
4 182 [5]
4 183 [5]
4 184 [6]
4 188 [0]
4 190 [1]
4 191 [1]
4 193 [0]
4 195 [5]
4 196 [7]
4 199 [7]
4 200 [1]
4 203 [5]
4 206 [3]
4 208 [5]
4 215 [5]
4 216 [1]
4 218 [6]
4 222 [4]
4 223 [3]
4 224 [1]
4 228 [7]
4 230 [5]
4 232 [5]
4 234 [0]
4 235 [2]
4 237 [5]
4 238 [4]
4 240 [7]
4 241 [1]
4 242 [1]
4 245 [6]
4 246 [3]
4 248 [3]
4 249 [5]
4 251 [1]
4 252 [5]
4 253 [0]
4 254 [6]
4 255 [2]
4 263 [5]
4 267 [0]
4 268 [5]
4 269 [5]
4 277 [7]
4 278 [3]
4 280 [3]
4 281 [2]
4 282 [0]
4 291 [0]
4 294 [6]
4 296 [1]
4 300 [4]
4 302 [0]
4 303 [1]
4 304 [5]
4 308 [6]
4 310 [1]
4 312 [1]
4 315 [0]
4 320 [3]
4 324 [0]
4 326 [4]
4 327 [7]
4 328 [2]
4 330 [5]
4 331 [5]
4 332 [1]
4 335 [5]
4 336 [1]
4 338 [5]
4 339 [6]
4 342 [5]
4 346 [0]
4 348 [7]
4 349 [1]
4 350 [3]
4 351 [0]
4 352 [7]
4 356 [5]
4 357 [0]
4 359 [1]
4 362 [5]
4 363 [3]
4 364 [3]
4 366 [1]
4 367 [6]
4 368 [5]
4 371 [1]
4 375 [0]
4 376 [4]
4 383 [3]
4 385 [7]
4 391 [2]
4 392 [0]
4 393 [6]
4 395 [1]
4 396 [0]
4 400 [5]
4 402 [5]
4 408 [3]
4 412 [7]
4 413 [6]
4 415 [2]
4 418 [3]
4 421 [4]
4 422 [5]
4 424 [1]
4 429 [0]
4 430 [6]
4 432 [3]
4 433 [2]
4 435 [7]
4 436 [1]
4 438 [0]
4 443 [5]
4 444 [4]
4 446 [1]
4 447 [1]
4 451 [4]
4 454 [6]
4 455 [7]
4 458 [2]
4 460 [3]
4 461 [0]
4 464 [5]
4 466 [1]
4 468 [5]
4 470 [1]
4 473 [5]
4 474 [6]
4 476 [1]
4 484 [2]
4 486 [7]
4 489 [1]
4 490 [5]
4 496 [3]
4 497 [7]
4 499 [0]
4 502 [6]
4 504 [5]
4 507 [0]
4 509 [7]
4 516 [1]
4 519 [4]
4 522 [0]
4 525 [1]
4 527 [3]
4 529 [7]
4 532 [1]
4 534 [1]
4 540 [4]
4 541 [5]
4 543 [6]
4 545 [1]
4 548 [7]
4 549 [0]
4 550 [2]
4 552 [5]
4 553 [0]
4 558 [3]
4 559 [6]
4 563 [5]
4 569 [3]
4 570 [4]
4 576 [7]
4 577 [5]
4 578 [0]
4 579 [5]
4 580 [2]
4 587 [1]
4 592 [6]
4 593 [1]
4 596 [7]
4 599 [3]
4 601 [1]
4 602 [1]
4 605 [5]
4 613 [0]
4 615 [6]
4 616 [7]
4 620 [5]
4 624 [5]
4 628 [0]
4 632 [1]
4 634 [4]
4 635 [3]
4 637 [5]
4 638 [7]
4 641 [1]
4 649 [6]
4 651 [0]
4 652 [2]
4 657 [5]
4 658 [4]
4 660 [3]
4 664 [7]
4 670 [1]
4 672 [0]
4 673 [2]
4 675 [6]
4 676 [5]
4 680 [5]
4 684 [0]
4 689 [1]
4 690 [7]
4 692 [3]
4 697 [5]
4 698 [6]
4 701 [1]
4 705 [3]
4 707 [4]
4 708 [5]
4 711 [4]
4 719 [5]
4 721 [0]
4 722 [7]
4 725 [2]
4 728 [1]
4 729 [6]
4 731 [7]
4 733 [5]
4 735 [4]
4 736 [3]
4 738 [2]
4 740 [5]
4 741 [3]
4 743 [1]
4 745 [5]
4 746 [0]
4 748 [7]
4 749 [4]
4 753 [7]
4 756 [6]
4 763 [3]
4 766 [4]
4 769 [1]
4 770 [7]
4 771 [5]
4 772 [0]
4 773 [0]
4 775 [5]
4 778 [6]
4 782 [3]
4 783 [7]
4 786 [5]
4 788 [1]
4 792 [2]
4 795 [5]
4 796 [3]
4 797 [6]
4 801 [0]
4 802 [1]
4 805 [3]
4 812 [5]
4 814 [6]
4 815 [4]
4 818 [0]
4 819 [5]
4 820 [7]
4 823 [1]
4 825 [0]
4 826 [3]
4 828 [3]
4 833 [6]
4 834 [0]
4 840 [1]
4 841 [2]
4 848 [4]
4 849 [7]
4 850 [3]
4 851 [6]
4 852 [5]
4 854 [1]
4 856 [0]
4 857 [0]
4 863 [6]
4 866 [5]
4 867 [5]
4 868 [2]
4 870 [7]
4 872 [3]
4 879 [1]
4 881 [5]
4 883 [4]
4 884 [1]
4 888 [1]
4 889 [5]
4 894 [1]
4 895 [0]
4 900 [5]
4 906 [5]
4 910 [6]
4 913 [1]
4 916 [5]
4 917 [3]
4 918 [1]
4 920 [5]
4 921 [5]
4 924 [0]
4 928 [6]
4 929 [5]
4 937 [0]
4 942 [3]
4 944 [1]
4 945 [7]
4 949 [2]
4 951 [5]
4 953 [3]
4 954 [1]
4 956 [5]
4 960 [4]
4 962 [0]
4 963 [3]
4 967 [6]
4 968 [5]
4 970 [3]
4 972 [5]
4 973 [4]
4 982 [0]
4 984 [1]
4 987 [2]
4 988 [7]
4 990 [6]
4 994 [5]
4 997 [3]
4 999 [4]
7 392 [1]
79 392 [1]
100 392 [1]
113 392 [1]
188 392 [0]
267 392 [1]
357 392 [1]
7 188 [3]
11 188 [3]
23 188 [3]
79 188 [3]
100 188 [3]
113 188 [3]
188 267 [3]
188 357 [1]
188 421 [2]
188 435 [7]
188 549 [2]
188 818 [1]
188 834 [0]
188 895 [3]
188 924 [0]
7 924 [5]
100 924 [5]
113 924 [5]
267 924 [3]
357 924 [0]
549 924 [2]
7 357 [2]
23 357 [6]
79 357 [7]
100 357 [2]
113 357 [5]
267 357 [1]
357 522 [6]
357 549 [0]
357 818 [5]
357 825 [6]
357 834 [7]
357 895 [1]
7 549 [2]
23 549 [7]
100 549 [2]
113 549 [2]
267 549 [0]
7 267 [2]
23 267 [7]
79 267 [2]
100 267 [2]
113 267 [0]
267 522 [0]
267 818 [3]
267 834 [2]
267 895 [4]
7 113 [5]
11 113 [1]
23 113 [1]
79 113 [1]
80 113 [5]
100 113 [5]
113 421 [5]
113 435 [5]
113 468 [5]
113 522 [6]
113 540 [5]
113 818 [1]
113 825 [0]
113 863 [5]
113 960 [3]
7 825 [7]
23 825 [0]
79 825 [5]
100 825 [7]
522 825 [3]
0 23 [7]
7 23 [7]
11 23 [0]
23 57 [0]
23 62 [6]
23 79 [5]
23 80 [7]
23 100 [7]
23 114 [7]
23 172 [1]
23 174 [7]
23 221 [0]
23 259 [4]
23 266 [2]
23 291 [2]
23 337 [0]
23 421 [5]
23 459 [5]
23 468 [5]
23 522 [3]
23 540 [7]
23 560 [5]
23 634 [0]
23 650 [6]
23 662 [5]
23 669 [0]
23 682 [2]
23 731 [1]
23 754 [1]
23 779 [4]
23 816 [0]
23 846 [6]
23 863 [2]
23 871 [7]
23 960 [7]
7 816 [7]
11 816 [0]
79 816 [5]
80 816 [7]
114 816 [7]
0 11 [7]
7 11 [7]
11 36 [7]
11 37 [5]
11 46 [1]
11 79 [0]
11 80 [6]
11 100 [7]
11 114 [7]
11 126 [5]
11 144 [5]
11 153 [3]
11 172 [0]
11 190 [7]
11 216 [7]
11 255 [7]
11 266 [4]
11 282 [5]
11 315 [1]
11 327 [5]
11 337 [6]
11 363 [4]
11 366 [7]
11 374 [7]
11 375 [3]
11 458 [7]
11 468 [1]
11 551 [5]
11 586 [1]
11 593 [4]
11 604 [4]
11 613 [6]
11 642 [4]
11 650 [1]
11 660 [3]
11 669 [0]
11 682 [6]
11 707 [7]
11 725 [7]
11 735 [2]
11 749 [7]
11 773 [6]
11 779 [5]
11 792 [1]
11 796 [7]
11 820 [4]
11 846 [0]
11 857 [5]
11 872 [3]
11 881 [2]
11 888 [1]
11 966 [4]
11 988 [1]
0 79 [4]
7 79 [4]
79 80 [0]
79 100 [1]
79 114 [1]
79 144 [6]
79 153 [1]
79 172 [6]
79 190 [7]
79 266 [1]
79 291 [4]
79 375 [3]
79 421 [0]
79 435 [5]
79 468 [5]
79 522 [0]
79 540 [1]
79 634 [1]
79 650 [1]
79 669 [5]
79 682 [0]
79 731 [2]
79 779 [3]
79 818 [4]
79 834 [7]
79 846 [6]
79 863 [1]
79 871 [1]
79 888 [0]
79 960 [2]
80 682 [0]
100 682 [3]
114 682 [3]
172 682 [3]
0 80 [5]
7 80 [2]
80 100 [0]
80 114 [0]
80 144 [0]
80 153 [5]
80 172 [6]
80 190 [7]
80 266 [0]
80 282 [0]
80 291 [5]
80 337 [1]
80 468 [5]
80 551 [0]
80 634 [2]
80 650 [4]
80 669 [3]
80 692 [5]
80 731 [1]
80 735 [7]
80 779 [6]
80 820 [5]
80 871 [0]
80 888 [0]
80 988 [1]
7 871 [2]
100 871 [5]
114 871 [0]
266 871 [5]
7 114 [2]
100 114 [3]
114 172 [0]
114 266 [0]
114 337 [1]
114 551 [5]
114 650 [6]
114 669 [2]
114 779 [3]
114 846 [1]
7 266 [7]
100 266 [0]
266 650 [5]
266 669 [4]
7 100 [0]
100 172 [6]
100 190 [7]
100 282 [3]
100 291 [3]
100 337 [0]
100 421 [7]
100 435 [3]
100 522 [3]
100 540 [5]
100 551 [5]
100 634 [7]
100 650 [1]
100 669 [6]
100 692 [0]
100 735 [2]
100 779 [5]
100 818 [0]
100 820 [4]
100 834 [1]
100 846 [6]
100 863 [3]
100 895 [7]
100 988 [5]
0 7 [0]
7 12 [2]
7 13 [4]
7 14 [0]
7 15 [5]
7 18 [5]
7 19 [5]
7 20 [4]
7 21 [0]
7 25 [1]
7 26 [5]
7 30 [0]
7 31 [1]
7 33 [2]
7 34 [5]
7 36 [0]
7 37 [3]
7 43 [5]
7 45 [6]
7 46 [3]
7 47 [1]
7 48 [0]
7 49 [4]
7 51 [2]
7 52 [5]
7 54 [0]
7 55 [6]
7 57 [0]
7 58 [7]
7 61 [5]
7 62 [6]
7 65 [0]
7 67 [1]
7 68 [5]
7 69 [2]
7 70 [7]
7 71 [3]
7 73 [4]
7 78 [5]
7 81 [4]
7 83 [2]
7 84 [5]
7 89 [5]
7 90 [7]
7 93 [5]
7 95 [5]
7 101 [2]
7 105 [1]
7 106 [1]
7 107 [0]
7 109 [7]
7 117 [7]
7 118 [6]
7 119 [5]
7 120 [3]
7 121 [5]
7 124 [1]
7 125 [6]
7 126 [5]
7 130 [0]
7 132 [2]
7 134 [5]
7 137 [7]
7 138 [3]
7 141 [4]
7 144 [0]
7 147 [0]
7 149 [1]
7 150 [6]
7 151 [1]
7 153 [3]
7 159 [7]
7 160 [4]
7 163 [0]
7 164 [1]
7 165 [5]
7 166 [6]
7 168 [3]
7 172 [7]
7 173 [2]
7 174 [5]
7 178 [1]
7 180 [0]
7 183 [5]
7 184 [6]
7 185 [2]
7 190 [1]
7 192 [1]
7 193 [3]
7 194 [1]
7 195 [5]
7 199 [2]
7 200 [4]
7 203 [5]
7 208 [0]
7 212 [0]
7 214 [6]
7 215 [5]
7 216 [0]
7 218 [2]
7 221 [5]
7 224 [3]
7 226 [7]
7 230 [5]
7 232 [5]
7 233 [4]
7 234 [1]
7 239 [5]
7 240 [0]
7 241 [0]
7 242 [6]
7 245 [0]
7 246 [4]
7 248 [3]
7 250 [6]
7 253 [5]
7 254 [1]
7 255 [4]
7 259 [5]
7 263 [2]
7 268 [0]
7 269 [6]
7 271 [4]
7 274 [3]
7 275 [0]
7 276 [7]
7 277 [5]
7 278 [7]
7 282 [1]
7 284 [2]
7 286 [1]
7 287 [1]
7 288 [1]
7 291 [5]
7 292 [5]
7 296 [3]
7 297 [5]
7 301 [3]
7 302 [6]
7 303 [3]
7 307 [0]
7 309 [5]
7 312 [1]
7 315 [2]
7 317 [6]
7 318 [4]
7 320 [3]
7 322 [5]
7 324 [1]
7 327 [7]
7 328 [6]
7 331 [0]
7 332 [4]
7 334 [5]
7 335 [5]
7 336 [0]
7 337 [5]
7 338 [2]
7 339 [4]
7 340 [6]
7 341 [7]
7 345 [7]
7 348 [1]
7 349 [1]
7 350 [0]
7 361 [5]
7 363 [7]
7 366 [0]
7 369 [3]
7 371 [0]
7 374 [0]
7 375 [1]
7 376 [5]
7 378 [7]
7 379 [2]
7 382 [6]
7 385 [0]
7 391 [1]
7 397 [3]
7 402 [1]
7 404 [0]
7 407 [7]
7 410 [5]
7 411 [4]
7 413 [6]
7 414 [3]
7 418 [1]
7 419 [5]
7 421 [7]
7 425 [4]
7 427 [2]
7 432 [6]
7 434 [7]
7 435 [3]
7 436 [0]
7 437 [3]
7 438 [1]
7 441 [5]
7 446 [0]
7 447 [5]
7 448 [6]
7 451 [7]
7 452 [2]
7 453 [0]
7 455 [5]
7 457 [1]
7 458 [4]
7 461 [3]
7 462 [5]
7 463 [2]
7 465 [6]
7 466 [0]
7 468 [4]
7 469 [1]
7 470 [1]
7 471 [0]
7 473 [0]
7 475 [5]
7 482 [3]
7 483 [5]
7 484 [6]
7 485 [7]
7 487 [1]
7 489 [0]
7 490 [1]
7 492 [5]
7 494 [4]
7 497 [2]
7 499 [0]
7 501 [4]
7 502 [6]
7 504 [7]
7 505 [3]
7 509 [0]
7 510 [0]
7 511 [1]
7 514 [0]
7 517 [1]
7 519 [5]
7 522 [5]
7 523 [1]
7 525 [2]
7 530 [3]
7 539 [3]
7 540 [6]
7 543 [6]
7 548 [1]
7 551 [3]
7 552 [1]
7 553 [0]
7 555 [6]
7 558 [4]
7 559 [2]
7 560 [5]
7 569 [0]
7 576 [7]
7 581 [3]
7 582 [1]
7 586 [5]
7 591 [7]
7 592 [6]
7 593 [0]
7 596 [5]
7 601 [5]
7 604 [0]
7 605 [5]
7 608 [3]
7 609 [1]
7 612 [4]
7 615 [0]
7 616 [7]
7 618 [1]
7 619 [5]
7 626 [3]
7 628 [3]
7 631 [5]
7 635 [6]
7 638 [5]
7 642 [5]
7 645 [5]
7 647 [5]
7 649 [3]
7 653 [1]
7 656 [0]
7 658 [2]
7 661 [7]
7 662 [1]
7 664 [4]
7 668 [6]
7 669 [0]
7 670 [3]
7 673 [7]
7 674 [1]
7 677 [5]
7 680 [6]
7 684 [2]
7 687 [4]
7 689 [0]
7 690 [5]
7 691 [3]
7 692 [5]
7 695 [6]
7 697 [1]
7 698 [7]
7 701 [5]
7 703 [4]
7 705 [3]
7 706 [0]
7 707 [0]
7 708 [0]
7 709 [1]
7 711 [0]
7 714 [4]
7 715 [6]
7 717 [0]
7 719 [5]
7 721 [6]
7 722 [4]
7 725 [2]
7 727 [3]
7 730 [1]
7 731 [5]
7 735 [1]
7 741 [5]
7 744 [1]
7 746 [0]
7 749 [7]
7 762 [2]
7 763 [3]
7 765 [5]
7 770 [7]
7 772 [4]
7 773 [6]
7 775 [5]
7 779 [2]
7 780 [0]
7 789 [1]
7 792 [4]
7 794 [5]
7 796 [3]
7 797 [7]
7 800 [5]
7 801 [6]
7 802 [3]
7 803 [5]
7 804 [1]
7 805 [0]
7 807 [6]
7 809 [5]
7 813 [5]
7 815 [5]
7 817 [2]
7 818 [5]
7 819 [1]
7 820 [4]
7 824 [3]
7 826 [7]
7 831 [6]
7 834 [0]
7 837 [4]
7 841 [5]
7 843 [1]
7 846 [3]
7 848 [5]
7 850 [6]
7 851 [7]
7 854 [0]
7 857 [1]
7 858 [5]
7 860 [5]
7 863 [2]
7 866 [3]
7 867 [6]
7 868 [3]
7 870 [0]
7 872 [6]
7 874 [1]
7 875 [4]
7 879 [5]
7 880 [7]
7 883 [3]
7 884 [5]
7 888 [5]
7 889 [5]
7 894 [5]
7 895 [6]
7 898 [0]
7 899 [5]
7 906 [1]
7 907 [2]
7 910 [6]
7 913 [1]
7 915 [7]
7 917 [1]
7 918 [3]
7 920 [4]
7 921 [0]
7 922 [7]
7 923 [6]
7 927 [5]
7 931 [1]
7 932 [0]
7 934 [7]
7 936 [3]
7 937 [2]
7 942 [4]
7 943 [6]
7 944 [0]
7 946 [0]
7 947 [1]
7 949 [5]
7 953 [5]
7 954 [6]
7 957 [3]
7 959 [3]
7 960 [4]
7 962 [5]
7 963 [1]
7 966 [7]
7 968 [0]
7 969 [2]
7 970 [6]
7 972 [0]
7 973 [7]
7 975 [4]
7 983 [1]
7 984 [3]
7 985 [1]
7 987 [4]
7 988 [7]
7 989 [2]
7 992 [5]
7 995 [6]
7 997 [1]
216 374 [3]
255 374 [4]
366 374 [0]
374 604 [3]
216 366 [1]
255 366 [0]
366 604 [0]
216 604 [0]
36 216 [3]
216 255 [7]
216 593 [0]
216 796 [0]
216 857 [3]
216 872 [5]
36 593 [0]
593 773 [2]
36 48 [1]
36 55 [1]
36 90 [7]
36 147 [3]
36 159 [4]
36 180 [0]
36 200 [6]
36 245 [4]
36 253 [7]
36 255 [1]
36 303 [6]
36 317 [3]
36 339 [1]
36 342 [0]
36 363 [5]
36 368 [5]
36 436 [3]
36 458 [0]
36 466 [6]
36 489 [3]
36 502 [0]
36 509 [3]
36 510 [0]
36 578 [3]
36 592 [6]
36 618 [2]
36 651 [1]
36 658 [4]
36 670 [7]
36 677 [5]
36 691 [0]
36 698 [6]
36 707 [3]
36 711 [1]
36 725 [3]
36 756 [3]
36 766 [1]
36 773 [4]
36 778 [0]
36 782 [5]
36 789 [2]
36 796 [3]
36 857 [6]
36 872 [7]
36 947 [1]
36 951 [5]
36 956 [3]
36 966 [0]
48 510 [0]
48 55 [6]
48 90 [0]
48 147 [3]
48 159 [0]
48 180 [1]
48 241 [3]
48 245 [0]
48 253 [3]
48 278 [5]
48 303 [6]
48 317 [2]
48 342 [4]
48 368 [3]
48 466 [1]
48 578 [0]
48 592 [7]
48 618 [6]
48 658 [1]
48 670 [6]
48 677 [5]
48 691 [3]
48 698 [4]
48 756 [0]
48 766 [1]
48 778 [2]
48 789 [6]
48 944 [0]
48 947 [3]
147 944 [5]
241 944 [0]
278 944 [7]
147 241 [0]
241 278 [5]
90 147 [1]
147 159 [0]
147 278 [6]
147 317 [1]
147 342 [0]
147 368 [3]
147 436 [5]
147 466 [4]
147 489 [0]
147 502 [2]
147 592 [0]
147 670 [6]
147 698 [1]
147 711 [5]
147 766 [5]
147 951 [3]
147 956 [7]
436 489 [0]
27 566 [0]
75 566 [0]
98 566 [4]
158 566 [0]
229 566 [0]
533 566 [6]
566 685 [0]
0 158 [1]
27 158 [1]
50 158 [3]
75 158 [0]
98 158 [3]
139 158 [3]
158 229 [1]
158 533 [1]
158 685 [6]
158 941 [0]
0 75 [3]
16 75 [3]
27 75 [3]
50 75 [2]
64 75 [4]
75 86 [5]
75 98 [5]
75 102 [5]
75 104 [3]
75 116 [7]
75 123 [6]
75 139 [1]
75 161 [2]
75 227 [5]
75 229 [0]
75 264 [4]
75 273 [5]
75 279 [0]
75 293 [5]
75 311 [3]
75 319 [1]
75 321 [7]
75 325 [1]
75 365 [3]
75 372 [6]
75 445 [7]
75 477 [4]
75 481 [1]
75 533 [0]
75 546 [6]
75 547 [4]
75 567 [5]
75 584 [2]
75 594 [5]
75 622 [5]
75 627 [3]
75 685 [0]
75 716 [6]
75 751 [3]
75 791 [7]
75 893 [0]
75 925 [7]
75 935 [5]
75 941 [1]
75 948 [3]
75 978 [1]
0 229 [5]
27 229 [0]
98 229 [7]
139 229 [5]
229 533 [6]
229 685 [4]
0 27 [1]
13 27 [2]
14 27 [0]
16 27 [1]
27 28 [7]
27 35 [2]
27 38 [1]
27 50 [7]
27 53 [2]
27 56 [1]
27 64 [5]
27 76 [5]
27 82 [0]
27 86 [7]
27 87 [2]
27 91 [3]
27 98 [3]
27 102 [0]
27 103 [5]
27 104 [6]
27 108 [1]
27 110 [3]
27 116 [0]
27 123 [6]
27 128 [5]
27 133 [0]
27 135 [2]
27 136 [4]
27 139 [1]
27 146 [7]
27 155 [5]
27 161 [1]
27 162 [6]
27 167 [2]
27 170 [3]
27 175 [0]
27 176 [5]
27 186 [2]
27 189 [5]
27 202 [0]
27 204 [2]
27 207 [5]
27 227 [1]
27 236 [0]
27 243 [6]
27 258 [1]
27 260 [2]
27 261 [1]
27 264 [3]
27 265 [4]
27 270 [0]
27 273 [7]
27 279 [2]
27 290 [5]
27 293 [6]
27 299 [1]
27 311 [7]
27 313 [3]
27 314 [3]
27 319 [0]
27 321 [7]
27 325 [0]
27 344 [5]
27 353 [1]
27 354 [3]
27 358 [4]
27 365 [6]
27 370 [1]
27 372 [5]
27 377 [4]
27 389 [0]
27 390 [3]
27 394 [7]
27 398 [2]
27 399 [4]
27 426 [0]
27 428 [5]
27 431 [6]
27 439 [3]
27 442 [4]
27 445 [1]
27 467 [0]
27 477 [4]
27 478 [6]
27 479 [4]
27 481 [5]
27 488 [7]
27 493 [3]
27 503 [1]
27 515 [4]
27 521 [2]
27 524 [6]
27 528 [1]
27 531 [0]
27 533 [1]
27 535 [7]
27 536 [3]
27 538 [2]
27 542 [1]
27 546 [5]
27 547 [4]
27 567 [3]
27 584 [6]
27 588 [0]
27 589 [3]
27 595 [1]
27 598 [5]
27 600 [6]
27 607 [2]
27 611 [0]
27 614 [3]
27 621 [7]
27 622 [3]
27 623 [2]
27 630 [0]
27 633 [6]
27 643 [5]
27 655 [1]
27 659 [5]
27 671 [3]
27 681 [4]
27 683 [0]
27 685 [5]
27 693 [7]
27 700 [0]
27 716 [6]
27 724 [2]
27 726 [1]
27 732 [0]
27 737 [5]
27 752 [3]
27 755 [1]
27 757 [6]
27 758 [5]
27 767 [0]
27 768 [5]
27 776 [4]
27 785 [1]
27 791 [7]
27 810 [5]
27 822 [2]
27 827 [6]
27 830 [3]
27 845 [7]
27 847 [7]
27 861 [2]
27 864 [0]
27 865 [7]
27 873 [3]
27 876 [5]
27 885 [7]
27 886 [6]
27 893 [0]
27 903 [1]
27 909 [4]
27 925 [5]
27 933 [4]
27 935 [5]
27 939 [6]
27 941 [3]
27 948 [1]
27 952 [4]
27 965 [2]
27 971 [3]
27 976 [6]
27 977 [5]
27 978 [0]
27 979 [5]
27 986 [7]
27 998 [1]
0 236 [5]
14 236 [0]
16 236 [3]
38 236 [3]
87 236 [7]
236 950 [5]
236 977 [7]
0 14 [0]
13 14 [3]
14 16 [0]
14 17 [3]
14 24 [3]
14 28 [4]
14 35 [0]
14 38 [0]
14 40 [6]
14 56 [0]
14 59 [3]
14 63 [0]
14 76 [1]
14 87 [4]
14 103 [5]
14 108 [6]
14 128 [1]
14 129 [7]
14 131 [0]
14 133 [3]
14 135 [7]
14 142 [4]
14 143 [2]
14 162 [6]
14 169 [1]
14 170 [5]
14 186 [2]
14 198 [0]
14 202 [0]
14 205 [2]
14 225 [0]
14 239 [3]
14 243 [7]
14 256 [1]
14 257 [4]
14 258 [0]
14 265 [6]
14 272 [0]
14 290 [6]
14 305 [5]
14 306 [0]
14 343 [0]
14 344 [1]
14 353 [3]
14 355 [1]
14 360 [5]
14 370 [3]
14 378 [5]
14 386 [4]
14 398 [5]
14 399 [7]
14 406 [6]
14 409 [0]
14 416 [4]
14 420 [0]
14 426 [2]
14 439 [6]
14 449 [7]
14 450 [5]
14 472 [1]
14 478 [3]
14 503 [5]
14 508 [0]
14 518 [4]
14 531 [0]
14 536 [6]
14 538 [4]
14 542 [7]
14 556 [5]
14 561 [2]
14 568 [6]
14 571 [5]
14 574 [5]
14 575 [3]
14 585 [1]
14 588 [0]
14 589 [6]
14 590 [1]
14 598 [1]
14 603 [2]
14 606 [6]
14 611 [4]
14 633 [0]
14 640 [3]
14 655 [1]
14 667 [7]
14 671 [2]
14 681 [6]
14 696 [0]
14 699 [5]
14 700 [1]
14 702 [4]
14 712 [1]
14 724 [6]
14 732 [3]
14 737 [5]
14 757 [0]
14 781 [2]
14 790 [5]
14 810 [7]
14 827 [3]
14 830 [1]
14 859 [5]
14 864 [6]
14 869 [4]
14 876 [1]
14 877 [6]
14 886 [0]
14 887 [2]
14 890 [0]
14 892 [5]
14 901 [6]
14 903 [3]
14 904 [5]
14 933 [7]
14 938 [2]
14 939 [1]
14 950 [7]
14 952 [0]
14 965 [2]
14 971 [4]
14 974 [6]
14 977 [5]
14 980 [3]
14 981 [1]
14 993 [5]
14 998 [1]
16 131 [5]
38 131 [3]
56 131 [1]
87 131 [7]
129 131 [7]
131 225 [1]
131 571 [7]
131 640 [0]
131 887 [7]
131 890 [0]
131 974 [6]
16 890 [5]
38 890 [3]
56 890 [3]
129 890 [7]
225 890 [0]
16 225 [5]
38 225 [5]
56 225 [0]
129 225 [7]
0 56 [7]
16 56 [7]
28 56 [7]
38 56 [3]
56 87 [4]
56 110 [3]
56 128 [4]
56 129 [7]
56 135 [5]
56 136 [7]
56 162 [1]
56 169 [2]
56 186 [5]
56 202 [5]
56 243 [6]
56 256 [4]
56 258 [0]
56 265 [0]
56 272 [7]
56 305 [3]
56 329 [3]
56 358 [5]
56 439 [1]
56 518 [5]
56 536 [6]
56 538 [0]
56 542 [5]
56 556 [2]
56 565 [4]
56 571 [7]
56 572 [1]
56 585 [7]
56 588 [6]
56 589 [0]
56 598 [3]
56 611 [1]
56 633 [6]
56 640 [2]
56 679 [5]
56 696 [7]
56 702 [6]
56 723 [4]
56 724 [0]
56 767 [3]
56 790 [1]
56 806 [1]
56 810 [5]
56 827 [6]
56 830 [5]
56 886 [1]
56 887 [4]
56 892 [0]
56 939 [3]
56 952 [4]
56 971 [2]
56 974 [6]
56 980 [0]
56 993 [7]
56 998 [5]
0 258 [1]
28 258 [1]
38 258 [0]
186 258 [1]
202 258 [3]
258 399 [1]
258 933 [1]
258 993 [1]
0 38 [2]
16 38 [1]
28 38 [2]
38 87 [4]
38 108 [0]
38 110 [6]
38 128 [5]
38 129 [4]
38 133 [3]
38 135 [2]
38 136 [4]
38 162 [7]
38 169 [1]
38 186 [5]
38 202 [0]
38 205 [5]
38 243 [6]
38 256 [2]
38 265 [3]
38 272 [1]
38 305 [0]
38 329 [1]
38 343 [0]
38 358 [0]
38 370 [6]
38 398 [0]
38 399 [4]
38 439 [3]
38 491 [0]
38 508 [1]
38 518 [7]
38 535 [2]
38 536 [5]
38 538 [4]
38 542 [6]
38 556 [7]
38 565 [3]
38 571 [7]
38 572 [1]
38 585 [5]
38 588 [6]
38 589 [3]
38 598 [5]
38 611 [1]
38 640 [7]
38 679 [6]
38 696 [0]
38 702 [4]
38 712 [3]
38 723 [1]
38 760 [0]
38 767 [2]
38 790 [5]
38 806 [6]
38 827 [6]
38 859 [5]
38 865 [0]
38 882 [0]
38 886 [1]
38 887 [7]
38 892 [3]
38 902 [4]
38 933 [7]
38 950 [3]
38 952 [4]
38 965 [0]
38 971 [5]
38 974 [7]
38 977 [1]
38 980 [6]
38 993 [2]
16 760 [3]
129 760 [1]
272 760 [1]
343 760 [0]
508 760 [3]
0 343 [1]
16 343 [5]
129 343 [1]
272 343 [1]
343 409 [0]
343 420 [1]
343 472 [1]
343 491 [3]
343 508 [3]
343 859 [5]
343 902 [4]
0 409 [4]
16 409 [5]
129 409 [4]
272 409 [3]
409 420 [0]
409 472 [6]
0 420 [4]
129 420 [4]
272 420 [0]
0 272 [4]
16 272 [5]
129 272 [4]
272 329 [0]
272 472 [5]
272 491 [4]
272 508 [0]
272 712 [6]
272 859 [1]
272 902 [2]
16 508 [0]
129 508 [2]
0 16 [0]
13 16 [2]
16 17 [7]
16 28 [2]
16 35 [3]
16 40 [3]
16 50 [2]
16 53 [7]
16 59 [1]
16 63 [0]
16 64 [2]
16 76 [3]
16 82 [5]
16 86 [7]
16 87 [2]
16 91 [2]
16 96 [0]
16 98 [5]
16 102 [1]
16 103 [3]
16 104 [6]
16 108 [1]
16 110 [3]
16 116 [5]
16 123 [6]
16 128 [5]
16 129 [7]
16 133 [2]
16 136 [7]
16 139 [1]
16 142 [4]
16 146 [0]
16 155 [5]
16 161 [1]
16 162 [6]
16 167 [5]
16 169 [3]
16 170 [5]
16 175 [4]
16 176 [2]
16 186 [7]
16 187 [0]
16 189 [0]
16 198 [1]
16 202 [0]
16 204 [7]
16 205 [6]
16 207 [1]
16 210 [2]
16 217 [3]
16 227 [4]
16 243 [7]
16 257 [5]
16 260 [2]
16 261 [1]
16 262 [5]
16 264 [0]
16 265 [6]
16 270 [5]
16 298 [2]
16 299 [4]
16 311 [0]
16 313 [3]
16 314 [6]
16 319 [1]
16 325 [3]
16 329 [0]
16 344 [1]
16 354 [5]
16 358 [7]
16 365 [6]
16 372 [1]
16 377 [7]
16 389 [3]
16 390 [4]
16 394 [5]
16 398 [3]
16 428 [2]
16 439 [0]
16 442 [7]
16 445 [1]
16 449 [7]
16 467 [6]
16 472 [3]
16 477 [5]
16 478 [5]
16 479 [2]
16 481 [0]
16 491 [1]
16 503 [4]
16 515 [6]
16 518 [7]
16 521 [2]
16 524 [7]
16 528 [3]
16 531 [6]
16 535 [3]
16 536 [2]
16 544 [5]
16 546 [0]
16 547 [4]
16 561 [5]
16 567 [1]
16 568 [1]
16 571 [5]
16 575 [6]
16 588 [5]
16 589 [1]
16 594 [0]
16 595 [3]
16 598 [6]
16 600 [7]
16 607 [2]
16 614 [0]
16 621 [5]
16 623 [5]
16 625 [0]
16 627 [2]
16 630 [5]
16 640 [6]
16 654 [1]
16 655 [5]
16 659 [4]
16 666 [3]
16 667 [0]
16 671 [4]
16 681 [2]
16 683 [5]
16 693 [6]
16 702 [7]
16 712 [1]
16 716 [5]
16 724 [3]
16 737 [0]
16 742 [0]
16 750 [6]
16 751 [1]
16 752 [4]
16 755 [0]
16 758 [5]
16 767 [6]
16 768 [5]
16 776 [2]
16 785 [7]
16 791 [3]
16 810 [1]
16 822 [3]
16 827 [3]
16 830 [0]
16 835 [1]
16 845 [5]
16 847 [5]
16 859 [5]
16 861 [6]
16 864 [0]
16 865 [4]
16 873 [3]
16 876 [1]
16 877 [5]
16 885 [6]
16 887 [4]
16 893 [0]
16 902 [4]
16 904 [4]
16 909 [2]
16 925 [7]
16 930 [2]
16 939 [1]
16 948 [5]
16 950 [7]
16 952 [6]
16 965 [3]
16 971 [2]
16 974 [0]
16 976 [4]
16 977 [1]
16 978 [6]
16 979 [5]
16 981 [1]
16 986 [5]
0 96 [0]
17 96 [5]
0 13 [7]
0 17 [5]
0 19 [1]
0 21 [5]
0 24 [3]
0 25 [1]
0 26 [3]
0 28 [2]
0 29 [7]
0 32 [5]
0 33 [7]
0 34 [1]
0 37 [5]
0 39 [1]
0 40 [6]
0 41 [1]
0 42 [2]
0 43 [5]
0 44 [2]
0 46 [0]
0 49 [1]
0 50 [7]
0 51 [4]
0 54 [3]
0 57 [6]
0 59 [1]
0 60 [3]
0 61 [7]
0 62 [2]
0 63 [6]
0 64 [4]
0 65 [5]
0 66 [4]
0 67 [0]
0 68 [7]
0 69 [4]
0 70 [1]
0 71 [4]
0 72 [1]
0 73 [3]
0 74 [3]
0 76 [3]
0 77 [6]
0 81 [3]
0 84 [7]
0 86 [5]
0 87 [0]
0 89 [1]
0 91 [2]
0 93 [5]
0 94 [5]
0 98 [0]
0 99 [5]
0 102 [1]
0 103 [0]
0 105 [5]
0 107 [1]
0 108 [6]
0 110 [2]
0 112 [5]
0 115 [5]
0 117 [7]
0 120 [0]
0 123 [6]
0 126 [5]
0 127 [4]
0 128 [1]
0 129 [0]
0 132 [7]
0 133 [3]
0 134 [1]
0 135 [5]
0 136 [0]
0 138 [5]
0 139 [6]
0 142 [3]
0 144 [6]
0 148 [2]
0 150 [2]
0 154 [4]
0 155 [1]
0 156 [5]
0 160 [4]
0 161 [6]
0 162 [3]
0 163 [7]
0 167 [5]
0 169 [0]
0 170 [5]
0 171 [1]
0 173 [1]
0 174 [1]
0 175 [1]
0 176 [6]
0 177 [6]
0 179 [0]
0 181 [3]
0 184 [3]
0 185 [4]
0 186 [2]
0 187 [1]
0 191 [1]
0 192 [0]
0 193 [6]
0 194 [4]
0 197 [2]
0 198 [5]
0 199 [0]
0 201 [7]
0 202 [0]
0 203 [5]
0 204 [2]
0 205 [1]
0 210 [7]
0 211 [2]
0 217 [2]
0 218 [6]
0 220 [3]
0 221 [5]
0 223 [0]
0 224 [7]
0 226 [5]
0 227 [1]
0 230 [1]
0 231 [4]
0 234 [6]
0 238 [4]
0 239 [3]
0 242 [1]
0 243 [0]
0 244 [1]
0 248 [2]
0 249 [5]
0 250 [6]
0 251 [3]
0 254 [7]
0 256 [5]
0 257 [1]
0 259 [1]
0 260 [4]
0 261 [0]
0 262 [4]
0 265 [6]
0 269 [1]
0 270 [5]
0 271 [3]
0 273 [4]
0 275 [6]
0 276 [2]
0 279 [0]
0 280 [3]
0 285 [2]
0 286 [4]
0 287 [5]
0 289 [7]
0 290 [5]
0 293 [4]
0 294 [6]
0 295 [1]
0 297 [1]
0 298 [3]
0 299 [0]
0 301 [1]
0 304 [6]
0 305 [1]
0 308 [2]
0 309 [1]
0 311 [5]
0 313 [5]
0 314 [0]
0 315 [5]
0 319 [5]
0 321 [7]
0 322 [1]
0 323 [3]
0 324 [6]
0 325 [3]
0 327 [5]
0 329 [4]
0 344 [5]
0 345 [7]
0 350 [1]
0 351 [7]
0 353 [0]
0 354 [3]
0 355 [6]
0 358 [0]
0 360 [5]
0 362 [1]
0 364 [0]
0 369 [3]
0 370 [5]
0 371 [6]
0 372 [2]
0 373 [1]
0 375 [6]
0 378 [0]
0 379 [4]
0 380 [0]
0 381 [7]
0 382 [3]
0 385 [5]
0 388 [6]
0 389 [0]
0 391 [1]
0 393 [2]
0 394 [5]
0 395 [6]
0 397 [1]
0 398 [3]
0 399 [4]
0 400 [1]
0 403 [7]
0 406 [0]
0 407 [7]
0 408 [4]
0 412 [3]
0 415 [7]
0 418 [0]
0 419 [5]
0 422 [6]
0 423 [7]
0 424 [1]
0 425 [7]
0 426 [2]
0 429 [3]
0 430 [0]
0 432 [6]
0 433 [5]
0 434 [4]
0 442 [3]
0 443 [3]
0 445 [1]
0 448 [2]
0 451 [4]
0 452 [5]
0 455 [5]
0 456 [6]
0 459 [5]
0 460 [1]
0 462 [3]
0 465 [7]
0 467 [0]
0 471 [5]
0 475 [5]
0 477 [5]
0 478 [6]
0 481 [5]
0 484 [2]
0 487 [3]
0 488 [0]
0 491 [6]
0 493 [4]
0 494 [7]
0 495 [3]
0 496 [1]
0 497 [0]
0 501 [0]
0 511 [7]
0 517 [7]
0 518 [5]
0 520 [5]
0 521 [5]
0 523 [6]
0 524 [2]
0 525 [5]
0 526 [3]
0 529 [4]
0 531 [6]
0 534 [1]
0 535 [4]
0 536 [1]
0 537 [7]
0 538 [0]
0 539 [5]
0 541 [5]
0 542 [6]
0 543 [1]
0 544 [5]
0 546 [0]
0 547 [3]
0 548 [5]
0 550 [2]
0 556 [5]
0 557 [2]
0 560 [6]
0 561 [1]
0 562 [6]
0 563 [5]
0 565 [2]
0 567 [1]
0 568 [0]
0 573 [4]
0 574 [7]
0 575 [1]
0 579 [3]
0 581 [5]
0 582 [0]
0 584 [6]
0 585 [5]
0 586 [5]
0 588 [2]
0 591 [0]
0 594 [0]
0 597 [5]
0 598 [1]
0 600 [3]
0 602 [0]
0 610 [6]
0 611 [4]
0 612 [5]
0 613 [1]
0 614 [7]
0 620 [2]
0 625 [6]
0 627 [3]
0 628 [0]
0 629 [1]
0 632 [3]
0 633 [6]
0 636 [7]
0 637 [4]
0 642 [5]
0 644 [0]
0 647 [2]
0 648 [6]
0 654 [3]
0 656 [5]
0 657 [0]
0 660 [6]
0 662 [1]
0 665 [7]
0 666 [7]
0 667 [0]
0 668 [3]
0 671 [4]
0 672 [1]
0 676 [5]
0 678 [2]
0 679 [6]
0 680 [2]
0 681 [5]
0 689 [1]
0 690 [3]
0 694 [6]
0 696 [0]
0 697 [3]
0 699 [7]
0 700 [1]
0 702 [4]
0 708 [3]
0 709 [6]
0 712 [2]
0 713 [1]
0 714 [5]
0 717 [3]
0 718 [1]
0 720 [5]
0 723 [0]
0 724 [6]
0 728 [5]
0 729 [1]
0 732 [7]
0 733 [3]
0 734 [4]
0 736 [0]
0 742 [5]
0 743 [6]
0 745 [2]
0 747 [5]
0 748 [4]
0 750 [0]
0 751 [3]
0 754 [1]
0 757 [4]
0 759 [5]
0 761 [6]
0 762 [7]
0 765 [1]
0 767 [0]
0 768 [3]
0 770 [7]
0 771 [1]
0 772 [5]
0 785 [6]
0 787 [5]
0 788 [3]
0 790 [5]
0 791 [2]
0 792 [1]
0 795 [2]
0 797 [7]
0 798 [0]
0 799 [5]
0 800 [3]
0 806 [4]
0 810 [3]
0 812 [6]
0 813 [5]
0 814 [5]
0 817 [0]
0 821 [2]
0 824 [3]
0 827 [1]
0 830 [6]
0 831 [2]
0 835 [7]
0 836 [4]
0 837 [6]
0 840 [3]
0 843 [5]
0 847 [4]
0 850 [0]
0 853 [4]
0 854 [1]
0 859 [3]
0 860 [4]
0 861 [6]
0 865 [3]
0 874 [2]
0 876 [3]
0 877 [5]
0 878 [7]
0 881 [1]
0 882 [3]
0 885 [6]
0 886 [0]
0 892 [5]
0 893 [7]
0 894 [5]
0 896 [3]
0 897 [4]
0 901 [1]
0 902 [0]
0 903 [3]
0 904 [5]
0 908 [0]
0 913 [2]
0 914 [6]
0 916 [0]
0 922 [0]
0 923 [3]
0 926 [5]
0 928 [0]
0 930 [1]
0 932 [6]
0 933 [2]
0 936 [1]
0 939 [5]
0 941 [2]
0 943 [4]
0 945 [6]
0 946 [7]
0 948 [3]
0 950 [1]
0 952 [0]
0 955 [5]
0 959 [5]
0 961 [2]
0 965 [6]
0 976 [4]
0 977 [3]
0 980 [1]
0 981 [3]
0 985 [0]
0 991 [2]
0 993 [6]
0 994 [7]
0 998 [3]
129 902 [0]
491 902 [0]
87 129 [0]
129 329 [6]
129 472 [5]
129 491 [4]
129 571 [0]
129 712 [3]
129 790 [1]
129 859 [1]
129 887 [0]
129 974 [6]
129 980 [2]
87 571 [1]
571 887 [0]
87 887 [0]
87 108 [0]
87 162 [7]
87 358 [0]
87 398 [1]
87 535 [3]
87 640 [5]
87 702 [0]
87 724 [4]
87 790 [1]
87 865 [1]
87 939 [6]
87 950 [1]
87 977 [2]
87 980 [6]
358 535 [0]
358 865 [0]
29 280 [0]
32 280 [7]
280 323 [7]
280 926 [3]
29 32 [3]
29 42 [0]
29 66 [5]
29 77 [3]
29 127 [1]
29 154 [0]
29 197 [5]
29 211 [3]
29 231 [3]
29 244 [5]
29 295 [0]
29 323 [7]
29 326 [6]
29 351 [2]
29 373 [4]
29 381 [7]
29 403 [0]
29 415 [5]
29 423 [0]
29 429 [3]
29 460 [0]
29 464 [5]
29 495 [6]
29 529 [3]
29 537 [3]
29 629 [1]
29 637 [2]
29 648 [7]
29 657 [5]
29 678 [4]
29 734 [4]
29 761 [6]
29 836 [0]
29 853 [3]
29 856 [0]
29 914 [3]
29 919 [4]
29 926 [5]
29 961 [1]
127 403 [0]
154 403 [3]
295 403 [0]
403 423 [3]
403 562 [2]
403 821 [0]
403 919 [6]
403 955 [3]
403 961 [5]
154 821 [4]
295 821 [0]
423 821 [4]
562 821 [1]
821 955 [3]
42 295 [1]
127 295 [7]
154 295 [1]
295 423 [0]
295 562 [5]
295 919 [3]
295 955 [0]
295 961 [0]
154 955 [1]
423 955 [0]
154 423 [0]
423 562 [6]
423 961 [4]
42 154 [0]
127 154 [0]
154 562 [2]
154 919 [3]
42 127 [1]
42 211 [0]
42 220 [6]
42 231 [0]
42 244 [4]
42 289 [7]
42 373 [5]
42 381 [0]
42 495 [6]
42 537 [3]
42 557 [0]
42 629 [4]
42 648 [1]
42 665 [0]
42 761 [0]
42 853 [0]
211 231 [1]
231 853 [0]
211 853 [0]
211 220 [2]
211 537 [7]
211 557 [0]
211 648 [6]
211 665 [1]
211 720 [1]
211 761 [3]
557 665 [0]
557 720 [3]
665 720 [0]
21 452 [5]
69 452 [0]
73 452 [0]
185 452 [0]
452 780 [1]
452 907 [5]
21 185 [0]
69 185 [5]
73 185 [0]
132 185 [0]
185 226 [6]
185 494 [1]
185 511 [1]
185 780 [4]
185 874 [2]
185 907 [3]
21 73 [7]
69 73 [0]
73 132 [6]
73 226 [1]
73 275 [7]
73 369 [0]
73 419 [5]
73 494 [0]
73 511 [0]
73 709 [4]
73 780 [3]
73 817 [6]
73 874 [2]
73 907 [5]
69 494 [2]
226 494 [1]
494 511 [0]
69 511 [0]
21 69 [0]
69 70 [0]
69 132 [0]
69 138 [3]
69 150 [6]
69 226 [7]
69 275 [4]
69 276 [0]
69 286 [5]
69 345 [0]
69 369 [2]
69 419 [3]
69 425 [1]
69 434 [5]
69 462 [6]
69 582 [5]
69 631 [0]
69 647 [0]
69 709 [3]
69 717 [6]
69 747 [5]
69 765 [1]
69 780 [7]
69 817 [4]
69 874 [2]
69 907 [3]
69 923 [1]
69 931 [0]
276 631 [0]
345 631 [1]
70 276 [5]
276 345 [0]
276 434 [5]
276 462 [6]
276 647 [5]
276 931 [6]
276 936 [3]
148 958 [0]
401 958 [7]
912 958 [4]
148 152 [1]
148 196 [0]
148 283 [0]
148 308 [2]
148 401 [1]
148 444 [0]
148 486 [1]
148 652 [0]
148 912 [0]
196 444 [0]
196 486 [1]
196 652 [1]
444 486 [3]
444 652 [0]
486 652 [0]
28 399 [0]
186 399 [0]
202 399 [0]
399 933 [0]
28 933 [3]
186 933 [0]
202 933 [1]
28 186 [0]
186 202 [7]
186 439 [4]
186 518 [0]
186 542 [6]
186 810 [3]
186 827 [6]
186 830 [5]
186 993 [3]
186 998 [0]
28 518 [0]
28 35 [0]
28 53 [0]
28 82 [1]
28 110 [4]
28 128 [1]
28 133 [2]
28 135 [5]
28 136 [7]
28 146 [1]
28 169 [6]
28 189 [5]
28 202 [3]
28 205 [0]
28 207 [5]
28 256 [6]
28 265 [6]
28 354 [3]
28 370 [2]
28 428 [1]
28 431 [4]
28 439 [6]
28 479 [0]
28 503 [5]
28 515 [0]
28 538 [3]
28 542 [1]
28 565 [7]
28 572 [6]
28 589 [6]
28 598 [5]
28 623 [3]
28 655 [1]
28 671 [4]
28 679 [6]
28 723 [3]
28 726 [0]
28 737 [2]
28 750 [7]
28 752 [6]
28 758 [1]
28 767 [1]
28 806 [5]
28 810 [3]
28 822 [1]
28 827 [2]
28 845 [1]
28 864 [0]
28 873 [7]
28 876 [3]
28 882 [4]
28 886 [0]
28 965 [6]
28 971 [3]
28 986 [0]
28 993 [5]
28 998 [1]
35 53 [1]
53 82 [4]
53 146 [0]
53 189 [2]
53 207 [6]
53 377 [7]
53 390 [4]
53 428 [3]
53 431 [2]
53 479 [1]
53 515 [6]
53 528 [1]
53 621 [5]
53 623 [3]
53 643 [7]
53 659 [1]
53 683 [5]
53 693 [3]
53 726 [1]
53 752 [7]
53 758 [5]
53 822 [4]
53 845 [1]
53 873 [6]
53 986 [0]
35 986 [3]
479 986 [0]
35 479 [0]
479 515 [0]
35 82 [5]
35 146 [4]
35 207 [2]
35 377 [5]
35 428 [5]
35 431 [6]
35 503 [1]
35 515 [3]
35 528 [5]
35 655 [0]
35 659 [5]
35 683 [1]
35 693 [6]
35 726 [2]
35 822 [0]
35 845 [0]
35 873 [1]
35 979 [5]
822 845 [0]
845 873 [0]
255 725 [1]
458 725 [0]
725 749 [0]
255 749 [1]
458 749 [0]
255 458 [0]
255 363 [1]
255 707 [1]
255 857 [7]
255 966 [0]
363 966 [0]
363 707 [0]
197 678 [0]
66 197 [0]
197 201 [0]
197 644 [5]
197 787 [0]
197 878 [4]
201 787 [0]
644 787 [3]
66 201 [0]
201 644 [3]
201 878 [5]
66 415 [0]
66 644 [6]
66 878 [4]
50 791 [0]
86 791 [2]
325 791 [6]
13 50 [0]
50 64 [0]
50 86 [2]
50 91 [0]
50 98 [1]
50 102 [0]
50 104 [3]
50 116 [1]
50 123 [2]
50 139 [0]
50 155 [6]
50 161 [1]
50 167 [0]
50 175 [5]
50 204 [0]
50 227 [7]
50 262 [0]
50 270 [3]
50 273 [4]
50 279 [6]
50 293 [4]
50 311 [5]
50 313 [0]
50 314 [0]
50 319 [5]
50 321 [7]
50 325 [7]
50 372 [3]
50 445 [5]
50 467 [6]
50 477 [0]
50 481 [0]
50 493 [2]
50 521 [1]
50 547 [1]
50 567 [5]
50 594 [3]
50 595 [6]
50 614 [7]
50 622 [4]
50 627 [3]
50 654 [5]
50 716 [7]
50 742 [0]
50 751 [3]
50 768 [6]
50 776 [2]
50 847 [0]
50 861 [4]
50 893 [0]
50 925 [1]
50 935 [6]
50 941 [1]
50 948 [6]
50 976 [3]
64 477 [0]
477 481 [6]
477 547 [1]
477 893 [5]
13 64 [1]
64 91 [1]
64 104 [4]
64 155 [0]
64 167 [1]
64 175 [7]
64 176 [2]
64 187 [3]
64 204 [1]
64 210 [2]
64 217 [3]
64 260 [1]
64 262 [1]
64 264 [2]
64 270 [6]
64 298 [7]
64 313 [0]
64 314 [0]
64 365 [4]
64 442 [1]
64 467 [6]
64 521 [1]
64 544 [5]
64 595 [2]
64 607 [1]
64 622 [1]
64 627 [5]
64 654 [0]
64 751 [3]
64 755 [6]
64 776 [6]
64 847 [1]
64 893 [1]
64 909 [1]
64 935 [7]
64 976 [4]
13 313 [3]
167 313 [0]
313 467 [3]
313 976 [5]
13 167 [0]
167 467 [0]
167 976 [2]
13 24 [7]
13 40 [6]
13 63 [6]
13 76 [1]
13 91 [6]
13 103 [3]
13 142 [7]
13 143 [4]
13 155 [3]
13 170 [0]
13 175 [1]
13 176 [5]
13 187 [5]
13 204 [2]
13 210 [1]
13 217 [4]
13 239 [1]
13 260 [2]
13 261 [6]
13 262 [3]
13 270 [2]
13 271 [5]
13 290 [3]
13 298 [7]
13 299 [6]
13 306 [1]
13 314 [6]
13 344 [0]
13 353 [2]
13 355 [3]
13 360 [0]
13 378 [0]
13 389 [6]
13 394 [4]
13 406 [2]
13 416 [5]
13 467 [6]
13 478 [0]
13 521 [5]
13 524 [7]
13 531 [3]
13 544 [5]
13 568 [2]
13 574 [4]
13 595 [6]
13 600 [1]
13 606 [5]
13 625 [0]
13 630 [2]
13 654 [3]
13 666 [6]
13 681 [2]
13 700 [1]
13 715 [7]
13 732 [5]
13 757 [1]
13 776 [0]
13 785 [4]
13 808 [3]
13 835 [6]
13 847 [0]
13 877 [6]
13 885 [7]
13 891 [3]
13 901 [5]
13 959 [6]
13 976 [2]
91 847 [6]
204 847 [0]
521 847 [1]
91 204 [2]
175 204 [0]
204 262 [0]
204 521 [1]
91 262 [0]
175 262 [0]
91 175 [4]
91 260 [0]
91 270 [3]
91 442 [0]
91 521 [1]
91 607 [0]
91 909 [0]
260 607 [5]
442 607 [3]
607 909 [0]
442 909 [0]
260 442 [0]
51 762 [0]
93 762 [0]
762 837 [0]
33 93 [5]
51 93 [0]
93 288 [6]
93 407 [5]
93 471 [5]
93 653 [1]
93 714 [5]
93 813 [5]
93 837 [4]
93 897 [6]
33 51 [0]
51 107 [5]
51 117 [0]
51 173 [0]
51 288 [3]
51 297 [2]
51 309 [7]
51 322 [1]
51 341 [0]
51 361 [5]
51 380 [3]
51 407 [2]
51 410 [6]
51 448 [2]
51 457 [0]
51 475 [0]
51 483 [6]
51 485 [0]
51 514 [7]
51 517 [1]
51 523 [3]
51 581 [5]
51 597 [6]
51 608 [4]
51 674 [6]
51 694 [0]
51 714 [1]
51 718 [1]
51 727 [3]
51 759 [2]
51 774 [5]
51 813 [4]
51 829 [3]
51 837 [4]
51 842 [1]
51 844 [6]
51 897 [2]
51 908 [1]
51 934 [7]
51 943 [5]
51 992 [0]
33 173 [0]
173 309 [6]
173 322 [1]
173 379 [6]
173 609 [3]
33 117 [1]
33 288 [0]
33 297 [5]
33 309 [6]
33 322 [3]
33 341 [0]
33 379 [1]
33 407 [2]
33 410 [6]
33 457 [4]
33 471 [2]
33 475 [1]
33 501 [2]
33 517 [6]
33 523 [3]
33 581 [5]
33 591 [7]
33 597 [0]
33 609 [6]
33 653 [7]
33 674 [0]
33 714 [1]
33 759 [1]
33 813 [5]
33 842 [3]
33 897 [6]
33 922 [1]
33 992 [5]
117 341 [1]
341 410 [4]
341 457 [3]
341 485 [0]
341 514 [1]
341 674 [6]
341 992 [2]
117 485 [0]
410 485 [7]
485 608 [5]
117 297 [4]
117 410 [3]
117 457 [0]
117 475 [0]
117 514 [2]
117 523 [6]
117 608 [3]
117 922 [3]
117 992 [4]
475 922 [0]
44 748 [7]
94 748 [0]
550 748 [0]
44 550 [7]
94 550 [0]
550 928 [7]
44 94 [0]
94 249 [5]
94 632 [6]
94 753 [0]
94 928 [0]
44 249 [5]
44 632 [1]
44 753 [0]
44 928 [3]
32 529 [0]
77 529 [6]
32 41 [5]
32 77 [4]
32 171 [5]
32 323 [0]
32 326 [6]
32 429 [1]
32 454 [2]
32 464 [5]
32 476 [1]
32 637 [7]
32 676 [0]
32 799 [3]
32 856 [6]
32 926 [0]
323 926 [0]
407 813 [0]
714 813 [0]
407 714 [0]
407 471 [0]
407 591 [1]
407 897 [4]
471 591 [0]
86 925 [0]
98 925 [5]
716 925 [6]
86 98 [0]
86 273 [0]
86 293 [3]
86 325 [0]
86 445 [2]
86 546 [5]
86 584 [1]
86 716 [7]
86 768 [0]
86 978 [4]
273 321 [0]
12 119 [0]
20 119 [2]
106 119 [2]
119 165 [6]
119 178 [3]
119 240 [3]
119 332 [0]
119 335 [0]
119 349 [5]
119 383 [6]
119 473 [2]
119 638 [0]
119 804 [3]
12 638 [3]
20 638 [0]
332 638 [0]
12 332 [0]
20 332 [0]
12 20 [0]
12 31 [0]
12 45 [1]
12 47 [4]
12 58 [5]
12 78 [5]
12 83 [1]
12 101 [0]
12 106 [6]
12 109 [1]
12 118 [6]
12 121 [1]
12 125 [7]
12 141 [2]
12 151 [3]
12 164 [2]
12 165 [0]
12 178 [5]
12 215 [1]
12 228 [4]
12 240 [6]
12 246 [5]
12 277 [6]
12 284 [1]
12 335 [3]
12 338 [6]
12 349 [4]
12 376 [6]
12 383 [0]
12 402 [1]
12 413 [2]
12 446 [5]
12 447 [3]
12 461 [7]
12 463 [4]
12 505 [6]
12 530 [3]
12 552 [3]
12 553 [1]
12 555 [6]
12 559 [4]
12 570 [2]
12 576 [1]
12 583 [0]
12 605 [5]
12 616 [0]
12 635 [1]
12 641 [3]
12 649 [6]
12 664 [0]
12 687 [5]
12 688 [7]
12 701 [0]
12 706 [5]
12 710 [3]
12 719 [5]
12 740 [2]
12 763 [6]
12 775 [4]
12 807 [7]
12 841 [1]
12 848 [0]
12 852 [2]
12 866 [5]
12 867 [1]
12 870 [4]
12 875 [6]
12 883 [3]
12 898 [7]
12 910 [0]
12 918 [5]
12 937 [1]
12 962 [2]
12 967 [6]
12 969 [1]
12 972 [4]
12 995 [3]
12 997 [0]
83 583 [1]
101 583 [0]
215 583 [1]
463 583 [6]
83 101 [0]
101 215 [1]
101 376 [6]
101 446 [2]
101 463 [5]
101 688 [7]
101 841 [1]
83 121 [0]
83 130 [4]
83 215 [5]
83 376 [6]
83 446 [3]
83 463 [1]
83 490 [0]
83 576 [0]
83 616 [7]
83 635 [2]
83 649 [6]
83 688 [1]
83 740 [5]
83 841 [3]
83 848 [4]
83 875 [7]
83 879 [1]
83 953 [3]
83 967 [0]
83 995 [6]
20 334 [0]
45 334 [5]
109 334 [0]
233 334 [1]
318 334 [0]
334 411 [0]
334 839 [0]
20 839 [6]
45 839 [3]
109 839 [0]
233 839 [1]
318 839 [6]
411 839 [6]
20 109 [1]
45 109 [1]
109 141 [1]
109 214 [4]
109 233 [1]
109 318 [0]
109 411 [1]
109 427 [2]
109 437 [3]
109 441 [1]
109 469 [5]
109 626 [5]
109 645 [0]
109 706 [1]
109 744 [2]
109 746 [5]
109 763 [7]
109 784 [0]
109 794 [1]
109 803 [0]
109 805 [6]
109 809 [1]
109 858 [1]
109 880 [1]
109 957 [0]
109 975 [1]
109 989 [4]
20 784 [3]
141 784 [4]
233 784 [4]
318 784 [1]
427 784 [3]
645 784 [0]
20 645 [3]
141 645 [4]
233 645 [4]
318 645 [0]
427 645 [0]
20 318 [3]
45 318 [1]
141 318 [4]
233 318 [4]
318 411 [0]
318 427 [3]
318 441 [5]
318 794 [4]
318 803 [2]
318 880 [6]
318 957 [0]
20 411 [0]
45 411 [6]
233 411 [7]
20 45 [3]
20 58 [7]
20 78 [1]
20 106 [6]
20 141 [3]
20 165 [4]
20 178 [5]
20 214 [7]
20 228 [2]
20 233 [3]
20 240 [0]
20 246 [2]
20 277 [6]
20 284 [3]
20 335 [3]
20 349 [2]
20 383 [6]
20 402 [1]
20 427 [5]
20 437 [0]
20 441 [3]
20 469 [3]
20 473 [2]
20 530 [4]
20 553 [3]
20 570 [6]
20 605 [4]
20 664 [5]
20 687 [1]
20 706 [0]
20 710 [3]
20 719 [1]
20 744 [7]
20 746 [2]
20 763 [6]
20 775 [0]
20 777 [5]
20 794 [4]
20 803 [1]
20 804 [3]
20 805 [4]
20 807 [0]
20 809 [3]
20 852 [2]
20 866 [5]
20 880 [1]
20 898 [7]
20 910 [6]
20 937 [1]
20 957 [5]
20 969 [3]
20 972 [3]
20 975 [3]
20 989 [3]
45 706 [6]
141 706 [0]
45 141 [5]
141 214 [6]
141 233 [5]
141 427 [0]
141 437 [2]
141 441 [1]
141 469 [6]
141 626 [6]
141 744 [4]
141 794 [0]
141 803 [5]
141 809 [5]
141 858 [1]
141 880 [1]
141 957 [3]
141 975 [0]
141 989 [6]
233 975 [0]
45 233 [0]
233 427 [7]
233 437 [6]
233 469 [0]
233 626 [0]
233 744 [3]
233 794 [1]
233 803 [5]
233 809 [0]
233 858 [0]
233 880 [0]
233 989 [0]
469 809 [1]
809 989 [0]
469 989 [0]
469 626 [0]
469 858 [1]
626 858 [0]
421 435 [0]
421 540 [0]
421 863 [2]
421 960 [0]
540 863 [7]
540 960 [0]
90 509 [0]
502 509 [4]
90 159 [0]
90 253 [1]
90 342 [0]
90 368 [6]
90 502 [5]
90 592 [3]
90 658 [0]
90 670 [2]
90 711 [1]
90 766 [1]
90 951 [4]
159 466 [6]
159 711 [0]
24 360 [0]
355 360 [7]
24 143 [3]
24 306 [6]
24 355 [0]
24 386 [0]
24 416 [5]
24 450 [1]
24 574 [4]
24 590 [1]
24 603 [1]
24 606 [3]
24 781 [5]
24 869 [2]
24 901 [1]
24 938 [1]
143 386 [3]
386 450 [0]
386 590 [3]
386 603 [0]
386 781 [7]
386 869 [0]
386 938 [0]
143 938 [5]
450 938 [3]
603 938 [0]
143 603 [5]
450 603 [0]
143 450 [0]
450 590 [0]
450 781 [6]
450 869 [5]
143 590 [0]
143 306 [2]
143 416 [0]
39 352 [1]
145 352 [3]
352 900 [0]
39 900 [0]
39 74 [0]
39 97 [6]
39 111 [7]
39 112 [0]
39 140 [3]
39 145 [6]
39 181 [1]
39 182 [1]
39 222 [1]
39 223 [4]
39 237 [6]
39 247 [1]
39 330 [0]
39 347 [0]
39 424 [3]
39 433 [5]
39 496 [7]
39 498 [0]
39 506 [1]
39 516 [5]
39 520 [0]
39 534 [1]
39 541 [0]
39 564 [6]
39 580 [2]
39 610 [0]
39 617 [1]
39 686 [1]
39 728 [3]
39 729 [4]
39 814 [1]
39 849 [5]
39 990 [7]
39 991 [6]
39 996 [1]
39 999 [5]
112 330 [0]
181 330 [1]
330 580 [3]
330 990 [2]
112 181 [0]
112 222 [0]
112 223 [0]
112 247 [6]
112 496 [4]
112 580 [1]
112 686 [0]
112 990 [6]
112 996 [0]
181 222 [0]
181 247 [3]
181 580 [5]
181 686 [2]
181 814 [7]
181 990 [3]
181 996 [3]
222 247 [5]
222 686 [0]
222 996 [3]
247 686 [4]
686 996 [0]
247 996 [0]
21 772 [0]
26 772 [0]
43 772 [2]
21 26 [4]
21 43 [2]
21 49 [0]
21 61 [0]
21 68 [1]
21 72 [6]
21 81 [0]
21 115 [1]
21 132 [7]
21 134 [6]
21 156 [2]
21 160 [4]
21 195 [1]
21 199 [3]
21 203 [5]
21 218 [2]
21 224 [3]
21 230 [1]
21 242 [5]
21 248 [6]
21 250 [4]
21 251 [1]
21 263 [3]
21 269 [7]
21 285 [0]
21 294 [6]
21 302 [2]
21 310 [5]
21 312 [5]
21 348 [1]
21 359 [3]
21 362 [6]
21 367 [4]
21 369 [6]
21 385 [0]
21 395 [2]
21 397 [1]
21 400 [7]
21 408 [5]
21 412 [0]
21 414 [3]
21 418 [1]
21 425 [6]
21 438 [7]
21 451 [4]
21 465 [0]
21 474 [2]
21 482 [5]
21 519 [3]
21 545 [6]
21 569 [3]
21 573 [1]
21 579 [7]
21 596 [3]
21 673 [0]
21 709 [2]
21 722 [3]
21 738 [4]
21 741 [3]
21 780 [6]
21 788 [5]
21 802 [3]
21 815 [0]
21 831 [6]
21 833 [7]
21 850 [2]
21 854 [0]
21 874 [1]
21 907 [4]
21 916 [5]
21 917 [6]
21 921 [5]
21 932 [3]
21 945 [6]
21 985 [7]
49 61 [5]
61 72 [0]
61 199 [0]
61 263 [0]
61 302 [4]
61 348 [0]
61 414 [2]
61 438 [1]
61 482 [7]
61 519 [5]
61 569 [6]
61 917 [5]
199 348 [1]
263 348 [0]
348 414 [3]
348 482 [6]
348 519 [0]
348 802 [4]
49 263 [0]
199 263 [0]
263 414 [0]
263 482 [2]
263 519 [1]
263 596 [0]
263 722 [0]
263 802 [7]
49 596 [1]
199 596 [1]
596 722 [0]
49 722 [5]
199 722 [0]
49 199 [1]
199 414 [3]
199 482 [6]
199 519 [0]
199 802 [1]
176 544 [0]
298 544 [5]
176 187 [0]
176 210 [0]
176 217 [4]
176 261 [0]
176 298 [2]
176 299 [6]
176 394 [3]
176 785 [6]
176 885 [7]
187 210 [0]
58 246 [0]
58 228 [0]
70 286 [0]
70 138 [0]
70 434 [0]
70 582 [3]
70 668 [1]
70 717 [4]
70 747 [3]
70 946 [2]
734 836 [0]
25 987 [6]
105 987 [0]
149 987 [5]
826 987 [4]
25 105 [0]
34 105 [5]
105 149 [5]
105 254 [6]
105 287 [5]
105 301 [5]
105 601 [5]
105 661 [5]
105 703 [5]
105 730 [5]
105 826 [0]
105 843 [5]
105 984 [0]
25 826 [0]
149 826 [3]
826 984 [3]
25 34 [6]
25 54 [7]
25 84 [7]
25 149 [0]
25 163 [6]
25 184 [7]
25 192 [5]
25 193 [4]
25 208 [1]
25 234 [2]
25 235 [5]
25 238 [0]
25 287 [6]
25 301 [6]
25 304 [3]
25 324 [1]
25 331 [5]
25 364 [6]
25 382 [5]
25 391 [7]
25 393 [6]
25 443 [2]
25 470 [3]
25 601 [0]
25 612 [4]
25 656 [0]
25 661 [0]
25 689 [1]
25 703 [0]
25 713 [7]
25 730 [0]
25 743 [7]
25 745 [6]
25 824 [3]
25 843 [6]
25 884 [5]
25 896 [0]
25 973 [6]
25 984 [2]
25 994 [4]
601 730 [0]
661 730 [6]
703 730 [4]
149 601 [1]
601 661 [1]
601 703 [0]
149 703 [3]
661 703 [0]
149 661 [0]
34 149 [0]
149 973 [0]
149 984 [0]
34 973 [0]
34 84 [5]
34 184 [6]
34 193 [1]
34 208 [5]
34 235 [3]
34 238 [7]
34 254 [3]
34 287 [0]
34 304 [5]
34 331 [2]
34 364 [2]
34 391 [0]
34 393 [6]
34 443 [4]
34 470 [0]
34 484 [6]
34 743 [7]
34 745 [3]
34 843 [0]
34 884 [1]
34 994 [2]
287 301 [0]
287 843 [1]
82 377 [0]
377 390 [4]
377 693 [5]
377 979 [0]
82 979 [0]
82 189 [0]
82 207 [6]
82 390 [6]
82 431 [3]
82 621 [3]
82 643 [3]
82 693 [0]
82 726 [7]
82 752 [4]
82 758 [0]
189 758 [0]
189 621 [0]
189 623 [1]
189 643 [0]
621 643 [0]
152 283 [3]
283 401 [5]
283 646 [0]
152 646 [0]
152 252 [6]
152 401 [5]
152 513 [1]
152 912 [0]
401 912 [0]
282 820 [0]
735 820 [2]
190 282 [0]
282 692 [2]
282 735 [0]
190 735 [0]
735 988 [0]
190 988 [0]
190 692 [6]
190 888 [0]
17 930 [0]
198 930 [0]
667 930 [6]
17 59 [3]
17 198 [0]
17 257 [0]
17 449 [7]
17 561 [1]
17 575 [2]
17 667 [7]
17 699 [1]
17 904 [5]
17 981 [3]
198 257 [0]
257 449 [4]
257 575 [4]
198 449 [0]
198 575 [6]
198 667 [0]
198 699 [3]
284 530 [0]
530 687 [0]
530 807 [2]
530 969 [0]
284 969 [0]
284 687 [0]
37 315 [0]
291 731 [0]
291 634 [0]
227 594 [6]
319 594 [0]
372 594 [1]
98 319 [0]
227 319 [6]
319 372 [3]
98 102 [2]
98 116 [5]
98 139 [5]
98 161 [6]
98 227 [2]
98 279 [7]
98 293 [4]
98 493 [2]
98 533 [5]
98 584 [6]
98 614 [0]
98 685 [0]
98 716 [3]
98 742 [1]
98 768 [1]
98 861 [7]
98 941 [0]
98 948 [4]
102 614 [5]
227 614 [2]
614 742 [0]
102 742 [5]
227 742 [0]
102 227 [2]
227 279 [6]
227 311 [0]
227 372 [1]
227 493 [2]
227 567 [1]
102 311 [2]
311 567 [0]
102 567 [0]
102 116 [0]
102 123 [5]
102 161 [0]
102 279 [4]
102 493 [7]
102 861 [6]
528 659 [0]
659 683 [0]
528 683 [0]
99 905 [1]
179 905 [3]
356 905 [0]
480 905 [1]
99 356 [3]
179 356 [3]
356 417 [3]
356 480 [1]
356 507 [3]
356 639 [1]
356 793 [2]
356 828 [3]
356 940 [0]
99 940 [3]
480 940 [0]
793 940 [6]
99 480 [0]
179 480 [0]
480 764 [0]
480 793 [0]
99 177 [1]
99 179 [1]
99 191 [3]
99 417 [4]
99 430 [7]
99 507 [0]
99 563 [5]
99 636 [5]
99 639 [3]
99 736 [1]
99 764 [1]
99 769 [4]
99 793 [2]
179 507 [0]
507 769 [6]
179 417 [5]
179 639 [3]
179 764 [0]
179 769 [0]
179 828 [1]
54 192 [0]
54 382 [6]
54 713 [0]
54 896 [4]
192 713 [0]
382 713 [3]
192 382 [4]
192 612 [7]
192 896 [0]
49 156 [2]
68 156 [2]
115 156 [0]
49 115 [5]
68 115 [1]
115 310 [5]
115 362 [1]
115 395 [2]
115 675 [5]
115 916 [0]
49 916 [0]
68 916 [0]
395 916 [6]
49 68 [0]
68 134 [4]
68 160 [0]
68 218 [1]
68 310 [0]
68 362 [3]
68 395 [7]
68 675 [2]
68 770 [3]
68 800 [3]
49 310 [0]
310 675 [3]
49 72 [6]
49 134 [4]
49 160 [6]
49 218 [0]
49 302 [5]
49 362 [1]
49 395 [7]
49 675 [2]
49 770 [1]
49 800 [0]
49 850 [6]
770 800 [0]
128 305 [0]
135 305 [0]
256 305 [1]
305 556 [0]
305 585 [6]
305 696 [4]
305 892 [0]
128 135 [0]
128 243 [3]
128 256 [5]
128 556 [3]
128 565 [1]
128 572 [0]
128 585 [4]
128 679 [7]
128 723 [0]
128 806 [6]
128 882 [1]
128 892 [3]
135 256 [5]
135 556 [0]
135 565 [3]
135 572 [4]
135 696 [2]
135 882 [3]
556 585 [1]
556 892 [0]
585 892 [0]
84 391 [0]
184 391 [4]
391 884 [0]
84 884 [0]
184 884 [6]
84 184 [7]
84 193 [1]
84 208 [1]
84 235 [0]
84 331 [6]
208 235 [0]
208 331 [0]
18 906 [5]
137 906 [5]
232 906 [1]
558 906 [0]
889 906 [5]
15 558 [5]
18 558 [5]
137 558 [5]
232 558 [0]
558 889 [5]
558 970 [3]
15 232 [5]
18 232 [5]
137 232 [7]
232 268 [0]
232 296 [0]
232 300 [0]
232 705 [5]
232 868 [0]
232 889 [2]
232 927 [2]
232 970 [6]
18 300 [4]
137 300 [2]
268 300 [2]
296 300 [0]
18 296 [3]
137 296 [3]
268 296 [0]
296 705 [4]
18 268 [7]
137 268 [0]
268 705 [7]
268 927 [0]
15 137 [5]
18 137 [1]
137 320 [3]
137 504 [1]
137 705 [6]
137 721 [5]
137 889 [0]
137 927 [4]
137 942 [2]
137 970 [7]
18 889 [0]
889 970 [2]
15 18 [1]
18 320 [6]
18 404 [0]
18 504 [4]
18 705 [3]
18 721 [1]
18 868 [7]
18 927 [5]
18 968 [0]
18 970 [2]
15 968 [0]
15 30 [6]
15 52 [6]
15 124 [6]
15 183 [3]
15 212 [4]
15 274 [6]
15 292 [0]
15 320 [7]
15 340 [3]
15 404 [2]
15 453 [6]
15 492 [0]
15 499 [1]
15 504 [6]
15 615 [1]
15 619 [1]
15 695 [5]
15 721 [4]
15 862 [0]
15 868 [7]
15 899 [6]
15 920 [3]
15 942 [2]
15 963 [0]
15 983 [3]
183 292 [2]
292 307 [0]
292 619 [0]
292 915 [0]
292 983 [1]
619 915 [0]
126 894 [1]
327 894 [0]
432 894 [2]
497 894 [1]
126 327 [3]
327 432 [4]
327 497 [0]
327 613 [3]
327 660 [7]
327 860 [6]
327 881 [5]
126 497 [0]
432 497 [1]
497 860 [3]
126 432 [0]
126 586 [0]
126 613 [5]
126 642 [0]
126 660 [4]
126 860 [2]
126 881 [6]
586 642 [0]
175 521 [0]
19 89 [0]
89 95 [6]
89 328 [7]
89 336 [6]
89 801 [6]
89 949 [0]
89 954 [5]
19 949 [0]
336 949 [3]
19 65 [6]
19 95 [1]
19 336 [2]
19 350 [0]
19 525 [5]
19 697 [0]
19 801 [4]
19 913 [0]
350 913 [0]
525 913 [5]
350 525 [0]
350 548 [0]
350 697 [3]
525 548 [0]
525 708 [3]
548 708 [0]
76 700 [0]
103 700 [4]
353 700 [6]
76 103 [4]
76 344 [1]
76 353 [6]
76 426 [6]
76 478 [7]
76 488 [6]
76 524 [2]
76 600 [4]
76 625 [1]
76 630 [0]
76 666 [0]
76 681 [3]
76 757 [6]
103 630 [2]
344 630 [0]
600 630 [4]
103 344 [0]
344 353 [5]
344 426 [5]
344 478 [7]
344 488 [6]
344 524 [5]
344 531 [6]
344 600 [1]
344 625 [2]
344 666 [4]
344 681 [0]
344 757 [3]
103 353 [3]
103 426 [1]
103 488 [0]
103 524 [7]
103 600 [6]
103 625 [2]
103 666 [1]
103 681 [5]
353 488 [3]
426 488 [0]
353 426 [0]
74 534 [0]
433 534 [2]
534 541 [6]
74 433 [1]
74 520 [0]
74 541 [1]
433 520 [0]
433 541 [0]
561 981 [0]
378 406 [0]
97 849 [0]
111 849 [6]
97 111 [5]
97 140 [1]
97 145 [6]
97 237 [6]
97 347 [5]
97 396 [4]
97 498 [0]
97 506 [5]
97 516 [3]
97 527 [2]
97 564 [0]
97 617 [5]
97 929 [7]
97 999 [6]
140 498 [0]
347 498 [0]
111 140 [6]
140 347 [0]
140 506 [0]
140 564 [3]
140 617 [6]
111 506 [2]
347 506 [0]
111 347 [0]
347 617 [0]
111 617 [0]
111 182 [0]
111 237 [7]
111 527 [6]
111 564 [2]
88 624 [6]
281 624 [0]
532 624 [1]
88 281 [6]
122 281 [0]
281 512 [4]
281 532 [1]
281 587 [1]
281 783 [6]
281 786 [5]
88 122 [1]
122 206 [1]
122 346 [5]
122 405 [5]
122 512 [0]
122 532 [1]
122 577 [1]
122 783 [4]
122 786 [1]
122 911 [1]
122 964 [0]
206 964 [0]
405 964 [7]
88 206 [0]
206 405 [1]
206 577 [0]
88 577 [0]
60 88 [6]
88 346 [5]
88 405 [3]
88 512 [2]
88 532 [0]
88 587 [0]
88 786 [4]
88 911 [0]
346 911 [0]
215 463 [0]
463 688 [0]
215 688 [0]
215 841 [0]
532 786 [0]
41 799 [3]
171 799 [0]
41 171 [1]
171 676 [0]
41 676 [0]
41 620 [0]
455 487 [0]
43 539 [2]
203 539 [0]
230 539 [4]
385 539 [4]
397 539 [4]
43 203 [0]
203 230 [0]
203 248 [6]
203 250 [4]
203 251 [2]
203 269 [7]
203 285 [0]
203 385 [5]
203 397 [5]
203 412 [6]
203 465 [4]
203 680 [6]
203 788 [5]
203 831 [1]
203 932 [3]
26 43 [0]
43 230 [0]
43 242 [2]
43 248 [2]
43 250 [6]
43 251 [7]
43 269 [5]
43 285 [0]
43 385 [4]
43 397 [4]
43 400 [4]
43 408 [6]
43 412 [6]
43 465 [4]
43 680 [6]
43 831 [2]
43 854 [3]
43 932 [7]
43 985 [1]
230 242 [0]
230 385 [1]
230 397 [1]
230 854 [0]
230 985 [1]
427 803 [2]
794 803 [0]
803 880 [2]
427 794 [3]
794 880 [0]
427 880 [0]
427 441 [0]
427 957 [0]
441 957 [0]
106 777 [1]
178 777 [0]
383 777 [6]
570 777 [4]
710 777 [1]
106 178 [5]
178 240 [1]
178 335 [0]
178 383 [2]
178 570 [7]
178 710 [5]
240 335 [0]
335 349 [4]
240 349 [0]
297 718 [3]
581 718 [3]
597 718 [0]
718 908 [3]
297 597 [0]
581 597 [3]
597 759 [3]
597 842 [0]
597 908 [6]
297 842 [0]
581 842 [6]
297 523 [6]
297 581 [3]
297 908 [0]
174 259 [0]
221 259 [0]
259 560 [0]
259 662 [0]
57 174 [0]
174 221 [7]
174 459 [3]
174 754 [7]
57 62 [4]
57 221 [0]
57 459 [0]
221 459 [0]
459 754 [0]
221 754 [0]
221 560 [0]
560 662 [0]
195 312 [6]
195 815 [0]
385 397 [0]
385 985 [0]
397 985 [0]
121 616 [0]
616 740 [0]
616 967 [0]
121 740 [0]
740 967 [2]
121 130 [0]
121 166 [3]
121 684 [7]
121 819 [6]
121 848 [1]
121 851 [5]
121 879 [0]
121 953 [2]
130 879 [0]
130 166 [1]
130 684 [4]
130 819 [2]
130 851 [7]
130 953 [0]
45 78 [6]
78 277 [6]
78 413 [3]
78 553 [0]
45 553 [1]
553 664 [0]
45 664 [0]
45 106 [1]
45 214 [0]
45 277 [6]
45 338 [0]
45 413 [6]
45 605 [1]
45 719 [2]
45 746 [4]
45 763 [7]
45 775 [5]
45 805 [2]
45 852 [6]
45 866 [4]
45 898 [3]
45 937 [1]
45 972 [4]
106 338 [0]
106 165 [1]
106 383 [0]
106 473 [5]
106 570 [6]
106 710 [4]
106 804 [1]
106 866 [0]
354 750 [0]
644 878 [0]
581 759 [0]
582 765 [0]
582 747 [0]
429 464 [0]
464 856 [0]
183 499 [5]
499 963 [0]
183 963 [0]
183 307 [5]
183 615 [7]
183 983 [0]
108 398 [0]
107 727 [2]
361 727 [2]
483 727 [0]
107 483 [2]
361 483 [0]
107 361 [0]
361 774 [0]
361 829 [2]
361 934 [0]
107 774 [0]
774 829 [6]
774 844 [0]
107 844 [0]
829 844 [1]
107 194 [3]
107 380 [0]
107 448 [2]
107 694 [4]
107 829 [7]
107 934 [5]
256 565 [2]
256 572 [0]
256 679 [6]
256 696 [4]
256 723 [1]
256 806 [6]
256 882 [2]
565 572 [0]
565 679 [7]
565 882 [0]
177 191 [5]
191 736 [0]
177 736 [0]
177 636 [0]
503 737 [4]
655 737 [1]
737 864 [0]
655 864 [0]
503 655 [0]
26 921 [0]
741 921 [0]
26 741 [0]
26 81 [2]
26 400 [1]
26 408 [0]
26 673 [0]
400 408 [0]
104 264 [0]
104 365 [7]
104 622 [0]
104 755 [1]
104 935 [0]
264 755 [0]
309 609 [6]
322 609 [0]
379 609 [6]
309 322 [0]
322 379 [1]
322 517 [0]
322 943 [0]
309 379 [0]
309 517 [0]
309 943 [5]
517 943 [0]
810 830 [0]
533 685 [0]
139 533 [0]
139 941 [0]
139 948 [6]
410 608 [0]
410 457 [3]
410 514 [4]
410 674 [0]
410 992 [0]
342 956 [0]
951 956 [0]
342 951 [0]
781 869 [0]
613 881 [0]
417 639 [0]
622 935 [0]
252 513 [0]
145 516 [0]
516 999 [5]
145 396 [3]
145 599 [1]
145 929 [0]
145 999 [6]
59 904 [0]
325 445 [0]
325 546 [6]
325 978 [2]
277 719 [0]
605 719 [0]
719 775 [5]
719 910 [5]
277 605 [0]
277 775 [3]
277 852 [7]
277 910 [2]
277 937 [3]
277 972 [6]
605 775 [4]
605 852 [7]
605 910 [2]
605 937 [0]
605 972 [5]
775 937 [0]
244 381 [0]
412 788 [0]
31 867 [0]
552 867 [3]
867 918 [4]
31 118 [0]
31 552 [1]
31 883 [0]
31 918 [3]
31 997 [6]
627 751 [0]
200 651 [0]
200 782 [0]
651 782 [0]
536 611 [0]
588 611 [4]
611 633 [0]
536 588 [1]
536 633 [0]
588 633 [0]
40 877 [0]
40 142 [0]
40 568 [0]
142 568 [0]
299 835 [1]
389 835 [0]
299 389 [0]
299 394 [0]
299 785 [1]
299 885 [6]
95 801 [0]
95 328 [2]
95 336 [0]
95 954 [7]
552 918 [5]
552 997 [0]
337 551 [0]
165 473 [0]
473 804 [4]
165 804 [0]
439 589 [0]
589 971 [0]
155 314 [0]
155 654 [4]
288 653 [0]
715 891 [0]
715 808 [0]
253 658 [0]
60 798 [0]
771 798 [0]
60 771 [0]
60 526 [2]
60 672 [0]
60 733 [6]
60 840 [3]
672 733 [2]
672 840 [0]
733 840 [0]
290 732 [0]
290 903 [0]
265 598 [0]
265 538 [2]
265 886 [0]
538 886 [0]
30 862 [0]
30 124 [2]
30 212 [3]
30 274 [0]
30 340 [4]
30 453 [6]
30 492 [6]
30 695 [0]
30 899 [6]
124 274 [0]
124 212 [1]
124 340 [7]
124 453 [2]
124 492 [0]
453 492 [0]
47 505 [0]
164 505 [0]
461 505 [5]
47 125 [2]
47 151 [0]
47 164 [0]
47 461 [4]
47 555 [6]
47 559 [7]
47 641 [0]
47 823 [0]
47 870 [3]
151 641 [6]
641 823 [0]
151 823 [0]
151 164 [0]
151 555 [6]
151 701 [5]
164 461 [0]
164 701 [0]
543 628 [0]
371 543 [0]
371 797 [0]
144 153 [0]
55 245 [0]
180 245 [0]
245 303 [0]
245 618 [7]
55 303 [0]
180 303 [7]
55 180 [0]
55 339 [1]
55 618 [2]
55 947 [2]
180 618 [5]
180 947 [0]
618 947 [0]
202 542 [2]
202 993 [6]
202 998 [0]
542 998 [0]
355 606 [0]
355 901 [0]
324 656 [0]
324 689 [0]
324 824 [0]
689 824 [0]
679 723 [0]
679 806 [0]
120 168 [0]
317 677 [0]
677 691 [4]
677 789 [0]
317 691 [4]
317 789 [0]
691 789 [0]
388 456 [0]
546 978 [0]
431 726 [0]
818 834 [0]
818 895 [3]
834 895 [0]
438 917 [0]
302 438 [0]
438 569 [3]
302 569 [0]
238 393 [0]
393 743 [6]
393 994 [5]
238 304 [0]
238 364 [2]
238 443 [2]
238 743 [2]
238 745 [0]
238 994 [7]
304 745 [0]
351 812 [0]
424 602 [0]
424 610 [0]
294 422 [0]
294 359 [1]
294 367 [4]
294 474 [2]
294 545 [3]
294 573 [5]
294 579 [6]
294 738 [2]
294 945 [1]
294 982 [0]
359 982 [0]
367 982 [0]
738 982 [7]
359 367 [1]
359 474 [0]
359 545 [6]
359 738 [4]
359 833 [0]
474 545 [3]
474 833 [0]
364 443 [0]
600 625 [0]
382 612 [0]
250 285 [0]
250 932 [0]
243 952 [0]
161 861 [0]
780 907 [0]
77 637 [0]
77 326 [0]
77 454 [0]
77 476 [0]
326 454 [0]
454 476 [0]
462 936 [0]
133 370 [0]
133 965 [2]
237 527 [0]
383 710 [0]
570 710 [4]
383 570 [0]
668 946 [0]
166 684 [7]
166 819 [0]
166 851 [0]
248 465 [3]
465 831 [0]
248 831 [0]
467 976 [0]
134 160 [0]
279 493 [0]
578 778 [0]
437 744 [0]
293 584 [0]
432 860 [0]
649 995 [0]
592 766 [0]
127 919 [0]
478 531 [0]
478 757 [0]
132 874 [0]
132 226 [0]
743 994 [0]
125 962 [0]
559 870 [0]
595 776 [0]
396 599 [0]
684 851 [0]
367 738 [0]
763 805 [0]
647 931 [0]
212 340 [0]
212 695 [0]
340 695 [0]
729 991 [0]
481 547 [0]
275 817 [0]
150 923 [0]
136 767 [0]
524 666 [0]
223 496 [0]
