1000
8
752
972
647
705
838
597
990
979
7
8
9
10
12
20
45
78
277
605
719
775
937
11
23
57
62
59
14
16
17
13
904
22
18
137
232
268
296
300
19
65
21
26
43
203
230
242
15
29
32
41
171
676
24
143
306
25
34
84
184
391
884
27
28
35
53
82
189
621
643
30
124
212
340
695
31
118
47
51
93
288
653
50
37
55
180
245
303
48
315
38
56
87
108
398
49
74
433
520
40
142
568
42
85
127
154
295
403
423
562
821
955
44
94
249
46
33
125
962
39
61
72
36
64
77
86
98
102
116
52
54
60
382
612
58
228
192
88
122
206
405
964
63
66
197
201
644
787
67
68
115
79
69
70
138
71
73
132
185
226
494
511
76
103
344
353
426
488
75
326
454
476
156
96
175
113
188
267
357
392
81
83
101
215
463
583
89
95
328
90
147
159
466
91
100
204
262
92
112
181
222
247
686
996
80
97
111
140
347
498
99
177
191
736
104
264
755
105
149
601
661
703
730
106
119
165
473
804
107
194
109
141
214
110
114
172
682
117
297
523
120
168
121
130
166
684
851
123
126
327
432
497
860
128
135
256
305
556
585
892
129
131
225
890
133
370
134
160
136
767
139
158
229
533
566
685
144
153
145
333
929
146
148
152
252
513
150
923
151
164
461
505
155
314
157
378
406
161
861
162
163
167
313
467
976
169
170
173
309
322
379
609
174
221
259
560
662
176
187
210
178
240
335
349
179
356
417
639
182
183
292
307
186
202
258
399
933
190
282
692
193
195
312
196
444
486
652
198
257
449
199
263
348
414
200
651
782
205
207
208
235
209
244
381
211
220
213
316
216
255
363
707
217
218
219
241
278
944
223
496
224
227
279
493
231
853
233
318
334
411
839
234
236
950
237
527
238
304
745
239
243
832
952
246
248
465
831
250
285
251
253
658
254
260
442
607
909
261
265
538
886
266
650
269
270
271
272
329
273
321
274
275
817
276
345
631
280
323
926
281
512
283
401
912
958
284
530
687
286
287
301
289
290
732
291
634
293
584
294
359
367
738
982
298
544
299
389
835
302
438
569
308
310
675
311
567
317
384
440
319
372
594
320
324
656
325
445
330
580
331
332
638
336
949
337
551
338
339
341
410
457
342
951
956
343
409
420
346
911
350
525
548
708
351
812
352
900
354
750
355
360
358
535
361
483
727
362
364
443
365
366
374
604
368
369
371
543
628
373
375
376
377
390
380
383
570
710
777
385
397
539
386
450
590
387
388
456
393
743
994
394
395
916
396
599
400
408
402
404
407
471
591
412
788
413
415
416
418
419
421
435
422
424
602
425
427
441
957
428
429
464
856
430
431
726
0
436
489
437
744
439
589
971
446
447
448
451
666
780
907
453
492
455
487
458
725
749
459
754
460
462
936
468
469
626
858
470
472
474
545
475
922
477
481
547
478
531
479
515
480
764
482
484
485
608
490
491
902
495
434
499
963
501
502
509
503
655
737
864
504
506
507
769
508
760
510
514
516
999
517
943
518
519
521
847
522
825
524
2
526
528
659
683
529
532
624
1
541
536
588
611
633
537
540
863
542
998
546
978
549
924
550
618
552
867
918
553
664
554
555
557
665
720
558
889
906
559
870
561
981
563
679
565
572
571
887
573
995
575
576
577
578
778
579
581
789
718
908
582
747
586
642
587
592
766
593
773
595
776
596
722
598
600
625
603
938
606
610
613
881
614
742
615
616
740
967
617
748
947
619
534
620
622
935
623
627
751
629
630
632
635
636
637
640
641
823
645
784
646
700
931
648
649
574
654
657
660
667
930
668
946
669
915
671
672
733
840
673
674
677
691
4
678
564
723
680
681
688
689
824
724
693
694
696
697
986
699
670
701
702
704
734
836
452
706
959
711
712
713
714
813
715
808
716
925
893
721
690
728
729
991
731
735
820
739
741
921
746
763
753
756
866
807
759
761
762
837
993
805
765
5
770
800
771
798
772
774
829
844
779
781
845
783
785
786
790
791
810
793
940
794
803
880
795
796
799
797
801
802
806
758
809
989
792
830
811
814
815
816
3
834
895
819
941
869
873
826
984
768
828
833
818
841
842
843
846
848
849
850
852
854
855
857
859
876
865
757
868
871
872
663
875
862
877
878
879
882
883
885
888
891
717
894
896
897
898
899
960
903
905
910
913
914
917
919
920
927
928
932
934
939
822
942
945
948
953
954
709
901
966
965
961
968
969
970
874
973
974
975
977
6
980
983
985
698
987
988
827
992
500
997
128 135 [0]
245 618 [0]
0 27 [0]
0 28 [0]
122 346 [0]
0 33 [0]
129 131 [0]
0 34 [0]
0 37 [0]
0 38 [0]
0 39 [0]
0 40 [0]
0 42 [0]
385 397 [0]
0 44 [0]
1 14 [0]
1 15 [0]
0 46 [0]
1 16 [0]
499 963 [0]
1 17 [0]
256 305 [0]
1 18 [0]
0 49 [0]
1 19 [0]
0 50 [0]
0 51 [0]
1 21 [0]
1 22 [0]
117 523 [0]
0 54 [0]
1 24 [0]
384 440 [0]
1 25 [0]
0 56 [0]
1 26 [0]
1 27 [0]
1 28 [0]
1 29 [0]
0 60 [0]
1 30 [0]
0 61 [0]
1 31 [0]
1 32 [0]
0 63 [0]
0 64 [0]
119 473 [0]
1 35 [0]
0 66 [0]
0 67 [0]
0 68 [0]
0 69 [0]
379 609 [0]
0 70 [0]
367 982 [0]
0 71 [0]
1 41 [0]
0 72 [0]
0 73 [0]
236 950 [0]
1 43 [0]
0 74 [0]
0 75 [0]
255 363 [0]
0 76 [0]
0 77 [0]
1 47 [0]
0 79 [0]
0 80 [0]
1 50 [0]
0 81 [0]
1 51 [0]
1 53 [0]
0 84 [0]
0 85 [0]
0 86 [0]
0 87 [0]
114 650 [0]
0 89 [0]
2 28 [0]
1 59 [0]
2 30 [0]
2 31 [0]
0 93 [0]
770 800 [0]
0 94 [0]
2 33 [0]
1 65 [0]
0 96 [0]
2 35 [0]
2 36 [0]
0 98 [0]
2 37 [0]
130 166 [0]
2 38 [0]
3 7 [0]
3 8 [0]
507 769 [0]
2 40 [0]
3 9 [0]
0 102 [0]
0 103 [0]
2 42 [0]
3 11 [0]
2 44 [0]
2 46 [0]
0 108 [0]
2 47 [0]
2 48 [0]
2 50 [0]
2 51 [0]
1 82 [0]
2 52 [0]
128 243 [0]
2 53 [0]
0 115 [0]
2 54 [0]
3 23 [0]
2 55 [0]
2 56 [0]
114 682 [0]
2 58 [0]
109 839 [0]
771 798 [0]
508 760 [0]
1 93 [0]
2 63 [0]
2 64 [0]
0 127 [0]
129 225 [0]
386 450 [0]
2 67 [0]
0 132 [0]
252 513 [0]
2 71 [0]
126 327 [0]
2 75 [0]
0 138 [0]
4 15 [0]
4 18 [0]
0 142 [0]
4 19 [0]
115 675 [0]
2 82 [0]
4 21 [0]
4 22 [0]
2 85 [0]
2 86 [0]
2 87 [0]
4 25 [0]
1 118 [0]
2 88 [0]
4 26 [0]
3 57 [0]
247 686 [0]
2 90 [0]
2 91 [0]
4 29 [0]
0 154 [0]
383 570 [0]
2 93 [0]
4 31 [0]
3 62 [0]
1 124 [0]
2 94 [0]
4 32 [0]
0 156 [0]
4 34 [0]
2 98 [0]
5 7 [0]
5 8 [0]
2 102 [0]
5 9 [0]
5 10 [0]
4 41 [0]
382 612 [0]
5 11 [0]
5 12 [0]
4 43 [0]
1 137 [0]
5 14 [0]
2 108 [0]
5 16 [0]
4 47 [0]
5 17 [0]
243 832 [0]
1 143 [0]
129 272 [0]
5 20 [0]
0 175 [0]
5 21 [0]
5 22 [0]
2 116 [0]
2 118 [0]
132 185 [0]
2 122 [0]
0 184 [0]
0 185 [0]
385 539 [0]
2 124 [0]
2 125 [0]
2 127 [0]
4 65 [0]
131 225 [0]
0 192 [0]
6 7 [0]
6 8 [0]
6 9 [0]
388 456 [0]
0 197 [0]
122 512 [0]
6 12 [0]
6 13 [0]
124 453 [0]
0 201 [0]
1 171 [0]
2 142 [0]
258 399 [0]
6 20 [0]
4 84 [0]
2 147 [0]
6 23 [0]
641 823 [0]
2 154 [0]
134 160 [0]
1 189 [0]
257 449 [0]
7 8 [0]
0 226 [0]
119 638 [0]
6 45 [0]
129 329 [0]
1 203 [0]
124 492 [0]
126 432 [0]
1 212 [0]
129 343 [0]
774 829 [0]
0 249 [0]
2 189 [0]
8 9 [0]
4 137 [0]
1 230 [0]
1 232 [0]
6 78 [0]
386 590 [0]
2 206 [0]
644 787 [0]
1 242 [0]
2 212 [0]
9 10 [0]
9 11 [0]
2 228 [0]
9 12 [0]
9 13 [0]
9 14 [0]
243 952 [0]
9 15 [0]
9 16 [0]
4 171 [0]
0 295 [0]
9 17 [0]
9 18 [0]
9 19 [0]
9 20 [0]
645 784 [0]
1 268 [0]
9 21 [0]
9 23 [0]
126 497 [0]
4 184 [0]
253 658 [0]
263 348 [0]
260 442 [0]
2 249 [0]
129 409 [0]
0 315 [0]
1 288 [0]
10 12 [0]
129 420 [0]
9 45 [0]
248 831 [0]
4 203 [0]
1 296 [0]
1 300 [0]
9 57 [0]
1 306 [0]
9 62 [0]
9 65 [0]
0 344 [0]
135 256 [0]
2 288 [0]
0 353 [0]
4 230 [0]
4 232 [0]
9 78 [0]
2 295 [0]
383 777 [0]
11 23 [0]
4 242 [0]
139 158 [0]
1 340 [0]
2 315 [0]
0 382 [0]
137 232 [0]
115 916 [0]
775 937 [0]
0 391 [0]
12 20 [0]
4 268 [0]
135 305 [0]
119 804 [0]
133 370 [0]
259 560 [0]
0 398 [0]
2 340 [0]
0 403 [0]
268 296 [0]
9 137 [0]
13 14 [0]
255 707 [0]
4 296 [0]
0 423 [0]
4 300 [0]
0 426 [0]
128 556 [0]
0 433 [0]
525 548 [0]
267 357 [0]
2 382 [0]
14 16 [0]
128 585 [0]
2 398 [0]
6 277 [0]
2 403 [0]
2 405 [0]
651 782 [0]
15 18 [0]
2 423 [0]
0 488 [0]
141 214 [0]
0 494 [0]
0 495 [0]
259 662 [0]
0 501 [0]
781 869 [0]
121 851 [0]
141 233 [0]
647 931 [0]
9 232 [0]
780 907 [0]
0 511 [0]
16 17 [0]
4 391 [0]
400 408 [0]
0 520 [0]
144 153 [0]
524 666 [0]
9 268 [0]
9 277 [0]
397 539 [0]
912 958 [0]
265 538 [0]
655 737 [0]
0 562 [0]
0 568 [0]
272 329 [0]
9 296 [0]
9 300 [0]
517 943 [0]
17 59 [0]
396 599 [0]
140 347 [0]
273 321 [0]
141 318 [0]
122 911 [0]
525 708 [0]
389 835 [0]
516 999 [0]
0 612 [0]
521 847 [0]
130 684 [0]
147 159 [0]
522 825 [0]
2 562 [0]
403 423 [0]
2 568 [0]
659 683 [0]
649 995 [0]
393 743 [0]
6 452 [0]
143 306 [0]
528 659 [0]
148 152 [0]
0 644 [0]
135 556 [0]
1 619 [0]
1 620 [0]
1 621 [0]
19 65 [0]
137 504 [0]
20 45 [0]
7 452 [0]
126 860 [0]
2 612 [0]
1 643 [0]
21 26 [0]
147 219 [0]
2 621 [0]
1 653 [0]
148 196 [0]
18 137 [0]
147 241 [0]
266 650 [0]
533 566 [0]
2 643 [0]
1 676 [0]
276 345 [0]
22 29 [0]
534 541 [0]
661 703 [0]
2 653 [0]
391 884 [0]
1 695 [0]
9 452 [0]
145 333 [0]
532 624 [0]
530 687 [0]
147 278 [0]
125 962 [0]
264 755 [0]
151 164 [0]
143 416 [0]
2 695 [0]
10 452 [0]
128 892 [0]
23 57 [0]
148 283 [0]
147 317 [0]
3 690 [0]
130 851 [0]
0 787 [0]
3 698 [0]
6 605 [0]
129 890 [0]
148 308 [0]
407 471 [0]
4 676 [0]
147 342 [0]
25 34 [0]
280 323 [0]
409 420 [0]
536 588 [0]
268 705 [0]
0 821 [0]
8 576 [0]
8 577 [0]
8 578 [0]
8 579 [0]
147 368 [0]
8 582 [0]
9 553 [0]
9 554 [0]
8 586 [0]
9 555 [0]
8 587 [0]
9 559 [0]
8 592 [0]
9 561 [0]
8 593 [0]
794 803 [0]
9 563 [0]
8 595 [0]
8 598 [0]
26 43 [0]
3 756 [0]
8 603 [0]
9 573 [0]
3 759 [0]
8 606 [0]
9 576 [0]
665 720 [0]
3 762 [0]
9 577 [0]
137 705 [0]
6 670 [0]
9 578 [0]
8 610 [0]
9 581 [0]
8 613 [0]
9 582 [0]
8 614 [0]
8 615 [0]
6 678 [0]
27 28 [0]
9 587 [0]
8 619 [0]
8 620 [0]
152 252 [0]
8 622 [0]
8 623 [0]
9 593 [0]
395 916 [0]
142 568 [0]
8 627 [0]
9 596 [0]
10 565 [0]
8 629 [0]
410 457 [0]
8 632 [0]
10 571 [0]
10 572 [0]
8 635 [0]
10 573 [0]
2 821 [0]
8 636 [0]
9 605 [0]
8 637 [0]
9 606 [0]
10 575 [0]
10 576 [0]
24 143 [0]
136 767 [0]
8 640 [0]
8 641 [0]
9 610 [0]
10 579 [0]
393 994 [0]
8 642 [0]
6 704 [0]
10 582 [0]
148 401 [0]
8 646 [0]
9 615 [0]
9 616 [0]
8 648 [0]
9 617 [0]
8 649 [0]
6 711 [0]
9 619 [0]
152 283 [0]
6 715 [0]
8 654 [0]
28 35 [0]
8 657 [0]
6 719 [0]
6 721 [0]
8 660 [0]
265 886 [0]
7 697 [0]
6 728 [0]
8 667 [0]
6 729 [0]
8 668 [0]
8 669 [0]
6 731 [0]
7 701 [0]
794 880 [0]
6 734 [0]
8 673 [0]
8 674 [0]
7 705 [0]
7 706 [0]
12 552 [0]
8 677 [0]
12 553 [0]
8 678 [0]
12 554 [0]
12 555 [0]
147 466 [0]
7 711 [0]
8 680 [0]
3 837 [0]
7 714 [0]
12 559 [0]
29 32 [0]
7 715 [0]
6 746 [0]
3 842 [0]
1 904 [0]
8 688 [0]
148 444 [0]
8 689 [0]
7 721 [0]
8 691 [0]
6 753 [0]
8 693 [0]
8 694 [0]
14 508 [0]
6 756 [0]
9 664 [0]
8 696 [0]
8 697 [0]
8 699 [0]
793 940 [0]
6 761 [0]
7 731 [0]
12 576 [0]
8 701 [0]
8 702 [0]
279 493 [0]
7 735 [0]
14 518 [0]
8 705 [0]
0 955 [0]
7 739 [0]
8 711 [0]
8 712 [0]
8 713 [0]
6 775 [0]
8 715 [0]
8 716 [0]
16 472 [0]
14 536 [0]
8 723 [0]
16 477 [0]
154 295 [0]
16 478 [0]
16 479 [0]
8 728 [0]
14 542 [0]
16 481 [0]
13 574 [0]
148 486 [0]
7 763 [0]
283 401 [0]
9 705 [0]
16 491 [0]
8 742 [0]
3 897 [0]
6 807 [0]
6 808 [0]
8 747 [0]
9 718 [0]
13 595 [0]
8 751 [0]
16 503 [0]
277 605 [0]
13 600 [0]
16 508 [0]
287 301 [0]
3 913 [0]
4 884 [0]
13 606 [0]
16 515 [0]
8 766 [0]
16 518 [0]
399 933 [0]
8 768 [0]
16 521 [0]
152 401 [0]
2 955 [0]
9 740 [0]
16 524 [0]
8 773 [0]
14 588 [0]
6 836 [0]
155 314 [0]
8 776 [0]
16 528 [0]
2 962 [0]
9 747 [0]
8 778 [0]
2 964 [0]
16 531 [0]
3 934 [0]
13 625 [0]
7 813 [0]
158 229 [0]
281 512 [0]
16 536 [0]
32 41 [0]
13 630 [0]
7 818 [0]
12 664 [0]
7 820 [0]
8 789 [0]
16 546 [0]
9 763 [0]
268 927 [0]
16 547 [0]
14 611 [0]
8 799 [0]
3 954 [0]
9 773 [0]
6 866 [0]
30 124 [0]
401 912 [0]
8 808 [0]
9 778 [0]
13 654 [0]
5 904 [0]
18 504 [0]
8 818 [0]
14 633 [0]
8 823 [0]
8 824 [0]
10 763 [0]
33 51 [0]
543 628 [0]
137 927 [0]
31 118 [0]
16 588 [0]
13 681 [0]
672 733 [0]
3 992 [0]
137 942 [0]
8 845 [0]
21 451 [0]
13 700 [0]
8 869 [0]
9 838 [0]
13 715 [0]
6 937 [0]
149 601 [0]
21 474 [0]
667 930 [0]
152 513 [0]
21 482 [0]
12 763 [0]
34 84 [0]
35 53 [0]
284 530 [0]
13 739 [0]
148 652 [0]
6 959 [0]
9 870 [0]
157 378 [0]
275 817 [0]
16 655 [0]
16 659 [0]
292 307 [0]
21 519 [0]
20 553 [0]
668 946 [0]
6 990 [0]
157 406 [0]
6 991 [0]
8 930 [0]
16 683 [0]
13 776 [0]
538 886 [0]
22 500 [0]
8 935 [0]
9 904 [0]
149 661 [0]
8 938 [0]
9 908 [0]
672 840 [0]
8 946 [0]
8 947 [0]
21 545 [0]
10 887 [0]
803 880 [0]
421 435 [0]
677 691 [0]
7 983 [0]
9 931 [0]
13 808 [0]
8 966 [0]
540 863 [0]
8 973 [0]
8 974 [0]
9 947 [0]
8 979 [0]
8 980 [0]
8 983 [0]
27 394 [0]
405 964 [0]
16 737 [0]
38 56 [0]
12 867 [0]
8 993 [0]
12 870 [0]
282 692 [0]
14 810 [0]
25 470 [0]
9 967 [0]
16 752 [0]
23 540 [0]
16 760 [0]
9 981 [0]
14 827 [0]
23 549 [0]
18 705 [0]
16 768 [0]
27 428 [0]
38 87 [0]
27 431 [0]
412 788 [0]
27 439 [0]
417 639 [0]
294 359 [0]
10 973 [0]
39 74 [0]
20 664 [0]
296 300 [0]
12 918 [0]
411 839 [0]
679 723 [0]
28 428 [0]
28 431 [0]
284 687 [0]
159 466 [0]
14 869 [0]
13 901 [0]
16 810 [0]
28 439 [0]
11 966 [0]
548 708 [0]
27 477 [0]
27 478 [0]
27 479 [0]
27 481 [0]
24 574 [0]
16 827 [0]
29 429 [0]
145 929 [0]
22 648 [0]
158 533 [0]
14 901 [0]
22 657 [0]
27 503 [0]
16 845 [0]
16 847 [0]
22 663 [0]
28 479 [0]
27 515 [0]
22 672 [0]
295 403 [0]
29 460 [0]
16 864 [0]
22 678 [0]
21 709 [0]
13 959 [0]
29 464 [0]
810 830 [0]
27 531 [0]
158 566 [0]
278 944 [0]
14 939 [0]
40 142 [0]
28 515 [0]
30 453 [0]
20 763 [0]
27 547 [0]
22 704 [0]
42 85 [0]
423 562 [0]
288 653 [0]
16 893 [0]
427 441 [0]
29 495 [0]
167 313 [0]
16 902 [0]
14 965 [0]
148 912 [0]
147 944 [0]
426 488 [0]
22 729 [0]
147 951 [0]
280 926 [0]
550 748 [0]
22 733 [0]
542 998 [0]
22 734 [0]
147 956 [0]
32 429 [0]
30 492 [0]
553 664 [0]
27 589 [0]
14 993 [0]
21 780 [0]
14 998 [0]
16 939 [0]
556 585 [0]
41 171 [0]
22 761 [0]
16 948 [0]
164 461 [0]
148 958 [0]
22 771 [0]
32 464 [0]
28 589 [0]
44 94 [0]
424 602 [0]
16 965 [0]
37 315 [0]
291 634 [0]
299 389 [0]
45 78 [0]
16 978 [0]
293 584 [0]
429 464 [0]
16 979 [0]
150 923 [0]
22 799 [0]
16 986 [0]
18 927 [0]
158 685 [0]
165 473 [0]
809 989 [0]
164 505 [0]
33 475 [0]
19 913 [0]
35 428 [0]
35 431 [0]
22 836 [0]
174 221 [0]
546 978 [0]
38 343 [0]
22 840 [0]
34 470 [0]
33 501 [0]
152 912 [0]
290 732 [0]
175 204 [0]
38 358 [0]
43 203 [0]
27 700 [0]
34 484 [0]
297 523 [0]
33 517 [0]
48 55 [0]
176 187 [0]
28 679 [0]
167 467 [0]
557 665 [0]
174 259 [0]
21 907 [0]
549 924 [0]
27 724 [0]
27 726 [0]
35 479 [0]
21 917 [0]
176 210 [0]
36 458 [0]
684 851 [0]
23 863 [0]
173 309 [0]
176 217 [0]
49 61 [0]
177 191 [0]
47 125 [0]
21 932 [0]
173 322 [0]
27 752 [0]
298 544 [0]
175 262 [0]
28 726 [0]
27 757 [0]
552 867 [0]
27 758 [0]
22 914 [0]
39 387 [0]
35 515 [0]
432 497 [0]
557 720 [0]
33 581 [0]
302 438 [0]
50 64 [0]
818 834 [0]
36 502 [0]
176 261 [0]
36 509 [0]
28 758 [0]
36 510 [0]
39 424 [0]
560 662 [0]
24 901 [0]
173 379 [0]
27 810 [0]
433 520 [0]
27 822 [0]
178 240 [0]
433 534 [0]
25 896 [0]
22 990 [0]
22 991 [0]
23 960 [0]
51 93 [0]
42 373 [0]
818 895 [0]
28 810 [0]
296 705 [0]
28 822 [0]
36 578 [0]
565 572 [0]
689 824 [0]
36 592 [0]
309 322 [0]
36 593 [0]
38 535 [0]
39 506 [0]
436 489 [0]
53 82 [0]
39 516 [0]
180 245 [0]
27 893 [0]
691 789 [0]
166 684 [0]
36 618 [0]
181 222 [0]
27 903 [0]
822 845 [0]
29 856 [0]
161 861 [0]
181 247 [0]
951 956 [0]
27 941 [0]
686 996 [0]
36 670 [0]
36 677 [0]
431 726 [0]
558 889 [0]
36 691 [0]
27 971 [0]
179 356 [0]
35 726 [0]
29 914 [0]
559 870 [0]
29 919 [0]
305 556 [0]
558 906 [0]
56 87 [0]
27 986 [0]
36 711 [0]
57 62 [0]
821 955 [0]
28 971 [0]
36 725 [0]
181 330 [0]
566 685 [0]
32 856 [0]
28 986 [0]
38 679 [0]
438 569 [0]
562 821 [0]
185 226 [0]
54 192 [0]
183 292 [0]
186 202 [0]
36 756 [0]
173 609 [0]
171 676 [0]
49 362 [0]
36 766 [0]
183 307 [0]
55 180 [0]
36 773 [0]
36 778 [0]
294 982 [0]
427 957 [0]
35 822 [0]
439 589 [0]
187 210 [0]
299 835 [0]
36 796 [0]
49 395 [0]
172 682 [0]
51 361 [0]
33 922 [0]
45 553 [0]
60 88 [0]
51 380 [0]
444 486 [0]
61 72 [0]
829 844 [0]
36 857 [0]
304 745 [0]
313 467 [0]
51 407 [0]
561 981 [0]
36 872 [0]
50 445 [0]
570 710 [0]
48 510 [0]
184 391 [0]
188 267 [0]
318 334 [0]
437 744 [0]
826 984 [0]
311 567 [0]
826 987 [0]
317 384 [0]
53 377 [0]
442 607 [0]
58 228 [0]
50 477 [0]
50 481 [0]
53 390 [0]
703 730 [0]
51 475 [0]
167 976 [0]
45 664 [0]
64 75 [0]
570 777 [0]
36 947 [0]
51 483 [0]
48 578 [0]
186 399 [0]
319 372 [0]
53 428 [0]
50 521 [0]
35 986 [0]
53 431 [0]
317 440 [0]
190 282 [0]
704 734 [0]
48 592 [0]
188 357 [0]
310 675 [0]
56 358 [0]
181 580 [0]
50 547 [0]
180 618 [0]
48 618 [0]
44 748 [0]
53 479 [0]
177 736 [0]
50 595 [0]
53 515 [0]
45 763 [0]
50 614 [0]
832 952 [0]
322 379 [0]
50 622 [0]
834 895 [0]
50 627 [0]
704 836 [0]
61 302 [0]
181 686 [0]
571 887 [0]
50 654 [0]
39 999 [0]
69 70 [0]
197 201 [0]
68 115 [0]
581 597 [0]
192 382 [0]
66 197 [0]
453 492 [0]
450 590 [0]
48 766 [0]
195 312 [0]
454 476 [0]
43 932 [0]
48 778 [0]
48 789 [0]
64 298 [0]
50 742 [0]
198 257 [0]
50 751 [0]
455 487 [0]
710 777 [0]
51 727 [0]
70 138 [0]
578 778 [0]
55 618 [0]
50 776 [0]
325 445 [0]
61 438 [0]
199 263 [0]
441 957 [0]
64 365 [0]
326 454 [0]
53 726 [0]
327 432 [0]
189 621 [0]
73 132 [0]
50 847 [0]
53 758 [0]
582 747 [0]
75 86 [0]
69 275 [0]
69 276 [0]
56 679 [0]
68 310 [0]
199 348 [0]
196 444 [0]
202 258 [0]
586 642 [0]
69 286 [0]
203 230 [0]
48 947 [0]
49 916 [0]
50 893 [0]
70 276 [0]
588 611 [0]
70 286 [0]
76 103 [0]
61 569 [0]
56 724 [0]
66 415 [0]
53 822 [0]
714 813 [0]
68 362 [0]
69 345 [0]
50 935 [0]
190 692 [0]
199 414 [0]
204 262 [0]
198 449 [0]
845 873 [0]
715 808 [0]
68 395 [0]
69 369 [0]
324 656 [0]
461 505 [0]
181 996 [0]
189 758 [0]
64 544 [0]
73 275 [0]
335 349 [0]
185 907 [0]
69 419 [0]
191 736 [0]
69 425 [0]
202 399 [0]
334 411 [0]
69 434 [0]
719 775 [0]
208 235 [0]
186 933 [0]
70 434 [0]
330 580 [0]
75 293 [0]
209 244 [0]
53 986 [0]
73 369 [0]
458 725 [0]
75 311 [0]
716 925 [0]
585 892 [0]
75 319 [0]
463 583 [0]
75 325 [0]
458 749 [0]
211 220 [0]
83 101 [0]
73 419 [0]
718 908 [0]
75 365 [0]
78 277 [0]
206 405 [0]
459 754 [0]
75 372 [0]
76 344 [0]
77 326 [0]
79 266 [0]
74 433 [0]
82 189 [0]
59 904 [0]
592 766 [0]
332 638 [0]
79 291 [0]
725 749 [0]
80 266 [0]
323 926 [0]
200 651 [0]
85 127 [0]
86 98 [0]
69 631 [0]
75 445 [0]
80 291 [0]
593 773 [0]
201 644 [0]
68 675 [0]
69 647 [0]
84 184 [0]
341 410 [0]
75 477 [0]
87 108 [0]
337 551 [0]
75 481 [0]
596 722 [0]
212 340 [0]
80 337 [0]
213 316 [0]
79 375 [0]
344 353 [0]
74 534 [0]
595 776 [0]
600 625 [0]
77 454 [0]
597 718 [0]
589 971 [0]
88 122 [0]
343 409 [0]
89 95 [0]
216 255 [0]
77 476 [0]
79 421 [0]
75 546 [0]
75 547 [0]
469 626 [0]
79 435 [0]
200 782 [0]
75 567 [0]
471 591 [0]
601 661 [0]
75 584 [0]
79 468 [0]
82 377 [0]
75 594 [0]
82 390 [0]
219 241 [0]
90 147 [0]
75 622 [0]
80 468 [0]
83 376 [0]
474 545 [0]
464 856 [0]
75 627 [0]
69 817 [0]
465 831 [0]
86 293 [0]
92 112 [0]
462 936 [0]
78 553 [0]
79 522 [0]
82 431 [0]
477 481 [0]
86 325 [0]
91 175 [0]
88 281 [0]
348 414 [0]
221 259 [0]
76 666 [0]
68 916 [0]
80 551 [0]
215 463 [0]
222 247 [0]
90 253 [0]
340 695 [0]
87 358 [0]
76 700 [0]
333 929 [0]
478 531 [0]
347 498 [0]
88 346 [0]
92 223 [0]
479 515 [0]
75 751 [0]
73 817 [0]
91 260 [0]
91 262 [0]
733 840 [0]
79 634 [0]
605 719 [0]
91 270 [0]
89 336 [0]
79 650 [0]
469 858 [0]
729 991 [0]
734 836 [0]
86 445 [0]
80 634 [0]
97 111 [0]
735 820 [0]
203 932 [0]
80 650 [0]
90 342 [0]
345 631 [0]
344 666 [0]
98 102 [0]
90 368 [0]
94 249 [0]
467 976 [0]
481 547 [0]
93 288 [0]
336 949 [0]
355 360 [0]
353 426 [0]
473 804 [0]
350 525 [0]
611 633 [0]
100 113 [0]
867 918 [0]
227 279 [0]
737 864 [0]
87 535 [0]
88 512 [0]
97 237 [0]
99 177 [0]
603 938 [0]
99 179 [0]
86 584 [0]
75 935 [0]
356 417 [0]
91 442 [0]
357 392 [0]
82 726 [0]
95 328 [0]
79 825 [0]
230 242 [0]
102 116 [0]
95 336 [0]
93 407 [0]
82 758 [0]
75 978 [0]
359 367 [0]
223 496 [0]
98 293 [0]
607 909 [0]
101 215 [0]
92 496 [0]
93 471 [0]
485 608 [0]
480 764 [0]
98 319 [0]
475 922 [0]
342 951 [0]
232 268 [0]
100 266 [0]
738 982 [0]
100 291 [0]
614 742 [0]
105 149 [0]
226 494 [0]
106 119 [0]
483 727 [0]
741 921 [0]
87 724 [0]
99 356 [0]
740 967 [0]
91 607 [0]
486 652 [0]
227 493 [0]
100 337 [0]
358 535 [0]
233 318 [0]
346 911 [0]
90 658 [0]
353 700 [0]
616 740 [0]
100 357 [0]
106 178 [0]
102 311 [0]
361 483 [0]
99 417 [0]
104 264 [0]
100 392 [0]
613 881 [0]
351 812 [0]
101 376 [0]
105 254 [0]
621 643 [0]
107 194 [0]
109 141 [0]
100 421 [0]
366 374 [0]
354 750 [0]
97 527 [0]
364 443 [0]
100 435 [0]
229 533 [0]
103 344 [0]
494 511 [0]
105 287 [0]
743 994 [0]
105 301 [0]
83 995 [0]
111 140 [0]
238 304 [0]
101 463 [0]
109 233 [0]
352 900 [0]
98 584 [0]
100 522 [0]
106 338 [0]
88 911 [0]
100 551 [0]
112 181 [0]
241 278 [0]
94 748 [0]
107 361 [0]
111 237 [0]
240 335 [0]
113 188 [0]
112 223 [0]
109 318 [0]
114 172 [0]
89 949 [0]
99 639 [0]
109 334 [0]
101 583 [0]
619 915 [0]
618 947 [0]
115 156 [0]
102 567 [0]
91 909 [0]
100 634 [0]
90 951 [0]
108 398 [0]
100 650 [0]
366 604 [0]
363 707 [0]
225 890 [0]
237 527 [0]
502 509 [0]
111 347 [0]
109 411 [0]
107 483 [0]
114 266 [0]
232 705 [0]
112 330 [0]
245 303 [0]
627 751 [0]
99 736 [0]
622 935 [0]
491 902 [0]
244 381 [0]
371 543 [0]
119 165 [0]
103 666 [0]
113 357 [0]
119 178 [0]
114 337 [0]
115 310 [0]
626 858 [0]
121 130 [0]
377 390 [0]
120 168 [0]
889 906 [0]
103 700 [0]
105 661 [0]
231 853 [0]
359 982 [0]
367 738 [0]
117 297 [0]
100 825 [0]
115 362 [0]
119 240 [0]
378 406 [0]
372 594 [0]
250 285 [0]
105 703 [0]
115 395 [0]
503 655 [0]
117 341 [0]
111 527 [0]
112 496 [0]
763 805 [0]
104 755 [0]
497 860 [0]
762 837 [0]
98 941 [0]
105 730 [0]
122 206 [0]
374 604 [0]
119 332 [0]
232 927 [0]
119 335 [0]
238 745 [0]
117 410 [0]
119 349 [0]
107 727 [0]
112 580 [0]
124 212 [0]
248 465 [0]
122 281 [0]
117 457 [0]
114 551 [0]
127 154 [0]
0 3 [1]
0 7 [1]
0 8 [1]
38 890 [1]
64 91 [1]
318 411 [1]
1 3 [1]
1 5 [1]
1 6 [1]
64 104 [1]
112 686 [1]
38 933 [1]
45 719 [1]
2 5 [1]
2 6 [1]
40 877 [1]
2 7 [1]
2 8 [1]
2 9 [1]
188 392 [1]
124 340 [1]
122 405 [1]
38 965 [1]
38 974 [1]
38 977 [1]
38 980 [1]
64 175 [1]
43 831 [1]
45 775 [1]
64 204 [1]
69 73 [1]
64 262 [1]
64 264 [1]
68 156 [1]
69 132 [1]
241 944 [1]
69 138 [1]
44 928 [1]
56 556 [1]
774 844 [1]
43 985 [1]
56 585 [1]
69 185 [1]
69 226 [1]
121 684 [1]
112 996 [1]
75 98 [1]
75 102 [1]
75 104 [1]
75 116 [1]
327 497 [1]
203 248 [1]
203 250 [1]
203 251 [1]
75 123 [1]
203 269 [1]
192 612 [1]
51 897 [1]
203 285 [1]
137 296 [1]
137 300 [1]
56 767 [1]
452 780 [1]
318 839 [1]
51 934 [1]
137 320 [1]
267 392 [1]
0 500 [1]
79 113 [1]
79 114 [1]
54 896 [1]
51 992 [1]
715 891 [1]
3 436 [1]
75 264 [1]
3 448 [1]
3 455 [1]
3 459 [1]
16 59 [1]
3 475 [1]
79 172 [1]
56 890 [1]
3 485 [1]
56 892 [1]
3 487 [1]
3 489 [1]
452 907 [1]
69 494 [1]
3 501 [1]
3 502 [1]
10 287 [1]
0 597 [1]
10 289 [1]
6 413 [1]
10 290 [1]
6 415 [1]
69 511 [1]
3 509 [1]
3 510 [1]
10 294 [1]
6 418 [1]
6 419 [1]
197 644 [1]
3 514 [1]
5 453 [1]
6 422 [1]
5 455 [1]
3 517 [1]
6 424 [1]
10 301 [1]
6 425 [1]
5 458 [1]
6 427 [1]
203 465 [1]
6 429 [1]
9 337 [1]
6 430 [1]
5 462 [1]
9 339 [1]
10 308 [1]
9 341 [1]
6 434 [1]
8 373 [1]
6 436 [1]
8 375 [1]
6 437 [1]
4 500 [1]
8 377 [1]
9 346 [1]
5 470 [1]
56 939 [1]
6 441 [1]
8 380 [1]
211 231 [1]
9 350 [1]
5 474 [1]
10 320 [1]
5 475 [1]
9 352 [1]
5 477 [1]
5 478 [1]
6 447 [1]
8 386 [1]
9 355 [1]
5 479 [1]
7 419 [1]
8 388 [1]
5 481 [1]
6 451 [1]
8 390 [1]
5 484 [1]
6 453 [1]
9 361 [1]
10 330 [1]
5 485 [1]
8 393 [1]
6 455 [1]
7 425 [1]
8 394 [1]
10 332 [1]
66 644 [1]
5 487 [1]
13 239 [1]
8 395 [1]
9 364 [1]
7 427 [1]
8 396 [1]
6 458 [1]
5 490 [1]
6 459 [1]
6 460 [1]
0 647 [1]
8 400 [1]
9 369 [1]
10 338 [1]
15 183 [1]
6 462 [1]
9 371 [1]
5 495 [1]
6 464 [1]
7 434 [1]
7 435 [1]
8 404 [1]
7 436 [1]
10 343 [1]
7 437 [1]
9 375 [1]
5 499 [1]
9 376 [1]
6 469 [1]
8 408 [1]
12 284 [1]
5 501 [1]
7 441 [1]
5 503 [1]
9 380 [1]
8 412 [1]
6 474 [1]
10 351 [1]
76 353 [1]
5 506 [1]
56 974 [1]
10 352 [1]
7 446 [1]
8 415 [1]
13 260 [1]
0 663 [1]
7 447 [1]
10 354 [1]
13 261 [1]
7 448 [1]
9 386 [1]
10 355 [1]
5 510 [1]
8 418 [1]
9 387 [1]
6 480 [1]
8 419 [1]
9 388 [1]
56 980 [1]
7 451 [1]
10 358 [1]
6 482 [1]
8 421 [1]
10 359 [1]
5 514 [1]
7 453 [1]
8 422 [1]
10 360 [1]
5 516 [1]
7 455 [1]
8 424 [1]
9 393 [1]
8 425 [1]
14 239 [1]
6 487 [1]
13 270 [1]
10 364 [1]
13 271 [1]
7 458 [1]
9 396 [1]
6 489 [1]
8 428 [1]
6 490 [1]
8 429 [1]
10 367 [1]
14 243 [1]
8 430 [1]
11 337 [1]
15 213 [1]
6 492 [1]
7 462 [1]
8 431 [1]
10 369 [1]
5 524 [1]
9 402 [1]
10 371 [1]
5 526 [1]
6 495 [1]
8 435 [1]
9 404 [1]
10 373 [1]
5 528 [1]
8 436 [1]
5 529 [1]
7 468 [1]
7 469 [1]
5 531 [1]
7 470 [1]
8 439 [1]
6 501 [1]
6 502 [1]
655 864 [1]
5 534 [1]
6 504 [1]
64 755 [1]
7 475 [1]
9 413 [1]
5 537 [1]
10 383 [1]
13 290 [1]
21 43 [1]
1 663 [1]
8 447 [1]
9 416 [1]
10 385 [1]
6 509 [1]
8 448 [1]
10 386 [1]
5 541 [1]
6 510 [1]
9 418 [1]
10 387 [1]
9 419 [1]
10 388 [1]
8 450 [1]
7 482 [1]
14 265 [1]
9 421 [1]
5 545 [1]
7 484 [1]
8 453 [1]
9 422 [1]
5 546 [1]
3 608 [1]
13 298 [1]
7 485 [1]
5 547 [1]
13 299 [1]
9 424 [1]
7 487 [1]
9 425 [1]
8 456 [1]
12 332 [1]
1 673 [1]
5 550 [1]
8 458 [1]
7 489 [1]
9 427 [1]
14 272 [1]
7 490 [1]
10 397 [1]
5 552 [1]
8 460 [1]
7 492 [1]
9 430 [1]
0 709 [1]
12 338 [1]
3 618 [1]
8 464 [1]
5 557 [1]
6 526 [1]
9 435 [1]
7 499 [1]
8 468 [1]
9 437 [1]
5 561 [1]
0 717 [1]
7 501 [1]
8 470 [1]
5 563 [1]
6 532 [1]
7 502 [1]
10 409 [1]
8 472 [1]
9 441 [1]
6 534 [1]
7 504 [1]
1 690 [1]
8 474 [1]
9 443 [1]
8 475 [1]
6 537 [1]
14 290 [1]
8 477 [1]
9 446 [1]
7 509 [1]
9 447 [1]
7 510 [1]
8 479 [1]
9 448 [1]
8 480 [1]
5 573 [1]
8 481 [1]
9 451 [1]
10 420 [1]
5 575 [1]
1 699 [1]
7 514 [1]
5 576 [1]
6 545 [1]
8 484 [1]
9 453 [1]
16 236 [1]
1 701 [1]
8 485 [1]
5 578 [1]
7 517 [1]
76 426 [1]
5 579 [1]
9 456 [1]
1 704 [1]
7 519 [1]
5 581 [1]
6 550 [1]
5 582 [1]
8 490 [1]
6 552 [1]
7 522 [1]
16 243 [1]
15 274 [1]
8 492 [1]
83 215 [1]
1 709 [1]
661 730 [1]
5 586 [1]
6 555 [1]
6 557 [1]
6 558 [1]
1 713 [1]
10 434 [1]
6 559 [1]
1 715 [1]
12 376 [1]
5 593 [1]
1 717 [1]
84 193 [1]
6 563 [1]
5 595 [1]
1 721 [1]
10 443 [1]
12 383 [1]
5 600 [1]
16 260 [1]
7 540 [1]
16 261 [1]
327 860 [1]
15 292 [1]
0 757 [1]
5 603 [1]
13 355 [1]
6 573 [1]
1 728 [1]
127 919 [1]
61 917 [1]
10 450 [1]
1 729 [1]
16 265 [1]
9 483 [1]
6 576 [1]
8 515 [1]
5 608 [1]
6 577 [1]
13 360 [1]
84 208 [1]
6 578 [1]
5 610 [1]
6 579 [1]
1 734 [1]
16 270 [1]
16 272 [1]
0 768 [1]
5 614 [1]
5 615 [1]
1 739 [1]
0 770 [1]
9 492 [1]
0 771 [1]
5 617 [1]
6 586 [1]
1 741 [1]
0 772 [1]
6 587 [1]
5 619 [1]
23 62 [1]
14 343 [1]
87 129 [1]
87 131 [1]
5 625 [1]
15 316 [1]
6 596 [1]
1 753 [1]
0 785 [1]
341 457 [1]
6 602 [1]
0 790 [1]
84 235 [1]
0 791 [1]
13 389 [1]
0 792 [1]
8 545 [1]
79 392 [1]
1 762 [1]
16 298 [1]
8 547 [1]
16 299 [1]
0 795 [1]
76 488 [1]
6 610 [1]
1 765 [1]
0 797 [1]
0 798 [1]
6 613 [1]
0 799 [1]
0 800 [1]
6 616 [1]
6 617 [1]
9 525 [1]
0 806 [1]
16 311 [1]
6 624 [1]
0 810 [1]
87 162 [1]
0 811 [1]
6 626 [1]
5 659 [1]
0 814 [1]
16 319 [1]
5 665 [1]
16 325 [1]
9 543 [1]
4 698 [1]
1 793 [1]
7 608 [1]
16 329 [1]
1 795 [1]
9 548 [1]
0 827 [1]
6 642 [1]
1 797 [1]
4 705 [1]
9 551 [1]
2 768 [1]
1 799 [1]
0 830 [1]
1 801 [1]
1 802 [1]
8 589 [1]
8 590 [1]
5 683 [1]
1 807 [1]
0 838 [1]
1 808 [1]
1 811 [1]
7 626 [1]
14 409 [1]
536 611 [1]
0 843 [1]
10 535 [1]
21 195 [1]
1 815 [1]
8 599 [1]
3 754 [1]
10 539 [1]
8 602 [1]
21 199 [1]
0 850 [1]
6 665 [1]
10 543 [1]
1 822 [1]
14 420 [1]
0 854 [1]
0 855 [1]
8 608 [1]
0 859 [1]
22 179 [1]
536 633 [1]
0 865 [1]
3 774 [1]
16 372 [1]
21 218 [1]
1 840 [1]
5 718 [1]
0 874 [1]
21 224 [1]
5 720 [1]
0 876 [1]
0 877 [1]
9 599 [1]
18 320 [1]
22 196 [1]
0 878 [1]
10 570 [1]
9 602 [1]
0 882 [1]
16 389 [1]
0 885 [1]
10 580 [1]
22 209 [1]
11 551 [1]
22 211 [1]
1 862 [1]
3 801 [1]
0 894 [1]
0 896 [1]
5 742 [1]
1 866 [1]
0 897 [1]
21 248 [1]
1 868 [1]
10 590 [1]
21 250 [1]
90 159 [1]
0 901 [1]
12 530 [1]
21 251 [1]
22 220 [1]
5 747 [1]
5 748 [1]
0 903 [1]
20 284 [1]
22 223 [1]
6 720 [1]
1 875 [1]
9 628 [1]
2 845 [1]
1 876 [1]
6 722 [1]
1 878 [1]
1 879 [1]
6 725 [1]
22 231 [1]
0 913 [1]
21 263 [1]
1 883 [1]
0 914 [1]
21 269 [1]
407 591 [1]
3 829 [1]
1 891 [1]
1 893 [1]
2 862 [1]
19 336 [1]
6 740 [1]
1 896 [1]
5 773 [1]
1 897 [1]
0 928 [1]
601 730 [1]
1 898 [1]
5 776 [1]
1 901 [1]
0 932 [1]
5 778 [1]
6 748 [1]
1 903 [1]
6 749 [1]
21 285 [1]
1 905 [1]
3 844 [1]
10 628 [1]
16 442 [1]
25 163 [1]
2 876 [1]
0 939 [1]
6 754 [1]
16 445 [1]
0 941 [1]
7 725 [1]
12 570 [1]
21 294 [1]
1 914 [1]
0 945 [1]
84 391 [1]
13 544 [1]
1 917 [1]
0 948 [1]
6 764 [1]
1 919 [1]
20 332 [1]
1 921 [1]
1 927 [1]
7 744 [1]
0 961 [1]
4 838 [1]
21 312 [1]
6 778 [1]
1 934 [1]
0 965 [1]
7 749 [1]
6 780 [1]
25 193 [1]
1 940 [1]
14 538 [1]
8 725 [1]
1 942 [1]
8 726 [1]
6 789 [1]
1 945 [1]
0 977 [1]
203 831 [1]
0 980 [1]
25 208 [1]
27 146 [1]
1 953 [1]
1 954 [1]
0 985 [1]
9 708 [1]
83 463 [1]
1 959 [1]
11 650 [1]
27 155 [1]
4 868 [1]
1 961 [1]
27 158 [1]
276 631 [1]
4 872 [1]
8 749 [1]
7 780 [1]
27 161 [1]
21 348 [1]
27 162 [1]
1 968 [1]
1 969 [1]
1 970 [1]
4 879 [1]
23 291 [1]
27 167 [1]
28 136 [1]
9 727 [1]
27 170 [1]
4 883 [1]
25 234 [1]
12 638 [1]
21 359 [1]
25 235 [1]
8 764 [1]
4 888 [1]
25 238 [1]
27 176 [1]
28 146 [1]
3 922 [1]
21 367 [1]
4 894 [1]
10 710 [1]
9 743 [1]
5 867 [1]
1 991 [1]
9 744 [1]
27 186 [1]
2 961 [1]
6 838 [1]
2 966 [1]
4 910 [1]
8 788 [1]
3 943 [1]
28 169 [1]
4 913 [1]
22 356 [1]
27 202 [1]
89 328 [1]
16 544 [1]
4 917 [1]
2 979 [1]
7 825 [1]
10 732 [1]
6 856 [1]
4 920 [1]
6 858 [1]
87 398 [1]
23 337 [1]
24 306 [1]
4 928 [1]
28 186 [1]
6 870 [1]
9 780 [1]
12 687 [1]
10 750 [1]
16 567 [1]
5 908 [1]
21 414 [1]
27 229 [1]
4 942 [1]
6 881 [1]
4 945 [1]
28 202 [1]
7 858 [1]
6 889 [1]
5 922 [1]
4 953 [1]
4 954 [1]
25 304 [1]
7 863 [1]
12 710 [1]
4 960 [1]
88 405 [1]
10 777 [1]
16 594 [1]
5 936 [1]
4 968 [1]
5 938 [1]
6 907 [1]
4 970 [1]
27 258 [1]
4 972 [1]
4 973 [1]
97 140 [1]
22 417 [1]
401 958 [1]
16 607 [1]
8 856 [1]
29 209 [1]
83 583 [1]
29 211 [1]
4 987 [1]
4 988 [1]
4 990 [1]
82 621 [1]
21 465 [1]
5 963 [1]
4 997 [1]
10 812 [1]
6 936 [1]
403 919 [1]
7 907 [1]
28 258 [1]
22 444 [1]
29 231 [1]
5 978 [1]
13 732 [1]
5 981 [1]
82 643 [1]
7 922 [1]
29 244 [1]
6 957 [1]
8 902 [1]
20 530 [1]
27 313 [1]
5 995 [1]
27 314 [1]
7 936 [1]
6 967 [1]
5 999 [1]
7 943 [1]
32 171 [1]
8 916 [1]
14 732 [1]
22 486 [1]
8 922 [1]
36 55 [1]
7 957 [1]
9 900 [1]
7 963 [1]
6 995 [1]
9 907 [1]
9 911 [1]
33 173 [1]
10 900 [1]
99 191 [1]
7 997 [1]
8 971 [1]
35 146 [1]
8 988 [1]
9 957 [1]
27 399 [1]
102 123 [1]
28 370 [1]
13 835 [1]
8 992 [1]
8 997 [1]
735 988 [1]
34 193 [1]
211 853 [1]
20 638 [1]
34 208 [1]
14 832 [1]
9 988 [1]
28 399 [1]
221 560 [1]
30 340 [1]
9 994 [1]
10 968 [1]
10 969 [1]
29 381 [1]
10 974 [1]
10 975 [1]
10 977 [1]
34 235 [1]
10 980 [1]
10 985 [1]
36 180 [1]
677 789 [1]
10 987 [1]
10 994 [1]
27 467 [1]
97 347 [1]
20 687 [1]
12 937 [1]
38 133 [1]
38 136 [1]
540 960 [1]
342 956 [1]
14 886 [1]
22 639 [1]
16 832 [1]
16 835 [1]
33 309 [1]
22 652 [1]
20 719 [1]
38 162 [1]
12 969 [1]
232 296 [1]
33 322 [1]
23 634 [1]
38 169 [1]
232 300 [1]
39 145 [1]
36 245 [1]
23 650 [1]
38 186 [1]
27 533 [1]
679 806 [1]
38 202 [1]
14 950 [1]
14 952 [1]
21 738 [1]
20 775 [1]
16 904 [1]
33 379 [1]
27 566 [1]
106 165 [1]
16 909 [1]
36 303 [1]
38 258 [1]
84 884 [1]
16 950 [1]
16 952 [1]
97 498 [1]
21 831 [1]
93 653 [1]
103 353 [1]
85 919 [1]
25 745 [1]
27 685 [1]
18 968 [1]
22 853 [1]
19 949 [1]
109 214 [1]
38 370 [1]
20 937 [1]
103 426 [1]
38 399 [1]
43 248 [1]
43 250 [1]
43 251 [1]
87 939 [1]
21 945 [1]
154 919 [1]
43 269 [1]
47 151 [1]
43 285 [1]
47 164 [1]
30 695 [1]
50 75 [1]
87 977 [1]
87 980 [1]
33 609 [1]
28 767 [1]
21 985 [1]
50 91 [1]
39 433 [1]
240 349 [1]
112 222 [1]
423 821 [1]
49 134 [1]
50 104 [1]
89 954 [1]
32 676 [1]
112 247 [1]
45 277 [1]
495 663 [1]
50 123 [1]
49 160 [1]
50 139 [1]
27 861 [1]
50 158 [1]
106 473 [1]
39 520 [1]
93 897 [1]
45 338 [1]
302 569 [1]
25 973 [1]
29 853 [1]
51 173 [1]
50 204 [1]
25 987 [1]
27 933 [1]
27 939 [1]
423 955 [1]
27 948 [1]
53 146 [1]
94 928 [1]
43 465 [1]
28 933 [1]
27 965 [1]
40 568 [1]
105 601 [1]
50 262 [1]
27 976 [1]
27 977 [1]
30 899 [1]
28 965 [1]
56 110 [1]
113 392 [1]
56 128 [1]
56 129 [1]
56 131 [1]
121 166 [1]
56 135 [1]
295 919 [1]
56 136 [1]
51 309 [1]
56 162 [1]
51 322 [1]
56 169 [1]
233 839 [1]
47 461 [1]
56 186 [1]
98 948 [1]
56 202 [1]
38 767 [1]
31 997 [1]
56 225 [1]
47 505 [1]
230 985 [1]
56 256 [1]
56 258 [1]
45 605 [1]
34 973 [1]
56 305 [1]
106 804 [1]
105 843 [2]
38 882 [2]
42 761 [2]
233 989 [2]
109 746 [2]
173 811 [2]
107 829 [2]
107 844 [2]
2 4 [2]
109 794 [2]
109 803 [2]
109 805 [2]
109 809 [2]
377 693 [2]
176 785 [2]
43 854 [2]
105 984 [2]
105 987 [2]
107 934 [2]
109 880 [2]
378 739 [2]
111 849 [2]
176 885 [2]
3 107 [2]
3 117 [2]
53 621 [2]
114 779 [2]
3 126 [2]
179 828 [2]
53 643 [2]
1 207 [2]
1 209 [2]
319 594 [2]
1 213 [2]
1 217 [2]
114 816 [2]
1 224 [2]
109 975 [2]
318 645 [2]
317 677 [2]
1 234 [2]
3 173 [2]
3 174 [2]
1 237 [2]
1 239 [2]
109 989 [2]
1 244 [2]
1 246 [2]
317 691 [2]
6 92 [2]
1 248 [2]
181 814 [2]
1 250 [2]
1 251 [2]
6 97 [2]
114 846 [2]
6 99 [2]
3 194 [2]
1 260 [2]
6 106 [2]
1 261 [2]
384 677 [2]
3 200 [2]
1 263 [2]
6 109 [2]
6 111 [2]
7 80 [2]
6 112 [2]
5 145 [2]
6 114 [2]
1 269 [2]
1 270 [2]
1 271 [2]
1 273 [2]
5 150 [2]
6 119 [2]
1 274 [2]
6 120 [2]
1 275 [2]
384 691 [2]
6 121 [2]
1 276 [2]
114 871 [2]
179 905 [2]
5 155 [2]
1 280 [2]
5 157 [2]
3 219 [2]
6 126 [2]
1 281 [2]
3 221 [2]
1 283 [2]
1 284 [2]
5 161 [2]
6 130 [2]
1 285 [2]
1 286 [2]
5 163 [2]
1 289 [2]
1 290 [2]
5 167 [2]
10 15 [2]
8 77 [2]
5 170 [2]
1 294 [2]
6 140 [2]
8 79 [2]
6 141 [2]
5 173 [2]
8 80 [2]
1 298 [2]
6 144 [2]
1 299 [2]
8 83 [2]
5 176 [2]
10 22 [2]
6 147 [2]
1 302 [2]
3 241 [2]
6 148 [2]
6 150 [2]
8 89 [2]
5 182 [2]
6 151 [2]
8 90 [2]
581 759 [2]
5 183 [2]
6 152 [2]
6 153 [2]
5 187 [2]
8 95 [2]
51 811 [2]
8 96 [2]
8 97 [2]
6 159 [2]
8 99 [2]
1 316 [2]
8 100 [2]
8 101 [2]
5 195 [2]
7 134 [2]
6 165 [2]
1 320 [2]
8 104 [2]
3 259 [2]
6 166 [2]
1 321 [2]
8 105 [2]
5 198 [2]
6 168 [2]
1 323 [2]
8 107 [2]
5 200 [2]
1 324 [2]
1 325 [2]
8 110 [2]
9 79 [2]
6 172 [2]
8 111 [2]
9 80 [2]
9 81 [2]
5 205 [2]
6 174 [2]
7 144 [2]
644 878 [2]
8 114 [2]
9 83 [2]
10 52 [2]
5 208 [2]
6 177 [2]
1 332 [2]
10 54 [2]
5 209 [2]
6 178 [2]
8 117 [2]
5 210 [2]
6 179 [2]
5 211 [2]
7 150 [2]
6 181 [2]
1 336 [2]
7 151 [2]
8 120 [2]
9 89 [2]
10 58 [2]
5 213 [2]
6 182 [2]
8 121 [2]
9 90 [2]
1 338 [2]
7 153 [2]
8 123 [2]
9 92 [2]
5 216 [2]
3 278 [2]
5 217 [2]
10 63 [2]
5 218 [2]
7 157 [2]
8 126 [2]
9 95 [2]
51 842 [2]
582 765 [2]
5 220 [2]
9 96 [2]
8 128 [2]
9 97 [2]
10 66 [2]
317 789 [2]
6 190 [2]
1 345 [2]
7 160 [2]
8 129 [2]
6 191 [2]
1 346 [2]
8 130 [2]
9 99 [2]
5 223 [2]
8 131 [2]
10 69 [2]
5 224 [2]
1 348 [2]
9 100 [2]
7 163 [2]
9 101 [2]
10 70 [2]
7 164 [2]
8 133 [2]
6 195 [2]
1 350 [2]
8 134 [2]
5 227 [2]
6 196 [2]
1 351 [2]
8 135 [2]
10 73 [2]
1 352 [2]
8 136 [2]
6 199 [2]
1 354 [2]
9 107 [2]
10 76 [2]
5 231 [2]
6 200 [2]
1 355 [2]
8 139 [2]
10 77 [2]
9 109 [2]
8 140 [2]
7 173 [2]
9 111 [2]
5 235 [2]
3 297 [2]
1 359 [2]
7 174 [2]
9 112 [2]
10 81 [2]
1 360 [2]
8 144 [2]
9 113 [2]
1 361 [2]
8 145 [2]
9 114 [2]
10 83 [2]
1 362 [2]
8 146 [2]
450 781 [2]
7 178 [2]
8 147 [2]
8 148 [2]
9 117 [2]
1 365 [2]
8 149 [2]
8 150 [2]
1 367 [2]
8 151 [2]
5 244 [2]
7 183 [2]
8 152 [2]
9 121 [2]
6 214 [2]
8 153 [2]
318 784 [2]
10 92 [2]
3 309 [2]
1 371 [2]
8 155 [2]
1 373 [2]
8 157 [2]
8 158 [2]
10 96 [2]
7 190 [2]
10 97 [2]
8 159 [2]
6 221 [2]
1 376 [2]
8 160 [2]
6 222 [2]
1 377 [2]
8 161 [2]
7 193 [2]
8 162 [2]
5 255 [2]
10 101 [2]
1 380 [2]
318 794 [2]
7 195 [2]
8 164 [2]
5 257 [2]
1 381 [2]
10 103 [2]
8 166 [2]
8 167 [2]
10 105 [2]
3 322 [2]
7 199 [2]
8 168 [2]
10 106 [2]
268 300 [2]
7 200 [2]
8 169 [2]
1 386 [2]
1 387 [2]
9 140 [2]
12 47 [2]
1 388 [2]
13 16 [2]
8 172 [2]
9 141 [2]
11 79 [2]
3 327 [2]
1 389 [2]
318 803 [2]
10 111 [2]
1 390 [2]
11 80 [2]
8 174 [2]
10 112 [2]
7 208 [2]
8 177 [2]
1 394 [2]
6 240 [2]
1 395 [2]
1 396 [2]
10 119 [2]
588 633 [2]
12 58 [2]
1 400 [2]
186 810 [2]
6 247 [2]
1 402 [2]
5 279 [2]
9 156 [2]
1 404 [2]
7 221 [2]
6 252 [2]
1 407 [2]
8 191 [2]
313 976 [2]
1 408 [2]
256 696 [2]
11 100 [2]
8 194 [2]
10 132 [2]
1 412 [2]
13 40 [2]
1 413 [2]
6 259 [2]
1 414 [2]
1 415 [2]
5 292 [2]
1 416 [2]
10 138 [2]
186 827 [2]
6 263 [2]
1 418 [2]
10 140 [2]
12 78 [2]
1 419 [2]
186 830 [2]
1 422 [2]
11 113 [2]
12 83 [2]
9 177 [2]
1 425 [2]
7 240 [2]
386 781 [2]
10 149 [2]
1 428 [2]
9 181 [2]
1 429 [2]
1 430 [2]
5 307 [2]
1 431 [2]
8 215 [2]
13 63 [2]
9 188 [2]
13 64 [2]
53 873 [2]
5 313 [2]
6 282 [2]
122 783 [2]
1 438 [2]
9 191 [2]
5 316 [2]
122 786 [2]
3 379 [2]
8 225 [2]
9 194 [2]
12 101 [2]
1 442 [2]
121 819 [2]
7 259 [2]
8 229 [2]
1 446 [2]
56 790 [2]
1 447 [2]
1 448 [2]
13 76 [2]
7 263 [2]
190 735 [2]
1 450 [2]
1 451 [2]
1 453 [2]
1 455 [2]
1 456 [2]
5 333 [2]
10 181 [2]
1 460 [2]
324 689 [2]
9 214 [2]
1 462 [2]
56 806 [2]
10 185 [2]
1 464 [2]
1 465 [2]
14 63 [2]
318 880 [2]
6 312 [2]
7 282 [2]
8 252 [2]
9 222 [2]
10 192 [2]
1 471 [2]
121 848 [2]
8 256 [2]
13 103 [2]
10 197 [2]
1 477 [2]
7 292 [2]
14 76 [2]
10 201 [2]
1 480 [2]
183 983 [2]
8 264 [2]
1 481 [2]
6 327 [2]
1 482 [2]
1 483 [2]
15 52 [2]
56 830 [2]
188 834 [2]
5 363 [2]
1 487 [2]
6 335 [2]
1 490 [2]
117 992 [2]
1 492 [2]
7 307 [2]
10 215 [2]
3 432 [2]
7 309 [2]
9 247 [2]
1 495 [2]
7 312 [2]
11 188 [2]
1 499 [2]
10 222 [2]
5 378 [2]
6 347 [2]
121 879 [2]
16 38 [2]
6 348 [2]
6 349 [2]
1 504 [2]
10 226 [2]
16 40 [2]
5 381 [2]
14 103 [2]
10 228 [2]
1 507 [2]
7 322 [2]
4 418 [2]
6 356 [2]
1 512 [2]
4 421 [2]
13 142 [2]
80 113 [2]
9 267 [2]
16 50 [2]
4 422 [2]
1 516 [2]
4 424 [2]
256 806 [2]
1 519 [2]
7 335 [2]
8 305 [2]
4 429 [2]
4 430 [2]
1 525 [2]
10 247 [2]
1 527 [2]
16 63 [2]
4 435 [2]
16 64 [2]
4 436 [2]
5 406 [2]
1 530 [2]
8 314 [2]
7 348 [2]
7 349 [2]
255 857 [2]
4 446 [2]
16 75 [2]
4 447 [2]
16 76 [2]
8 326 [2]
8 327 [2]
4 451 [2]
1 544 [2]
9 297 [2]
8 328 [2]
188 895 [2]
4 455 [2]
1 548 [2]
8 333 [2]
16 86 [2]
4 458 [2]
4 460 [2]
12 215 [2]
4 464 [2]
4 468 [2]
16 98 [2]
4 470 [2]
7 378 [2]
8 347 [2]
7 379 [2]
16 102 [2]
4 474 [2]
16 103 [2]
12 228 [2]
6 414 [2]
15 137 [2]
6 417 [2]
5 449 [2]
9 328 [2]
121 953 [2]
4 484 [2]
16 116 [2]
2 550 [2]
4 489 [2]
2 552 [2]
4 490 [2]
129 712 [2]
2 553 [2]
186 993 [2]
2 554 [2]
3 523 [2]
2 555 [2]
8 370 [2]
6 432 [2]
2 557 [2]
2 559 [2]
1 590 [2]
5 467 [2]
1 591 [2]
2 561 [2]
4 499 [2]
256 882 [2]
325 791 [2]
9 347 [2]
4 502 [2]
1 595 [2]
1 596 [2]
324 824 [2]
4 504 [2]
6 444 [2]
1 599 [2]
7 414 [2]
4 507 [2]
4 509 [2]
190 888 [2]
10 326 [2]
2 574 [2]
16 142 [2]
1 607 [2]
2 577 [2]
2 578 [2]
4 516 [2]
2 581 [2]
4 519 [2]
4 522 [2]
2 586 [2]
5 493 [2]
12 277 [2]
2 587 [2]
122 964 [2]
5 496 [2]
6 466 [2]
4 529 [2]
3 560 [2]
1 622 [2]
10 344 [2]
2 592 [2]
2 593 [2]
4 532 [2]
10 347 [2]
2 595 [2]
2 597 [2]
6 473 [2]
1 631 [2]
10 353 [2]
4 540 [2]
4 541 [2]
528 683 [2]
2 606 [2]
4 545 [2]
1 638 [2]
719 910 [2]
6 486 [2]
4 549 [2]
4 550 [2]
2 613 [2]
4 552 [2]
2 615 [2]
4 553 [2]
128 806 [2]
7 461 [2]
20 58 [2]
4 554 [2]
255 966 [2]
8 432 [2]
2 619 [2]
4 558 [2]
4 559 [2]
6 497 [2]
2 622 [2]
6 498 [2]
2 623 [2]
4 563 [2]
1 656 [2]
2 627 [2]
2 629 [2]
129 790 [2]
198 699 [2]
2 632 [2]
15 232 [2]
20 78 [2]
2 636 [2]
6 513 [2]
21 49 [2]
8 454 [2]
2 640 [2]
3 609 [2]
2 641 [2]
126 894 [2]
2 642 [2]
2 645 [2]
2 646 [2]
8 461 [2]
2 648 [2]
8 463 [2]
21 61 [2]
8 466 [2]
195 815 [2]
1 687 [2]
21 68 [2]
2 657 [2]
21 69 [2]
22 39 [2]
7 505 [2]
2 660 [2]
266 669 [2]
21 72 [2]
8 476 [2]
21 73 [2]
22 42 [2]
22 44 [2]
2 664 [2]
4 602 [2]
2 665 [2]
2 667 [2]
10 426 [2]
258 933 [2]
1 708 [2]
22 60 [2]
3 651 [2]
8 497 [2]
8 498 [2]
6 560 [2]
13 344 [2]
22 66 [2]
4 624 [2]
130 819 [2]
8 505 [2]
1 722 [2]
128 882 [2]
3 662 [2]
22 74 [2]
13 353 [2]
1 726 [2]
1 727 [2]
8 513 [2]
129 859 [2]
263 802 [2]
1 732 [2]
10 454 [2]
21 115 [2]
22 85 [2]
1 738 [2]
22 88 [2]
10 463 [2]
9 494 [2]
7 560 [2]
9 498 [2]
14 344 [2]
2 718 [2]
8 533 [2]
1 750 [2]
2 720 [2]
21 132 [2]
135 696 [2]
10 476 [2]
14 353 [2]
4 664 [2]
9 511 [2]
327 894 [2]
23 79 [2]
23 80 [2]
1 764 [2]
10 488 [2]
258 993 [2]
1 769 [2]
9 523 [2]
8 556 [2]
10 494 [2]
22 122 [2]
5 651 [2]
1 776 [2]
10 498 [2]
2 748 [2]
130 879 [2]
343 420 [2]
2 751 [2]
23 100 [2]
8 566 [2]
1 788 [2]
10 511 [2]
6 639 [2]
7 609 [2]
23 113 [2]
199 802 [2]
2 766 [2]
25 54 [2]
68 770 [2]
8 583 [2]
8 585 [2]
12 463 [2]
2 773 [2]
21 185 [2]
6 651 [2]
6 652 [2]
16 344 [2]
2 778 [2]
197 878 [2]
1 812 [2]
2 784 [2]
20 228 [2]
6 662 [2]
1 817 [2]
8 601 [2]
4 725 [2]
530 807 [2]
21 203 [2]
69 765 [2]
68 800 [2]
14 426 [2]
5 707 [2]
1 831 [2]
1 835 [2]
6 682 [2]
6 684 [2]
4 749 [2]
27 38 [2]
3 782 [2]
66 878 [2]
129 974 [2]
6 692 [2]
7 662 [2]
22 197 [2]
21 230 [2]
129 980 [2]
22 201 [2]
2 823 [2]
130 953 [2]
27 50 [2]
1 856 [2]
10 583 [2]
27 56 [2]
4 769 [2]
532 786 [2]
16 398 [2]
6 709 [2]
20 277 [2]
23 188 [2]
27 64 [2]
28 38 [2]
7 692 [2]
8 661 [2]
10 601 [2]
27 75 [2]
267 834 [2]
27 86 [2]
27 87 [2]
28 56 [2]
266 871 [2]
2 867 [2]
8 682 [2]
1 900 [2]
8 684 [2]
27 98 [2]
5 782 [2]
131 974 [2]
27 102 [2]
1 909 [2]
29 42 [2]
1 911 [2]
2 881 [2]
27 108 [2]
1 916 [2]
4 825 [2]
8 703 [2]
272 712 [2]
27 116 [2]
334 839 [2]
10 644 [2]
12 583 [2]
201 878 [2]
9 686 [2]
29 66 [2]
25 192 [2]
1 936 [2]
6 782 [2]
2 908 [2]
135 882 [2]
10 661 [2]
13 568 [2]
12 605 [2]
91 204 [2]
2 915 [2]
8 730 [2]
267 895 [2]
23 267 [2]
2 918 [2]
330 990 [2]
4 856 [2]
1 949 [2]
141 706 [2]
8 736 [2]
29 85 [2]
4 863 [2]
6 804 [2]
4 867 [2]
133 965 [2]
2 930 [2]
4 870 [2]
10 686 [2]
209 663 [2]
8 755 [2]
341 674 [2]
5 853 [2]
469 809 [2]
10 703 [2]
4 889 [2]
1 982 [2]
8 767 [2]
9 736 [2]
5 861 [2]
29 127 [2]
4 906 [2]
3 944 [2]
6 851 [2]
209 704 [2]
10 730 [2]
4 918 [2]
407 714 [2]
2 981 [2]
6 860 [2]
4 924 [2]
29 154 [2]
16 568 [2]
141 794 [2]
209 734 [2]
23 357 [2]
141 803 [2]
5 923 [2]
141 809 [2]
5 929 [2]
4 963 [2]
12 719 [2]
410 674 [2]
29 197 [2]
10 787 [2]
272 859 [2]
8 851 [2]
8 860 [2]
8 861 [2]
6 923 [2]
202 993 [2]
22 433 [2]
33 93 [2]
212 695 [2]
4 999 [2]
8 890 [2]
7 923 [2]
6 954 [2]
407 813 [2]
30 212 [2]
12 775 [2]
6 968 [2]
141 880 [2]
6 969 [2]
6 970 [2]
25 382 [2]
211 761 [2]
139 948 [2]
6 975 [2]
25 391 [2]
7 953 [2]
7 954 [2]
209 836 [2]
8 923 [2]
147 711 [2]
8 929 [2]
474 833 [2]
469 989 [2]
8 945 [2]
29 295 [2]
8 953 [2]
8 954 [2]
22 520 [2]
206 964 [2]
9 942 [2]
9 945 [2]
10 914 [2]
20 605 [2]
11 888 [2]
10 920 [2]
9 953 [2]
605 910 [2]
27 398 [2]
10 928 [2]
34 184 [2]
10 932 [2]
10 939 [2]
141 975 [2]
10 942 [2]
343 859 [2]
141 989 [2]
12 910 [2]
282 735 [2]
151 701 [2]
276 931 [2]
281 783 [2]
29 403 [2]
277 910 [2]
281 786 [2]
10 996 [2]
350 697 [2]
14 877 [2]
33 288 [2]
219 677 [2]
29 423 [2]
22 644 [2]
14 903 [2]
480 793 [2]
85 761 [2]
216 796 [2]
149 826 [2]
348 802 [2]
16 859 [2]
213 899 [2]
16 865 [2]
215 841 [2]
83 841 [2]
282 820 [2]
16 877 [2]
83 848 [2]
16 885 [2]
25 612 [2]
83 875 [2]
83 879 [2]
86 791 [2]
216 857 [2]
80 988 [2]
216 872 [2]
18 868 [2]
17 904 [2]
87 790 [2]
34 391 [2]
90 711 [2]
88 786 [2]
424 610 [2]
22 787 [2]
83 953 [2]
480 940 [2]
149 973 [2]
21 850 [2]
21 854 [2]
149 984 [2]
149 987 [2]
157 739 [2]
89 801 [2]
87 865 [2]
20 910 [2]
159 711 [2]
287 843 [2]
291 731 [2]
356 793 [2]
427 645 [2]
25 826 [2]
44 249 [2]
25 843 [2]
356 828 [2]
616 967 [2]
92 838 [2]
552 918 [2]
25 884 [2]
357 834 [2]
33 653 [2]
164 701 [2]
95 801 [2]
356 905 [2]
27 865 [2]
27 873 [2]
27 885 [2]
357 895 [2]
359 833 [2]
358 865 [2]
233 645 [2]
361 774 [2]
427 784 [2]
48 245 [2]
356 940 [2]
28 873 [2]
427 794 [2]
28 882 [2]
427 803 [2]
25 984 [2]
361 829 [2]
48 303 [2]
97 849 [2]
99 793 [2]
165 804 [2]
427 880 [2]
53 189 [2]
230 854 [2]
292 983 [2]
31 883 [2]
95 954 [2]
297 842 [2]
299 785 [2]
233 784 [2]
166 819 [2]
233 794 [2]
233 803 [2]
233 809 [2]
34 843 [2]
232 868 [2]
101 841 [2]
99 905 [2]
41 676 [2]
55 245 [2]
35 873 [2]
305 696 [2]
233 880 [2]
99 940 [2]
107 694 [2]
497 894 [2]
38 790 [2]
363 966 [2]
38 806 [2]
503 737 [2]
432 894 [2]
105 826 [2]
38 859 [2]
109 706 [2]
100 988 [2]
38 865 [2]
107 774 [2]
233 975 [3]
36 966 [3]
185 452 [3]
109 763 [3]
45 706 [3]
104 935 [3]
109 784 [3]
45 746 [3]
3 6 [3]
236 977 [3]
114 669 [3]
305 892 [3]
1 83 [3]
1 89 [3]
1 91 [3]
1 92 [3]
1 95 [3]
1 97 [3]
3 36 [3]
1 99 [3]
1 101 [3]
1 104 [3]
1 106 [3]
1 107 [3]
1 111 [3]
183 615 [3]
1 119 [3]
39 990 [3]
1 120 [3]
45 805 [3]
1 121 [3]
438 917 [3]
3 67 [3]
1 130 [3]
3 71 [3]
1 134 [3]
1 140 [3]
3 79 [3]
1 145 [3]
1 146 [3]
1 148 [3]
1 150 [3]
3 89 [3]
1 151 [3]
3 90 [3]
1 152 [3]
1 155 [3]
3 95 [3]
1 157 [3]
1 163 [3]
1 164 [3]
1 165 [3]
1 166 [3]
1 168 [3]
1 170 [3]
4 79 [3]
1 173 [3]
4 80 [3]
51 674 [3]
1 176 [3]
1 177 [3]
1 179 [3]
1 182 [3]
1 183 [3]
4 92 [3]
450 603 [3]
50 716 [3]
1 187 [3]
6 33 [3]
4 97 [3]
5 67 [3]
6 36 [3]
1 191 [3]
5 68 [3]
4 99 [3]
5 69 [3]
4 100 [3]
5 70 [3]
113 818 [3]
1 194 [3]
7 9 [3]
5 71 [3]
1 195 [3]
1 196 [3]
6 42 [3]
4 105 [3]
1 198 [3]
5 75 [3]
4 106 [3]
6 44 [3]
1 199 [3]
5 76 [3]
6 46 [3]
188 549 [3]
4 109 [3]
4 111 [3]
6 49 [3]
5 81 [3]
4 112 [3]
5 83 [3]
6 52 [3]
3 147 [3]
4 119 [3]
4 120 [3]
6 58 [3]
45 898 [3]
4 121 [3]
5 91 [3]
6 60 [3]
1 215 [3]
5 92 [3]
6 61 [3]
7 33 [3]
4 126 [3]
5 96 [3]
5 97 [3]
3 159 [3]
6 66 [3]
6 67 [3]
5 99 [3]
4 130 [3]
7 37 [3]
6 69 [3]
5 101 [3]
6 70 [3]
6 71 [3]
5 103 [3]
6 72 [3]
5 104 [3]
6 73 [3]
5 105 [3]
6 74 [3]
5 107 [3]
122 577 [3]
7 46 [3]
7 47 [3]
7 48 [3]
6 79 [3]
5 111 [3]
7 49 [3]
6 80 [3]
5 112 [3]
4 144 [3]
7 52 [3]
4 145 [3]
6 83 [3]
113 863 [3]
5 115 [3]
121 616 [3]
7 54 [3]
4 147 [3]
6 85 [3]
5 117 [3]
4 148 [3]
4 149 [3]
6 88 [3]
7 58 [3]
5 120 [3]
4 151 [3]
6 89 [3]
4 152 [3]
6 90 [3]
4 153 [3]
7 61 [3]
5 123 [3]
4 156 [3]
6 94 [3]
386 603 [3]
5 126 [3]
8 33 [3]
6 95 [3]
4 159 [3]
1 252 [3]
7 67 [3]
45 937 [3]
8 36 [3]
7 68 [3]
8 37 [3]
7 69 [3]
8 38 [3]
6 100 [3]
7 70 [3]
4 163 [3]
8 39 [3]
53 693 [3]
7 71 [3]
8 40 [3]
5 133 [3]
4 164 [3]
1 257 [3]
5 134 [3]
4 165 [3]
7 73 [3]
8 42 [3]
4 166 [3]
8 44 [3]
4 168 [3]
2 231 [3]
50 791 [3]
5 138 [3]
8 46 [3]
5 139 [3]
383 710 [3]
2 233 [3]
5 140 [3]
8 47 [3]
1 264 [3]
7 79 [3]
8 48 [3]
8 49 [3]
7 81 [3]
2 236 [3]
8 50 [3]
7 83 [3]
8 52 [3]
2 238 [3]
9 22 [3]
2 239 [3]
4 177 [3]
8 54 [3]
4 178 [3]
2 241 [3]
4 179 [3]
8 56 [3]
5 149 [3]
4 181 [3]
7 89 [3]
4 182 [3]
7 90 [3]
4 183 [3]
2 246 [3]
8 60 [3]
6 122 [3]
256 565 [3]
9 30 [3]
9 31 [3]
8 63 [3]
5 156 [3]
6 125 [3]
7 95 [3]
8 64 [3]
60 500 [3]
9 33 [3]
5 158 [3]
6 127 [3]
8 66 [3]
4 190 [3]
2 253 [3]
9 36 [3]
5 160 [3]
4 191 [3]
256 572 [3]
8 68 [3]
2 254 [3]
9 37 [3]
8 69 [3]
4 193 [3]
7 100 [3]
7 101 [3]
8 70 [3]
6 132 [3]
9 39 [3]
8 71 [3]
9 40 [3]
4 195 [3]
4 196 [3]
8 73 [3]
7 105 [3]
8 74 [3]
2 260 [3]
7 106 [3]
2 261 [3]
8 75 [3]
5 168 [3]
4 199 [3]
1 292 [3]
10 13 [3]
7 107 [3]
8 76 [3]
4 200 [3]
6 138 [3]
9 46 [3]
7 109 [3]
9 47 [3]
2 265 [3]
9 48 [3]
56 640 [3]
9 49 [3]
8 81 [3]
7 113 [3]
9 51 [3]
5 175 [3]
113 924 [3]
7 114 [3]
9 52 [3]
2 270 [3]
5 177 [3]
4 208 [3]
9 54 [3]
8 85 [3]
2 271 [3]
7 117 [3]
8 86 [3]
9 55 [3]
10 24 [3]
2 272 [3]
8 87 [3]
10 25 [3]
2 273 [3]
7 119 [3]
8 88 [3]
5 181 [3]
7 120 [3]
10 27 [3]
7 121 [3]
10 28 [3]
1 307 [3]
9 59 [3]
9 60 [3]
9 61 [3]
10 30 [3]
2 278 [3]
4 216 [3]
6 154 [3]
1 309 [3]
7 125 [3]
8 94 [3]
4 218 [3]
7 126 [3]
2 281 [3]
4 219 [3]
1 312 [3]
10 34 [3]
10 35 [3]
2 283 [3]
1 314 [3]
9 67 [3]
8 98 [3]
2 284 [3]
4 222 [3]
7 130 [3]
9 68 [3]
4 223 [3]
9 69 [3]
10 38 [3]
4 224 [3]
7 132 [3]
9 70 [3]
2 287 [3]
5 194 [3]
10 39 [3]
257 575 [3]
9 71 [3]
8 102 [3]
10 40 [3]
8 103 [3]
9 72 [3]
2 289 [3]
9 73 [3]
10 42 [3]
2 290 [3]
9 74 [3]
10 44 [3]
7 138 [3]
2 293 [3]
8 108 [3]
5 201 [3]
10 47 [3]
7 141 [3]
4 234 [3]
5 204 [3]
4 235 [3]
1 328 [3]
2 298 [3]
10 50 [3]
8 113 [3]
2 299 [3]
4 237 [3]
4 238 [3]
8 115 [3]
10 53 [3]
2 301 [3]
7 147 [3]
8 116 [3]
4 240 [3]
1 333 [3]
4 241 [3]
7 149 [3]
10 56 [3]
112 990 [3]
9 88 [3]
113 960 [3]
8 122 [3]
2 308 [3]
5 215 [3]
4 246 [3]
6 185 [3]
4 248 [3]
8 125 [3]
8 127 [3]
4 251 [3]
7 159 [3]
4 252 [3]
11 36 [3]
5 222 [3]
4 253 [3]
4 254 [3]
11 37 [3]
2 317 [3]
4 255 [3]
8 132 [3]
2 318 [3]
325 546 [3]
7 165 [3]
180 947 [3]
7 166 [3]
2 321 [3]
6 197 [3]
5 229 [3]
7 168 [3]
8 138 [3]
2 324 [3]
11 46 [3]
4 263 [3]
6 201 [3]
1 356 [3]
7 172 [3]
8 142 [3]
2 329 [3]
6 206 [3]
2 331 [3]
9 115 [3]
10 84 [3]
2 332 [3]
121 740 [3]
126 586 [3]
2 334 [3]
10 87 [3]
9 118 [3]
2 338 [3]
9 122 [3]
2 339 [3]
7 185 [3]
5 247 [3]
4 278 [3]
12 31 [3]
9 124 [3]
2 341 [3]
9 125 [3]
10 94 [3]
2 342 [3]
7 188 [3]
2 343 [3]
4 282 [3]
2 346 [3]
7 192 [3]
1 378 [3]
7 194 [3]
9 132 [3]
2 350 [3]
6 226 [3]
2 351 [3]
6 228 [3]
2 354 [3]
2 355 [3]
5 262 [3]
10 108 [3]
137 268 [3]
5 264 [3]
2 358 [3]
9 142 [3]
3 328 [3]
2 360 [3]
126 613 [3]
2 361 [3]
256 679 [3]
2 365 [3]
50 925 [3]
13 24 [3]
8 180 [3]
2 366 [3]
4 304 [3]
2 368 [3]
13 27 [3]
7 214 [3]
7 215 [3]
2 371 [3]
2 373 [3]
6 249 [3]
8 188 [3]
2 374 [3]
4 312 [3]
128 565 [3]
1 406 [3]
2 377 [3]
8 192 [3]
2 380 [3]
7 226 [3]
128 572 [3]
184 884 [3]
8 197 [3]
2 383 [3]
2 384 [3]
2 386 [3]
1 417 [3]
8 201 [3]
2 388 [3]
50 948 [3]
14 17 [3]
2 389 [3]
4 327 [3]
126 642 [3]
10 142 [3]
2 390 [3]
5 297 [3]
10 143 [3]
13 50 [3]
8 206 [3]
2 394 [3]
181 990 [3]
4 333 [3]
14 24 [3]
9 180 [3]
4 335 [3]
14 27 [3]
247 996 [3]
14 28 [3]
2 401 [3]
9 185 [3]
2 402 [3]
185 874 [3]
2 404 [3]
256 723 [3]
14 35 [3]
2 407 [3]
126 660 [3]
2 409 [3]
14 38 [3]
2 410 [3]
4 348 [3]
2 411 [3]
4 349 [3]
129 571 [3]
14 40 [3]
2 413 [3]
1 444 [3]
2 416 [3]
4 356 [3]
1 449 [3]
10 171 [3]
5 326 [3]
6 295 [3]
2 420 [3]
7 267 [3]
9 206 [3]
4 363 [3]
2 427 [3]
250 932 [3]
14 56 [3]
12 118 [3]
2 428 [3]
9 212 [3]
2 430 [3]
1 461 [3]
2 431 [3]
14 59 [3]
1 463 [3]
12 125 [3]
2 436 [3]
2 437 [3]
5 344 [3]
2 439 [3]
2 440 [3]
5 347 [3]
188 818 [3]
2 441 [3]
2 442 [3]
1 473 [3]
9 226 [3]
5 353 [3]
2 447 [3]
327 613 [3]
2 450 [3]
7 297 [3]
6 328 [3]
8 267 [3]
2 455 [3]
1 486 [3]
2 456 [3]
2 457 [3]
2 458 [3]
14 87 [3]
2 459 [3]
2 460 [3]
9 245 [3]
16 28 [3]
5 370 [3]
64 595 [3]
16 35 [3]
2 471 [3]
131 571 [3]
1 505 [3]
14 108 [3]
69 452 [3]
7 327 [3]
1 513 [3]
7 328 [3]
13 143 [3]
16 53 [3]
2 487 [3]
2 489 [3]
128 679 [3]
450 938 [3]
16 56 [3]
4 432 [3]
327 660 [3]
263 596 [3]
64 622 [3]
10 249 [3]
3 466 [3]
64 627 [3]
4 444 [3]
198 575 [3]
7 357 [3]
2 512 [3]
14 142 [3]
14 143 [3]
16 82 [3]
5 426 [3]
9 303 [3]
16 87 [3]
60 771 [3]
4 461 [3]
2 525 [3]
6 403 [3]
64 654 [3]
4 466 [3]
6 405 [3]
2 530 [3]
128 723 [3]
2 535 [3]
4 473 [3]
7 382 [3]
2 538 [3]
55 947 [3]
16 108 [3]
131 640 [3]
8 357 [3]
2 543 [3]
2 544 [3]
188 924 [3]
7 392 [3]
5 454 [3]
6 423 [3]
2 548 [3]
60 798 [3]
4 486 [3]
1 583 [3]
386 938 [3]
10 306 [3]
5 463 [3]
6 433 [3]
4 496 [3]
199 596 [3]
265 598 [3]
4 497 [3]
8 382 [3]
5 476 [3]
2 570 [3]
267 549 [3]
8 392 [3]
197 678 [3]
5 488 [3]
2 584 [3]
7 432 [3]
2 589 [3]
4 527 [3]
8 405 [3]
2 591 [3]
5 498 [3]
135 565 [3]
11 315 [3]
135 572 [3]
198 667 [3]
2 604 [3]
73 452 [3]
60 855 [3]
2 607 [3]
1 639 [3]
69 582 [3]
5 523 [3]
7 463 [3]
6 494 [3]
8 433 [3]
263 722 [3]
7 466 [3]
1 652 [3]
9 405 [3]
16 189 [3]
64 751 [3]
5 533 [3]
7 473 [3]
2 628 [3]
3 597 [3]
126 881 [3]
6 511 [3]
2 638 [3]
4 577 [3]
4 578 [3]
4 579 [3]
70 582 [3]
192 896 [3]
463 688 [3]
6 520 [3]
10 398 [3]
13 306 [3]
7 494 [3]
64 776 [3]
272 472 [3]
9 433 [3]
7 497 [3]
2 656 [3]
2 658 [3]
5 566 [3]
4 601 [3]
7 511 [3]
272 491 [3]
190 988 [3]
5 583 [3]
7 523 [3]
14 306 [3]
199 722 [3]
272 508 [3]
6 562 [3]
2 687 [3]
5 601 [3]
1 736 [3]
8 520 [3]
2 708 [3]
2 710 [3]
4 651 [3]
4 652 [3]
327 881 [3]
4 658 [3]
1 755 [3]
2 725 [3]
70 668 [3]
129 887 [3]
9 520 [3]
69 709 [3]
525 913 [3]
2 744 [3]
69 717 [3]
4 684 [3]
2 749 [3]
2 750 [3]
325 978 [3]
341 485 [3]
2 754 [3]
5 661 [3]
4 692 [3]
7 601 [3]
206 577 [3]
276 462 [3]
203 680 [3]
7 612 [3]
6 644 [3]
4 707 [3]
14 398 [3]
1 804 [3]
69 747 [3]
2 777 [3]
70 717 [3]
5 685 [3]
5 686 [3]
341 514 [3]
9 568 [3]
6 663 [3]
131 887 [3]
25 84 [3]
8 612 [3]
4 736 [3]
140 617 [3]
409 472 [3]
343 472 [3]
70 747 [3]
4 745 [3]
132 874 [3]
64 935 [3]
137 721 [3]
27 35 [3]
2 812 [3]
7 661 [3]
10 568 [3]
343 491 [3]
3 792 [3]
8 644 [3]
2 835 [3]
7 684 [3]
343 508 [3]
2 839 [3]
0 902 [3]
267 818 [3]
3 811 [3]
4 782 [3]
410 485 [3]
76 600 [3]
5 755 [3]
344 488 [3]
141 645 [3]
7 703 [3]
198 930 [3]
73 709 [3]
76 625 [3]
211 537 [3]
410 514 [3]
76 630 [3]
7 730 [3]
211 557 [3]
1 923 [3]
6 771 [3]
7 741 [3]
1 929 [3]
7 746 [3]
69 874 [3]
6 779 [3]
6 783 [3]
2 909 [3]
6 786 [3]
2 911 [3]
6 787 [3]
2 912 [3]
4 851 [3]
6 792 [3]
7 762 [3]
6 793 [3]
6 794 [3]
6 795 [3]
7 765 [3]
6 796 [3]
6 797 [3]
6 798 [3]
7 770 [3]
6 802 [3]
7 772 [3]
76 681 [3]
6 803 [3]
75 716 [3]
6 809 [3]
7 779 [3]
477 547 [3]
272 760 [3]
6 814 [3]
6 815 [3]
14 568 [3]
6 816 [3]
6 819 [3]
2 944 [3]
6 821 [3]
267 924 [3]
7 794 [3]
276 647 [3]
2 950 [3]
7 796 [3]
2 951 [3]
7 797 [3]
6 828 [3]
530 969 [3]
7 800 [3]
7 801 [3]
2 956 [3]
7 802 [3]
6 833 [3]
7 803 [3]
2 958 [3]
7 804 [3]
7 805 [3]
69 931 [3]
344 600 [3]
7 809 [3]
410 608 [3]
6 846 [3]
2 971 [3]
6 848 [3]
8 787 [3]
6 849 [3]
6 850 [3]
10 728 [3]
6 852 [3]
10 729 [3]
6 857 [3]
211 648 [3]
10 739 [3]
344 625 [3]
10 741 [3]
281 532 [3]
202 933 [3]
147 592 [3]
4 929 [3]
7 837 [3]
344 630 [3]
6 868 [3]
10 746 [3]
6 872 [3]
141 784 [3]
6 875 [3]
9 783 [3]
211 665 [3]
10 753 [3]
9 786 [3]
70 946 [3]
7 851 [3]
4 944 [3]
79 669 [3]
9 793 [3]
9 794 [3]
9 795 [3]
10 765 [3]
11 735 [3]
7 860 [3]
12 706 [3]
154 403 [3]
10 772 [3]
73 874 [3]
10 781 [3]
7 880 [3]
605 775 [3]
10 790 [3]
83 576 [3]
154 423 [3]
344 681 [3]
281 587 [3]
10 805 [3]
14 681 [3]
211 720 [3]
16 621 [3]
10 808 [3]
6 940 [3]
14 696 [3]
147 670 [3]
79 731 [3]
14 699 [3]
347 617 [3]
14 702 [3]
7 921 [3]
151 554 [3]
151 555 [3]
83 616 [3]
6 955 [3]
272 902 [3]
281 624 [3]
216 593 [3]
14 712 [3]
6 962 [3]
6 964 [3]
5 996 [3]
343 760 [3]
147 698 [3]
83 635 [3]
11 820 [3]
80 731 [3]
80 735 [3]
277 775 [3]
75 893 [3]
83 649 [3]
16 681 [3]
7 962 [3]
79 779 [3]
7 968 [3]
7 969 [3]
7 970 [3]
82 693 [3]
16 693 [3]
7 973 [3]
353 488 [3]
7 975 [3]
16 702 [3]
75 925 [3]
9 927 [3]
7 989 [3]
10 898 [3]
16 712 [3]
10 899 [3]
215 688 [3]
8 962 [3]
80 779 [3]
16 716 [3]
8 964 [3]
10 903 [3]
83 688 [3]
8 968 [3]
79 816 [3]
9 940 [3]
79 818 [3]
17 699 [3]
151 641 [3]
147 766 [3]
283 646 [3]
10 921 [3]
9 954 [3]
79 834 [3]
154 562 [3]
9 962 [3]
9 964 [3]
9 968 [3]
79 846 [3]
80 816 [3]
85 663 [3]
80 820 [3]
10 945 [3]
88 577 [3]
152 646 [3]
10 953 [3]
83 740 [3]
88 587 [3]
12 898 [3]
79 871 [3]
18 721 [3]
19 697 [3]
87 640 [3]
79 888 [3]
343 902 [3]
276 936 [3]
10 991 [3]
80 871 [3]
80 888 [3]
341 992 [3]
21 673 [3]
20 706 [3]
277 937 [3]
90 592 [3]
12 962 [3]
14 904 [3]
79 960 [3]
155 654 [3]
359 474 [3]
20 746 [3]
355 606 [3]
357 549 [3]
86 768 [3]
294 474 [3]
151 823 [3]
410 992 [3]
16 925 [3]
20 805 [3]
42 127 [3]
359 545 [3]
23 731 [3]
42 154 [3]
25 689 [3]
294 545 [3]
26 673 [3]
292 619 [3]
83 967 [3]
294 573 [3]
94 632 [3]
154 821 [3]
294 579 [3]
227 614 [3]
27 671 [3]
90 766 [3]
20 898 [3]
27 681 [3]
350 913 [3]
27 693 [3]
28 671 [3]
164 554 [3]
29 648 [3]
29 657 [3]
97 617 [3]
29 678 [3]
284 969 [3]
99 563 [3]
28 723 [3]
297 581 [3]
25 824 [3]
29 704 [3]
98 614 [3]
297 597 [3]
29 734 [3]
154 955 [3]
227 742 [3]
357 818 [3]
99 636 [3]
361 727 [3]
290 903 [3]
100 669 [3]
102 614 [3]
98 742 [3]
297 718 [3]
29 836 [3]
556 892 [3]
103 600 [3]
357 924 [3]
98 768 [3]
103 625 [3]
101 688 [3]
103 630 [3]
292 915 [3]
35 693 [3]
100 735 [3]
104 622 [3]
36 698 [3]
38 640 [3]
103 681 [3]
100 779 [3]
102 742 [3]
294 945 [3]
51 288 [3]
100 818 [3]
100 820 [3]
100 834 [3]
100 846 [3]
297 908 [3]
100 871 [3]
42 629 [3]
100 895 [3]
42 648 [3]
299 885 [3]
109 645 [3]
113 540 [3]
44 632 [3]
113 549 [3]
111 617 [3]
43 680 [3]
500 855 [3]
177 636 [3]
39 838 [3]
0 1 [4]
54 382 [4]
38 887 [4]
51 581 [4]
127 295 [4]
5 6 [4]
53 623 [4]
122 532 [4]
132 226 [4]
56 536 [4]
56 542 [4]
127 403 [4]
51 718 [4]
56 565 [4]
56 571 [4]
56 572 [4]
442 909 [4]
56 588 [4]
0 276 [4]
0 280 [4]
56 598 [4]
0 286 [4]
0 287 [4]
0 289 [4]
0 290 [4]
0 293 [4]
0 294 [4]
0 298 [4]
56 611 [4]
0 299 [4]
0 301 [4]
0 308 [4]
0 311 [4]
0 319 [4]
56 633 [4]
0 323 [4]
0 324 [4]
0 325 [4]
189 623 [4]
1 310 [4]
0 343 [4]
0 345 [4]
0 350 [4]
0 351 [4]
0 354 [4]
0 355 [4]
0 358 [4]
0 360 [4]
61 519 [4]
0 362 [4]
0 364 [4]
0 369 [4]
0 371 [4]
0 372 [4]
0 373 [4]
0 375 [4]
0 380 [4]
0 385 [4]
0 387 [4]
0 388 [4]
5 234 [4]
0 389 [4]
5 237 [4]
5 238 [4]
4 269 [4]
0 393 [4]
0 394 [4]
6 209 [4]
0 395 [4]
6 211 [4]
0 397 [4]
6 213 [4]
0 400 [4]
5 246 [4]
6 216 [4]
4 280 [4]
5 250 [4]
4 281 [4]
6 219 [4]
5 251 [4]
6 220 [4]
0 407 [4]
0 408 [4]
9 130 [4]
5 254 [4]
0 409 [4]
6 224 [4]
0 412 [4]
9 134 [4]
5 260 [4]
4 291 [4]
0 415 [4]
5 261 [4]
4 294 [4]
0 418 [4]
10 109 [4]
6 233 [4]
0 419 [4]
10 110 [4]
0 420 [4]
0 422 [4]
9 144 [4]
6 237 [4]
8 176 [4]
9 145 [4]
5 269 [4]
0 424 [4]
5 271 [4]
4 302 [4]
8 179 [4]
9 148 [4]
6 241 [4]
5 273 [4]
9 150 [4]
5 274 [4]
7 213 [4]
8 182 [4]
9 151 [4]
10 120 [4]
6 244 [4]
8 183 [4]
9 152 [4]
10 121 [4]
5 276 [4]
9 153 [4]
4 308 [4]
6 246 [4]
7 216 [4]
8 186 [4]
4 310 [4]
7 218 [4]
8 187 [4]
7 219 [4]
8 190 [4]
10 128 [4]
9 160 [4]
10 129 [4]
5 284 [4]
6 253 [4]
10 130 [4]
5 285 [4]
51 908 [4]
7 224 [4]
10 131 [4]
73 226 [4]
5 286 [4]
6 255 [4]
9 163 [4]
139 229 [4]
5 287 [4]
8 195 [4]
9 164 [4]
0 443 [4]
8 196 [4]
5 289 [4]
4 320 [4]
10 135 [4]
9 166 [4]
5 290 [4]
0 445 [4]
8 198 [4]
10 136 [4]
8 200 [4]
5 293 [4]
4 324 [4]
5 294 [4]
7 233 [4]
8 202 [4]
7 234 [4]
10 141 [4]
9 173 [4]
8 205 [4]
9 174 [4]
5 298 [4]
5 299 [4]
4 330 [4]
8 207 [4]
10 145 [4]
11 114 [4]
4 331 [4]
7 239 [4]
10 146 [4]
5 301 [4]
4 332 [4]
0 456 [4]
64 521 [4]
5 302 [4]
6 271 [4]
7 241 [4]
9 179 [4]
8 210 [4]
10 148 [4]
8 211 [4]
5 304 [4]
10 150 [4]
4 336 [4]
6 274 [4]
8 213 [4]
9 182 [4]
6 275 [4]
9 183 [4]
10 152 [4]
4 338 [4]
6 276 [4]
7 246 [4]
4 339 [4]
8 216 [4]
6 278 [4]
7 248 [4]
8 217 [4]
5 310 [4]
1 434 [4]
8 218 [4]
5 311 [4]
4 342 [4]
6 280 [4]
7 250 [4]
8 219 [4]
10 157 [4]
11 126 [4]
6 281 [4]
8 220 [4]
9 190 [4]
6 283 [4]
7 253 [4]
4 346 [4]
7 254 [4]
0 471 [4]
8 224 [4]
7 255 [4]
9 193 [4]
10 162 [4]
10 163 [4]
9 195 [4]
4 350 [4]
8 227 [4]
9 196 [4]
4 351 [4]
10 166 [4]
5 321 [4]
4 352 [4]
9 199 [4]
10 168 [4]
12 106 [4]
8 231 [4]
9 200 [4]
10 169 [4]
10 170 [4]
12 109 [4]
7 266 [4]
4 359 [4]
11 144 [4]
7 269 [4]
4 362 [4]
9 208 [4]
7 271 [4]
4 364 [4]
8 241 [4]
4 366 [4]
7 274 [4]
12 119 [4]
4 367 [4]
7 275 [4]
9 213 [4]
4 368 [4]
7 276 [4]
12 121 [4]
11 153 [4]
13 91 [4]
7 278 [4]
9 216 [4]
15 30 [4]
4 371 [4]
9 218 [4]
4 375 [4]
9 221 [4]
5 345 [4]
4 376 [4]
9 223 [4]
6 316 [4]
8 255 [4]
6 318 [4]
8 258 [4]
4 383 [4]
4 385 [4]
6 323 [4]
4 387 [4]
12 141 [4]
11 172 [4]
9 235 [4]
5 359 [4]
4 393 [4]
4 395 [4]
4 396 [4]
6 334 [4]
5 367 [4]
12 151 [4]
10 214 [4]
4 400 [4]
0 525 [4]
4 402 [4]
0 526 [4]
8 279 [4]
0 529 [4]
8 282 [4]
9 252 [4]
2 469 [4]
6 345 [4]
2 470 [4]
4 408 [4]
7 316 [4]
2 472 [4]
0 534 [4]
7 318 [4]
10 225 [4]
0 535 [4]
12 164 [4]
4 412 [4]
0 536 [4]
12 165 [4]
2 475 [4]
4 413 [4]
0 537 [4]
9 259 [4]
4 415 [4]
0 539 [4]
8 292 [4]
2 479 [4]
0 541 [4]
9 263 [4]
2 480 [4]
0 542 [4]
0 543 [4]
5 389 [4]
0 544 [4]
2 484 [4]
0 546 [4]
2 485 [4]
0 548 [4]
6 363 [4]
12 178 [4]
0 550 [4]
7 334 [4]
2 491 [4]
8 307 [4]
0 557 [4]
8 312 [4]
9 282 [4]
2 499 [4]
0 561 [4]
7 345 [4]
10 252 [4]
14 128 [4]
4 438 [4]
14 129 [4]
2 501 [4]
0 563 [4]
8 316 [4]
2 502 [4]
14 131 [4]
2 503 [4]
0 565 [4]
10 256 [4]
4 443 [4]
6 381 [4]
0 567 [4]
14 135 [4]
2 507 [4]
2 508 [4]
9 292 [4]
2 509 [4]
2 510 [4]
0 573 [4]
0 574 [4]
56 887 [4]
0 575 [4]
2 514 [4]
2 515 [4]
13 175 [4]
2 517 [4]
0 579 [4]
7 363 [4]
2 518 [4]
0 581 [4]
0 582 [4]
0 584 [4]
9 307 [4]
0 586 [4]
16 91 [4]
6 401 [4]
9 309 [4]
2 526 [4]
0 588 [4]
15 124 [4]
2 528 [4]
9 312 [4]
0 591 [4]
16 96 [4]
5 438 [4]
2 532 [4]
0 594 [4]
5 442 [4]
6 411 [4]
2 536 [4]
0 598 [4]
2 537 [4]
16 104 [4]
0 600 [4]
9 322 [4]
8 356 [4]
13 204 [4]
0 610 [4]
8 363 [4]
0 611 [4]
12 240 [4]
9 333 [4]
0 613 [4]
0 614 [4]
10 305 [4]
0 620 [4]
17 96 [4]
0 625 [4]
9 348 [4]
0 627 [4]
7 411 [4]
0 628 [4]
0 629 [4]
385 985 [4]
0 632 [4]
0 633 [4]
1 603 [4]
9 356 [4]
0 636 [4]
1 606 [4]
0 637 [4]
0 642 [4]
10 333 [4]
8 399 [4]
1 616 [4]
0 648 [4]
4 525 [4]
0 654 [4]
0 656 [4]
0 657 [4]
9 379 [4]
0 660 [4]
8 417 [4]
13 262 [4]
0 665 [4]
4 543 [4]
0 667 [4]
11 327 [4]
0 668 [4]
2 608 [4]
16 175 [4]
0 671 [4]
4 548 [4]
0 672 [4]
15 212 [4]
19 89 [4]
0 679 [4]
7 465 [4]
5 527 [4]
19 95 [4]
56 998 [4]
2 624 [4]
10 378 [4]
2 626 [4]
14 256 [4]
8 444 [4]
9 414 [4]
4 569 [4]
4 570 [4]
9 417 [4]
6 512 [4]
16 204 [4]
0 700 [4]
4 580 [4]
1 675 [4]
12 335 [4]
0 708 [4]
73 494 [4]
4 587 [4]
6 527 [4]
10 406 [4]
4 592 [4]
2 655 [4]
4 593 [4]
0 718 [4]
5 564 [4]
4 596 [4]
0 720 [4]
12 349 [4]
2 659 [4]
4 599 [4]
5 569 [4]
20 106 [4]
73 511 [4]
20 109 [4]
5 574 [4]
21 81 [4]
0 732 [4]
8 486 [4]
14 305 [4]
20 119 [4]
5 584 [4]
9 461 [4]
8 493 [4]
140 498 [4]
0 742 [4]
0 743 [4]
4 620 [4]
2 683 [4]
0 747 [4]
0 748 [4]
197 787 [4]
0 750 [4]
0 751 [4]
4 628 [4]
4 632 [4]
16 262 [4]
4 634 [4]
22 77 [4]
4 635 [4]
16 264 [4]
20 141 [4]
4 637 [4]
5 607 [4]
4 638 [4]
1 740 [4]
22 92 [4]
9 496 [4]
22 97 [4]
22 99 [4]
64 847 [4]
9 505 [4]
20 165 [4]
5 631 [4]
74 541 [4]
0 788 [4]
9 513 [4]
22 112 [4]
2 737 [4]
4 675 [4]
5 648 [4]
5 649 [4]
15 340 [4]
21 156 [4]
5 654 [4]
5 657 [4]
0 812 [4]
6 631 [4]
2 760 [4]
5 667 [4]
10 513 [4]
5 668 [4]
533 685 [4]
2 764 [4]
5 671 [4]
23 114 [4]
5 672 [4]
5 673 [4]
5 674 [4]
5 675 [4]
2 769 [4]
4 708 [4]
12 461 [4]
5 678 [4]
6 647 [4]
20 214 [4]
5 680 [4]
0 835 [4]
9 560 [4]
5 688 [4]
6 658 [4]
5 690 [4]
4 722 [4]
7 631 [4]
5 694 [4]
5 699 [4]
5 700 [4]
4 738 [4]
22 181 [4]
10 556 [4]
4 743 [4]
5 713 [4]
5 714 [4]
5 715 [4]
5 716 [4]
5 717 [4]
201 787 [4]
7 658 [4]
12 505 [4]
0 881 [4]
85 295 [4]
5 728 [4]
5 729 [4]
6 698 [4]
23 172 [4]
8 639 [4]
26 81 [4]
5 732 [4]
9 609 [4]
27 53 [4]
4 766 [4]
21 242 [4]
5 738 [4]
6 707 [4]
5 739 [4]
10 585 [4]
5 741 [4]
4 773 [4]
8 651 [4]
5 745 [4]
601 703 [4]
4 778 [4]
22 222 [4]
5 753 [4]
0 908 [4]
5 756 [4]
5 757 [4]
4 788 [4]
27 76 [4]
5 758 [4]
5 759 [4]
0 916 [4]
5 762 [4]
27 82 [4]
2 858 [4]
5 765 [4]
28 53 [4]
7 707 [4]
5 770 [4]
2 864 [4]
5 771 [4]
0 926 [4]
9 649 [4]
27 91 [4]
22 247 [4]
5 774 [4]
9 651 [4]
0 930 [4]
5 781 [4]
4 812 [4]
143 603 [4]
8 692 [4]
27 103 [4]
9 662 [4]
5 791 [4]
0 946 [4]
9 668 [4]
10 637 [4]
5 792 [4]
10 640 [4]
28 82 [4]
5 795 [4]
9 672 [4]
5 796 [4]
9 673 [4]
5 798 [4]
5 800 [4]
10 646 [4]
9 684 [4]
5 808 [4]
2 902 [4]
5 811 [4]
9 689 [4]
5 813 [4]
8 721 [4]
5 814 [4]
9 692 [4]
9 694 [4]
9 697 [4]
29 77 [4]
8 729 [4]
10 668 [4]
8 731 [4]
9 701 [4]
10 671 [4]
5 826 [4]
0 981 [4]
8 735 [4]
10 673 [4]
2 922 [4]
9 706 [4]
10 678 [4]
9 709 [4]
5 833 [4]
8 741 [4]
10 680 [4]
14 556 [4]
85 403 [4]
5 835 [4]
10 681 [4]
5 837 [4]
9 715 [4]
10 684 [4]
0 994 [4]
9 717 [4]
5 841 [4]
5 842 [4]
10 688 [4]
5 843 [4]
1 967 [4]
0 998 [4]
9 721 [4]
8 753 [4]
11 660 [4]
8 756 [4]
397 985 [4]
5 849 [4]
2 943 [4]
5 850 [4]
10 696 [4]
9 728 [4]
22 326 [4]
8 761 [4]
10 699 [4]
7 792 [4]
5 854 [4]
8 762 [4]
9 731 [4]
11 669 [4]
85 423 [4]
10 702 [4]
9 733 [4]
5 857 [4]
8 765 [4]
12 641 [4]
9 735 [4]
10 706 [4]
5 862 [4]
8 770 [4]
14 585 [4]
8 772 [4]
9 741 [4]
12 649 [4]
8 774 [4]
10 712 [4]
11 682 [4]
4 900 [4]
9 746 [4]
10 715 [4]
2 963 [4]
6 839 [4]
27 189 [4]
8 779 [4]
5 872 [4]
7 811 [4]
8 781 [4]
8 782 [4]
5 875 [4]
8 783 [4]
7 815 [4]
7 816 [4]
8 785 [4]
10 723 [4]
7 817 [4]
9 756 [4]
7 819 [4]
8 790 [4]
9 759 [4]
5 883 [4]
8 791 [4]
5 885 [4]
4 916 [4]
8 793 [4]
27 204 [4]
7 826 [4]
9 765 [4]
5 891 [4]
8 800 [4]
7 831 [4]
6 862 [4]
8 801 [4]
9 770 [4]
9 771 [4]
7 834 [4]
5 896 [4]
5 897 [4]
9 774 [4]
8 806 [4]
5 899 [4]
28 189 [4]
5 903 [4]
12 688 [4]
8 815 [4]
8 816 [4]
5 909 [4]
8 819 [4]
8 820 [4]
32 77 [4]
5 914 [4]
5 915 [4]
5 917 [4]
12 701 [4]
4 949 [4]
14 640 [4]
9 796 [4]
5 920 [4]
4 951 [4]
5 921 [4]
8 829 [4]
9 798 [4]
8 830 [4]
9 800 [4]
9 801 [4]
5 925 [4]
4 956 [4]
9 802 [4]
8 834 [4]
5 928 [4]
9 805 [4]
8 837 [4]
5 930 [4]
6 899 [4]
5 931 [4]
9 808 [4]
5 932 [4]
5 934 [4]
8 844 [4]
20 473 [4]
6 912 [4]
9 820 [4]
5 945 [4]
14 667 [4]
8 853 [4]
5 946 [4]
9 824 [4]
5 948 [4]
215 583 [4]
14 671 [4]
4 982 [4]
9 829 [4]
16 614 [4]
7 895 [4]
6 926 [4]
4 994 [4]
9 840 [4]
16 623 [4]
137 970 [4]
5 966 [4]
9 844 [4]
16 627 [4]
16 630 [4]
6 944 [4]
5 979 [4]
16 640 [4]
22 454 [4]
5 982 [4]
5 983 [4]
5 984 [4]
5 985 [4]
5 986 [4]
5 987 [4]
8 895 [4]
85 557 [4]
6 958 [4]
5 990 [4]
5 991 [4]
5 992 [4]
85 562 [4]
16 654 [4]
5 997 [4]
22 476 [4]
6 972 [4]
34 105 [4]
15 695 [4]
7 944 [4]
10 851 [4]
16 667 [4]
86 546 [4]
36 48 [4]
16 671 [4]
8 921 [4]
27 344 [4]
6 997 [4]
27 353 [4]
17 667 [4]
7 984 [4]
7 985 [4]
9 923 [4]
10 892 [4]
7 987 [4]
7 988 [4]
9 929 [4]
88 532 [4]
87 571 [4]
9 946 [4]
29 326 [4]
407 897 [4]
149 703 [4]
16 742 [4]
8 991 [4]
10 931 [4]
16 751 [4]
16 755 [4]
85 665 [4]
9 975 [4]
10 946 [4]
605 937 [4]
9 983 [4]
27 426 [4]
20 645 [4]
143 938 [4]
421 540 [4]
88 624 [4]
85 720 [4]
32 326 [4]
100 267 [4]
27 488 [4]
14 892 [4]
24 603 [4]
24 606 [4]
22 686 [4]
23 669 [4]
23 682 [4]
20 784 [4]
14 974 [4]
14 977 [4]
14 980 [4]
94 550 [4]
20 804 [4]
16 930 [4]
27 595 [4]
28 565 [4]
27 598 [4]
27 600 [4]
28 572 [4]
32 454 [4]
27 614 [4]
17 930 [4]
27 621 [4]
27 622 [4]
27 623 [4]
28 598 [4]
27 630 [4]
32 476 [4]
16 974 [4]
16 977 [4]
27 643 [4]
28 623 [4]
45 106 [4]
45 109 [4]
18 970 [4]
29 629 [4]
29 637 [4]
87 887 [4]
45 141 [4]
43 230 [4]
43 242 [4]
49 68 [4]
20 969 [4]
20 975 [4]
86 978 [4]
45 214 [4]
27 776 [4]
421 863 [4]
32 637 [4]
49 115 [4]
229 685 [4]
355 901 [4]
433 541 [4]
22 996 [4]
24 938 [4]
38 542 [4]
113 267 [4]
38 565 [4]
38 571 [4]
38 572 [4]
27 935 [4]
38 598 [4]
180 303 [4]
42 537 [4]
42 557 [4]
361 934 [4]
41 620 [4]
44 550 [4]
34 884 [4]
432 860 [4]
42 665 [4]
55 303 [4]
232 970 [4]
174 754 [5]
117 475 [5]
39 849 [5]
117 485 [5]
35 979 [5]
51 485 [5]
41 799 [5]
109 744 [5]
183 499 [5]
38 902 [5]
117 514 [5]
318 427 [5]
51 514 [5]
51 517 [5]
47 641 [5]
106 866 [5]
318 441 [5]
186 439 [5]
1 33 [5]
49 596 [5]
1 39 [5]
1 40 [5]
1 42 [5]
1 44 [5]
255 366 [5]
444 652 [5]
1 49 [5]
178 710 [5]
1 54 [5]
255 374 [5]
1 58 [5]
1 60 [5]
0 91 [5]
1 61 [5]
0 92 [5]
1 63 [5]
1 64 [5]
1 66 [5]
3 5 [5]
1 67 [5]
1 68 [5]
0 99 [5]
1 69 [5]
38 971 [5]
1 70 [5]
1 71 [5]
1 72 [5]
1 73 [5]
188 421 [5]
1 74 [5]
0 105 [5]
1 75 [5]
1 76 [5]
0 107 [5]
1 77 [5]
48 670 [5]
0 110 [5]
3 19 [5]
0 112 [5]
1 85 [5]
48 677 [5]
1 86 [5]
0 117 [5]
188 435 [5]
1 88 [5]
0 120 [5]
2 60 [5]
53 528 [5]
38 993 [5]
0 123 [5]
1 94 [5]
3 33 [5]
0 126 [5]
56 439 [5]
1 96 [5]
0 128 [5]
0 129 [5]
51 597 [5]
3 37 [5]
48 691 [5]
0 133 [5]
0 134 [5]
0 135 [5]
0 136 [5]
48 698 [5]
117 608 [5]
0 139 [5]
186 518 [5]
51 608 [5]
109 858 [5]
3 48 [5]
3 51 [5]
0 144 [5]
1 115 [5]
3 55 [5]
0 148 [5]
0 150 [5]
178 777 [5]
39 991 [5]
1 122 [5]
0 155 [5]
1 125 [5]
0 157 [5]
3 65 [5]
1 127 [5]
0 158 [5]
2 96 [5]
4 36 [5]
0 160 [5]
2 99 [5]
4 37 [5]
0 161 [5]
0 162 [5]
4 39 [5]
0 163 [5]
186 542 [5]
2 104 [5]
2 105 [5]
0 167 [5]
2 106 [5]
4 44 [5]
5 13 [5]
179 764 [5]
2 107 [5]
1 138 [5]
0 169 [5]
5 15 [5]
4 46 [5]
0 170 [5]
255 458 [5]
2 109 [5]
2 110 [5]
4 48 [5]
4 49 [5]
0 173 [5]
179 769 [5]
0 174 [5]
4 52 [5]
0 176 [5]
0 177 [5]
2 117 [5]
5 24 [5]
4 55 [5]
0 179 [5]
238 994 [5]
5 25 [5]
2 119 [5]
5 26 [5]
0 181 [5]
2 120 [5]
5 27 [5]
4 58 [5]
5 28 [5]
5 29 [5]
4 60 [5]
2 123 [5]
5 30 [5]
4 61 [5]
1 154 [5]
5 31 [5]
3 93 [5]
0 186 [5]
5 32 [5]
1 156 [5]
0 187 [5]
2 126 [5]
5 33 [5]
5 34 [5]
5 35 [5]
4 66 [5]
2 129 [5]
5 36 [5]
4 67 [5]
0 191 [5]
4 68 [5]
2 131 [5]
5 38 [5]
49 722 [5]
0 193 [5]
5 39 [5]
0 194 [5]
2 133 [5]
5 41 [5]
4 72 [5]
48 756 [5]
6 10 [5]
5 42 [5]
6 11 [5]
2 136 [5]
5 43 [5]
4 74 [5]
0 198 [5]
45 852 [5]
5 44 [5]
0 199 [5]
2 139 [5]
5 46 [5]
4 77 [5]
6 15 [5]
0 202 [5]
2 141 [5]
5 48 [5]
6 18 [5]
5 49 [5]
0 204 [5]
5 50 [5]
4 81 [5]
6 19 [5]
0 205 [5]
56 518 [5]
5 51 [5]
5 52 [5]
4 83 [5]
6 21 [5]
2 146 [5]
5 53 [5]
6 22 [5]
5 54 [5]
0 209 [5]
2 148 [5]
5 55 [5]
0 210 [5]
2 149 [5]
0 211 [5]
4 88 [5]
2 151 [5]
5 58 [5]
4 89 [5]
2 152 [5]
4 90 [5]
5 59 [5]
5 60 [5]
6 29 [5]
5 61 [5]
6 30 [5]
6 31 [5]
0 217 [5]
5 63 [5]
4 94 [5]
6 32 [5]
0 218 [5]
2 157 [5]
5 64 [5]
4 95 [5]
2 158 [5]
0 220 [5]
5 66 [5]
0 221 [5]
6 37 [5]
1 192 [5]
0 223 [5]
0 224 [5]
2 163 [5]
4 101 [5]
6 39 [5]
2 164 [5]
7 10 [5]
2 165 [5]
5 72 [5]
6 41 [5]
0 227 [5]
7 11 [5]
1 197 [5]
7 12 [5]
2 167 [5]
5 74 [5]
0 229 [5]
2 168 [5]
7 13 [5]
7 14 [5]
2 169 [5]
0 231 [5]
113 825 [5]
7 15 [5]
2 170 [5]
5 77 [5]
47 823 [5]
1 201 [5]
6 47 [5]
6 48 [5]
0 234 [5]
7 18 [5]
2 173 [5]
7 19 [5]
2 174 [5]
0 236 [5]
7 20 [5]
5 82 [5]
4 113 [5]
1 206 [5]
2 175 [5]
7 21 [5]
2 176 [5]
0 238 [5]
2 177 [5]
5 84 [5]
4 115 [5]
0 239 [5]
109 957 [5]
7 23 [5]
2 178 [5]
5 85 [5]
2 179 [5]
5 86 [5]
49 770 [5]
7 25 [5]
7 26 [5]
5 88 [5]
6 57 [5]
0 243 [5]
0 244 [5]
2 183 [5]
4 122 [5]
7 30 [5]
7 31 [5]
2 186 [5]
5 93 [5]
0 248 [5]
2 187 [5]
5 94 [5]
4 125 [5]
0 250 [5]
7 34 [5]
0 251 [5]
2 191 [5]
7 36 [5]
5 98 [5]
53 659 [5]
2 192 [5]
0 254 [5]
2 193 [5]
2 194 [5]
0 256 [5]
5 102 [5]
0 257 [5]
8 10 [5]
2 196 [5]
0 258 [5]
322 517 [5]
8 11 [5]
1 228 [5]
0 259 [5]
7 43 [5]
8 12 [5]
2 198 [5]
0 260 [5]
8 13 [5]
0 261 [5]
8 14 [5]
7 45 [5]
2 200 [5]
0 262 [5]
8 15 [5]
8 16 [5]
8 17 [5]
0 265 [5]
8 18 [5]
8 19 [5]
2 205 [5]
7 51 [5]
8 21 [5]
2 207 [5]
0 269 [5]
8 22 [5]
2 208 [5]
50 768 [5]
0 270 [5]
8 23 [5]
2 209 [5]
5 116 [5]
49 800 [5]
0 271 [5]
7 55 [5]
8 24 [5]
2 210 [5]
0 272 [5]
8 25 [5]
2 211 [5]
5 118 [5]
3 180 [5]
0 273 [5]
8 26 [5]
7 57 [5]
8 27 [5]
0 275 [5]
8 28 [5]
2 214 [5]
56 589 [5]
8 29 [5]
5 122 [5]
53 683 [5]
8 30 [5]
2 216 [5]
8 31 [5]
7 62 [5]
2 217 [5]
5 124 [5]
47 870 [5]
0 279 [5]
8 32 [5]
1 249 [5]
2 219 [5]
309 943 [5]
8 34 [5]
7 65 [5]
2 220 [5]
5 127 [5]
8 35 [5]
2 221 [5]
0 285 [5]
2 225 [5]
8 41 [5]
8 43 [5]
2 229 [5]
7 78 [5]
581 718 [5]
2 235 [5]
0 297 [5]
5 143 [5]
8 51 [5]
8 53 [5]
7 84 [5]
2 240 [5]
8 55 [5]
9 24 [5]
9 25 [5]
4 180 [5]
6 118 [5]
0 304 [5]
9 26 [5]
8 57 [5]
0 305 [5]
2 244 [5]
8 59 [5]
5 154 [5]
0 309 [5]
7 93 [5]
8 62 [5]
6 124 [5]
4 188 [5]
9 34 [5]
8 65 [5]
0 313 [5]
2 252 [5]
0 314 [5]
2 255 [5]
2 257 [5]
2 259 [5]
49 850 [5]
0 321 [5]
0 322 [5]
6 137 [5]
10 14 [5]
61 482 [5]
10 16 [5]
2 264 [5]
5 171 [5]
1 295 [5]
10 17 [5]
0 327 [5]
10 18 [5]
0 329 [5]
8 82 [5]
4 206 [5]
10 21 [5]
7 118 [5]
5 180 [5]
10 26 [5]
60 526 [5]
3 245 [5]
10 29 [5]
5 184 [5]
4 215 [5]
8 93 [5]
7 124 [5]
10 32 [5]
5 189 [5]
53 752 [5]
5 192 [5]
10 41 [5]
5 197 [5]
4 228 [5]
10 43 [5]
7 137 [5]
2 292 [5]
10 45 [5]
1 326 [5]
5 203 [5]
2 297 [5]
5 206 [5]
9 84 [5]
8 118 [5]
2 307 [5]
4 245 [5]
0 370 [5]
185 780 [5]
2 309 [5]
8 124 [5]
4 249 [5]
129 472 [5]
2 313 [5]
0 378 [5]
0 379 [5]
3 288 [5]
0 381 [5]
5 228 [5]
2 322 [5]
8 137 [5]
5 230 [5]
2 327 [5]
8 143 [5]
4 267 [5]
129 491 [5]
3 303 [5]
7 180 [5]
2 335 [5]
5 242 [5]
6 212 [5]
0 399 [5]
7 184 [5]
5 249 [5]
0 406 [5]
3 315 [5]
129 508 [5]
2 349 [5]
64 477 [5]
1 382 [5]
12 45 [5]
2 356 [5]
6 232 [5]
8 171 [5]
7 203 [5]
9 143 [5]
2 363 [5]
4 303 [5]
7 212 [5]
2 370 [5]
0 432 [5]
1 403 [5]
1 405 [5]
8 189 [5]
255 725 [5]
4 315 [5]
2 378 [5]
53 845 [5]
2 379 [5]
0 442 [5]
263 482 [5]
2 381 [5]
50 941 [5]
5 288 [5]
7 230 [5]
10 137 [5]
7 232 [5]
4 326 [5]
8 203 [5]
4 328 [5]
117 922 [5]
6 268 [5]
1 423 [5]
7 242 [5]
8 212 [5]
5 306 [5]
255 749 [5]
7 245 [5]
9 184 [5]
0 465 [5]
0 467 [5]
2 406 [5]
260 607 [5]
51 943 [5]
2 417 [5]
263 519 [5]
8 232 [5]
4 357 [5]
60 672 [5]
7 268 [5]
1 454 [5]
183 963 [5]
8 245 [5]
0 493 [5]
7 277 [5]
2 432 [5]
0 496 [5]
0 497 [5]
56 810 [5]
6 315 [5]
7 288 [5]
2 444 [5]
199 482 [5]
1 476 [5]
2 449 [5]
10 203 [5]
7 296 [5]
56 827 [5]
8 268 [5]
4 392 [5]
7 303 [5]
192 713 [5]
2 461 [5]
0 523 [5]
6 340 [5]
7 315 [5]
2 473 [5]
8 288 [5]
5 382 [5]
0 538 [5]
10 230 [5]
199 519 [5]
8 296 [5]
60 733 [5]
8 300 [5]
10 242 [5]
69 462 [5]
8 306 [5]
0 556 [5]
7 340 [5]
4 433 [5]
2 497 [5]
5 405 [5]
0 560 [5]
8 315 [5]
2 505 [5]
318 957 [5]
2 513 [5]
4 454 [5]
272 343 [5]
196 652 [5]
9 306 [5]
0 585 [5]
8 340 [5]
5 433 [5]
1 562 [5]
2 533 [5]
4 476 [5]
267 522 [5]
7 391 [5]
186 998 [5]
2 560 [5]
2 566 [5]
208 331 [5]
1 612 [5]
272 409 [5]
60 840 [5]
5 500 [5]
56 971 [5]
202 542 [5]
272 420 [5]
0 662 [5]
129 760 [5]
2 601 [5]
9 391 [5]
2 609 [5]
5 520 [5]
1 644 [5]
56 993 [5]
322 943 [5]
4 576 [5]
204 521 [5]
2 639 [5]
141 427 [5]
137 558 [5]
141 437 [5]
2 651 [5]
141 441 [5]
2 661 [5]
2 662 [5]
0 736 [5]
141 469 [5]
0 745 [5]
3 653 [5]
2 685 [5]
140 506 [5]
145 352 [5]
2 703 [5]
5 612 [5]
0 767 [5]
2 707 [5]
5 621 [5]
76 478 [5]
2 730 [5]
145 396 [5]
2 736 [5]
5 643 [5]
276 434 [5]
129 902 [5]
140 564 [5]
5 653 [5]
2 755 [5]
0 817 [5]
5 663 [5]
1 787 [5]
7 605 [5]
2 767 [5]
64 893 [5]
209 495 [5]
5 676 [5]
0 831 [5]
7 615 [5]
76 524 [5]
0 832 [5]
7 616 [5]
7 619 [5]
2 782 [5]
7 635 [5]
1 821 [5]
0 853 [5]
131 890 [5]
0 860 [5]
0 861 [5]
7 645 [5]
7 649 [5]
2 804 [5]
77 529 [5]
8 621 [5]
7 653 [5]
69 780 [5]
6 695 [5]
7 668 [5]
7 669 [5]
0 886 [5]
7 673 [5]
7 674 [5]
8 643 [5]
0 892 [5]
7 677 [5]
7 680 [5]
147 436 [5]
141 626 [5]
8 653 [5]
344 478 [5]
7 689 [5]
5 752 [5]
7 691 [5]
10 600 [5]
7 695 [5]
10 603 [5]
9 635 [5]
9 636 [5]
145 516 [5]
10 606 [5]
216 366 [5]
9 641 [5]
10 610 [5]
2 860 [5]
219 278 [5]
5 768 [5]
0 923 [5]
9 645 [5]
8 676 [5]
9 646 [5]
10 615 [5]
10 616 [5]
216 374 [5]
10 617 [5]
11 586 [5]
10 619 [5]
10 620 [5]
0 933 [5]
11 593 [5]
10 625 [5]
7 719 [5]
10 630 [5]
79 540 [5]
10 632 [5]
8 695 [5]
10 635 [5]
344 524 [5]
147 489 [5]
0 950 [5]
2 890 [5]
5 797 [5]
0 952 [5]
11 613 [5]
5 799 [5]
344 531 [5]
219 317 [5]
147 502 [5]
83 446 [5]
77 637 [5]
0 976 [5]
11 642 [5]
1 955 [5]
12 616 [5]
7 775 [5]
5 838 [5]
1 962 [5]
14 561 [5]
73 780 [5]
1 964 [5]
69 907 [5]
145 599 [5]
14 571 [5]
12 635 [5]
14 575 [5]
83 490 [5]
141 744 [5]
347 506 [5]
204 847 [5]
219 384 [5]
348 482 [5]
14 598 [5]
14 603 [5]
14 606 [5]
137 889 [5]
7 824 [5]
10 740 [5]
10 747 [5]
16 561 [5]
137 906 [5]
9 784 [5]
6 878 [5]
76 757 [5]
6 879 [5]
16 571 [5]
348 519 [5]
75 791 [5]
16 575 [5]
6 891 [5]
219 436 [5]
85 495 [5]
219 440 [5]
4 962 [5]
17 561 [5]
16 595 [5]
16 598 [5]
16 600 [5]
7 884 [5]
80 669 [5]
9 823 [5]
17 575 [5]
21 452 [5]
12 740 [5]
11 773 [5]
18 558 [5]
202 998 [5]
5 964 [5]
16 625 [5]
73 907 [5]
6 942 [5]
141 858 [5]
219 489 [5]
7 920 [5]
7 927 [5]
8 899 [5]
6 961 [5]
7 931 [5]
7 932 [5]
7 934 [5]
8 904 [5]
6 966 [5]
7 937 [5]
139 941 [5]
216 604 [5]
9 879 [5]
350 548 [5]
7 942 [5]
13 757 [5]
8 914 [5]
7 946 [5]
9 884 [5]
7 947 [5]
221 459 [5]
403 961 [5]
9 888 [5]
8 920 [5]
9 891 [5]
8 927 [5]
605 852 [5]
9 898 [5]
9 899 [5]
8 932 [5]
344 757 [5]
8 934 [5]
10 875 [5]
10 876 [5]
8 939 [5]
10 877 [5]
11 846 [5]
13 785 [5]
8 942 [5]
92 387 [5]
9 913 [5]
10 882 [5]
9 917 [5]
11 857 [5]
9 920 [5]
10 891 [5]
227 311 [5]
10 896 [5]
227 319 [5]
11 872 [5]
75 941 [5]
11 881 [5]
21 573 [5]
75 948 [5]
21 579 [5]
141 957 [5]
90 502 [5]
82 752 [5]
12 875 [5]
277 852 [5]
21 596 [5]
10 938 [5]
90 509 [5]
12 883 [5]
79 863 [5]
227 372 [5]
16 776 [5]
356 480 [5]
10 967 [5]
13 877 [5]
38 108 [5]
13 885 [5]
14 859 [5]
91 521 [5]
13 891 [5]
356 507 [5]
14 876 [5]
14 887 [5]
16 830 [5]
15 862 [5]
12 967 [5]
294 422 [5]
357 522 [5]
97 396 [5]
27 521 [5]
27 524 [5]
27 528 [5]
16 873 [5]
28 503 [5]
14 938 [5]
16 876 [5]
21 722 [5]
27 536 [5]
27 542 [5]
16 887 [5]
27 546 [5]
28 518 [5]
145 999 [5]
28 542 [5]
90 670 [5]
14 981 [5]
27 588 [5]
29 529 [5]
356 639 [5]
29 537 [5]
18 889 [5]
27 611 [5]
99 430 [5]
227 567 [5]
221 754 [5]
18 906 [5]
97 506 [5]
21 815 [5]
27 633 [5]
299 394 [5]
82 979 [5]
97 516 [5]
16 981 [5]
21 833 [5]
227 594 [5]
27 655 [5]
27 659 [5]
99 480 [5]
233 427 [5]
17 981 [5]
31 552 [5]
233 437 [5]
27 683 [5]
22 838 [5]
32 529 [5]
229 566 [5]
28 655 [5]
97 564 [5]
21 874 [5]
99 507 [5]
101 446 [5]
104 365 [5]
233 469 [5]
85 961 [5]
23 846 [5]
29 663 [5]
27 737 [5]
38 398 [5]
23 871 [5]
35 503 [5]
100 540 [5]
238 364 [5]
100 549 [5]
28 737 [5]
27 768 [5]
232 558 [5]
35 528 [5]
24 869 [5]
38 439 [5]
91 847 [5]
28 752 [5]
33 597 [5]
106 383 [5]
238 393 [5]
359 738 [5]
107 380 [5]
357 825 [5]
176 298 [5]
176 299 [5]
294 738 [5]
27 827 [5]
38 491 [5]
103 524 [5]
238 443 [5]
27 845 [5]
27 847 [5]
38 508 [5]
28 827 [5]
38 518 [5]
33 674 [5]
27 864 [5]
233 626 [5]
28 845 [5]
27 876 [5]
38 536 [5]
107 448 [5]
28 864 [5]
33 714 [5]
35 655 [5]
158 941 [5]
39 534 [5]
35 659 [5]
28 876 [5]
39 541 [5]
176 394 [5]
174 459 [5]
178 335 [5]
109 427 [5]
38 588 [5]
38 589 [5]
35 683 [5]
109 437 [5]
109 441 [5]
39 564 [5]
33 759 [5]
99 764 [5]
423 961 [5]
38 611 [5]
99 769 [5]
32 799 [5]
30 862 [5]
42 495 [5]
109 469 [5]
178 383 [5]
106 570 [5]
27 978 [5]
27 979 [5]
39 610 [5]
233 744 [5]
39 617 [5]
31 867 [5]
33 811 [5]
27 998 [5]
33 813 [5]
175 521 [5]
29 961 [5]
28 993 [5]
33 842 [5]
28 998 [5]
113 421 [5]
31 918 [5]
113 435 [5]
111 506 [5]
166 851 [5]
309 517 [5]
176 544 [5]
36 789 [5]
295 961 [5]
100 863 [5]
33 897 [5]
113 468 [5]
35 845 [5]
179 480 [5]
232 889 [5]
233 858 [5]
39 728 [5]
38 760 [5]
39 729 [5]
106 710 [5]
232 906 [5]
109 626 [5]
111 564 [5]
97 999 [5]
179 507 [5]
100 924 [5]
113 522 [5]
238 743 [5]
178 570 [5]
171 799 [5]
38 827 [5]
47 554 [5]
47 555 [5]
106 777 [5]
33 992 [5]
47 559 [5]
39 814 [5]
119 383 [5]
51 448 [5]
0 2 [6]
0 4 [6]
0 5 [6]
371 797 [6]
38 892 [6]
1 2 [6]
1 4 [6]
179 639 [6]
51 523 [6]
43 772 [6]
2 3 [6]
44 753 [6]
185 494 [6]
185 511 [6]
39 996 [6]
45 839 [6]
66 201 [6]
51 694 [6]
51 714 [6]
382 713 [6]
51 759 [6]
51 762 [6]
51 774 [6]
10 20 [6]
54 713 [6]
51 813 [6]
189 643 [6]
51 837 [6]
263 414 [6]
51 844 [6]
377 979 [6]
56 696 [6]
56 702 [6]
73 185 [6]
3 317 [6]
56 723 [6]
581 842 [6]
0 425 [6]
3 336 [6]
0 429 [6]
0 430 [6]
3 339 [6]
3 341 [6]
0 434 [6]
3 342 [6]
3 350 [6]
0 448 [6]
0 451 [6]
0 452 [6]
3 361 [6]
0 455 [6]
0 459 [6]
0 460 [6]
3 368 [6]
0 462 [6]
3 375 [6]
6 284 [6]
6 286 [6]
3 380 [6]
5 319 [6]
6 289 [6]
0 475 [6]
3 384 [6]
6 291 [6]
0 477 [6]
0 478 [6]
5 324 [6]
5 325 [6]
6 294 [6]
0 481 [6]
79 80 [6]
8 234 [6]
450 869 [6]
8 236 [6]
0 484 [6]
8 237 [6]
5 330 [6]
8 238 [6]
5 331 [6]
8 239 [6]
0 487 [6]
10 178 [6]
6 302 [6]
8 243 [6]
0 491 [6]
10 182 [6]
10 183 [6]
5 339 [6]
6 308 [6]
8 248 [6]
5 341 [6]
8 250 [6]
8 251 [6]
3 407 [6]
7 284 [6]
8 253 [6]
5 346 [6]
79 100 [6]
8 254 [6]
7 286 [6]
10 193 [6]
3 410 [6]
6 317 [6]
7 287 [6]
10 195 [6]
10 196 [6]
6 320 [6]
5 352 [6]
7 291 [6]
10 198 [6]
8 261 [6]
5 354 [6]
9 233 [6]
8 265 [6]
9 234 [6]
8 266 [6]
10 205 [6]
5 361 [6]
6 330 [6]
8 269 [6]
9 238 [6]
5 362 [6]
0 517 [6]
7 301 [6]
9 239 [6]
10 208 [6]
6 332 [6]
0 518 [6]
7 302 [6]
8 271 [6]
5 364 [6]
8 272 [6]
5 365 [6]
8 273 [6]
5 366 [6]
0 521 [6]
8 274 [6]
6 336 [6]
8 275 [6]
10 213 [6]
16 27 [6]
6 337 [6]
6 338 [6]
0 524 [6]
5 371 [6]
5 372 [6]
8 280 [6]
5 373 [6]
6 342 [6]
8 281 [6]
5 374 [6]
8 283 [6]
11 190 [6]
5 376 [6]
0 531 [6]
9 253 [6]
5 377 [6]
6 346 [6]
8 285 [6]
10 223 [6]
3 440 [6]
7 317 [6]
8 286 [6]
10 224 [6]
8 287 [6]
5 380 [6]
7 320 [6]
8 289 [6]
6 351 [6]
8 290 [6]
8 291 [6]
5 385 [6]
7 324 [6]
8 293 [6]
5 386 [6]
8 294 [6]
10 233 [6]
5 388 [6]
10 234 [6]
9 266 [6]
10 235 [6]
5 390 [6]
6 359 [6]
8 298 [6]
10 236 [6]
8 299 [6]
10 237 [6]
386 869 [6]
0 547 [6]
7 331 [6]
10 238 [6]
5 393 [6]
7 332 [6]
8 301 [6]
10 239 [6]
9 271 [6]
10 240 [6]
5 395 [6]
5 396 [6]
8 304 [6]
5 397 [6]
6 366 [6]
7 336 [6]
9 274 [6]
10 243 [6]
6 367 [6]
7 337 [6]
9 275 [6]
6 368 [6]
7 338 [6]
9 276 [6]
5 400 [6]
6 369 [6]
7 339 [6]
8 308 [6]
11 216 [6]
6 371 [6]
1 526 [6]
7 341 [6]
8 310 [6]
10 248 [6]
13 155 [6]
8 311 [6]
1 528 [6]
9 281 [6]
10 250 [6]
6 374 [6]
1 529 [6]
13 157 [6]
10 251 [6]
6 375 [6]
9 283 [6]
5 407 [6]
2 500 [6]
9 284 [6]
1 532 [6]
10 254 [6]
3 471 [6]
8 317 [6]
5 410 [6]
7 350 [6]
8 319 [6]
10 257 [6]
14 133 [6]
5 412 [6]
8 321 [6]
6 383 [6]
9 291 [6]
5 415 [6]
6 384 [6]
13 167 [6]
8 323 [6]
5 416 [6]
8 324 [6]
8 325 [6]
9 294 [6]
5 418 [6]
6 387 [6]
13 170 [6]
6 388 [6]
3 483 [6]
8 329 [6]
5 422 [6]
1 546 [6]
7 361 [6]
5 424 [6]
13 176 [6]
9 302 [6]
10 272 [6]
7 366 [6]
9 304 [6]
5 428 [6]
1 552 [6]
8 336 [6]
5 429 [6]
1 553 [6]
8 337 [6]
10 275 [6]
5 430 [6]
1 554 [6]
7 369 [6]
10 276 [6]
5 431 [6]
1 555 [6]
8 339 [6]
9 308 [6]
7 371 [6]
6 402 [6]
8 341 [6]
9 310 [6]
79 188 [6]
1 558 [6]
5 434 [6]
8 342 [6]
10 280 [6]
6 404 [6]
1 559 [6]
13 187 [6]
7 374 [6]
8 343 [6]
14 157 [6]
7 375 [6]
1 561 [6]
7 376 [6]
10 283 [6]
8 346 [6]
10 284 [6]
1 563 [6]
10 285 [6]
1 564 [6]
10 286 [6]
11 255 [6]
14 162 [6]
9 318 [6]
8 350 [6]
5 443 [6]
8 351 [6]
9 320 [6]
8 352 [6]
5 445 [6]
7 384 [6]
5 446 [6]
7 385 [6]
8 354 [6]
10 292 [6]
0 602 [6]
8 355 [6]
9 324 [6]
14 169 [6]
5 448 [6]
14 170 [6]
1 573 [6]
5 450 [6]
1 574 [6]
8 358 [6]
16 110 [6]
5 451 [6]
1 575 [6]
8 359 [6]
11 266 [6]
8 360 [6]
1 577 [6]
8 361 [6]
9 330 [6]
8 362 [6]
9 331 [6]
1 579 [6]
5 456 [6]
8 364 [6]
5 457 [6]
8 365 [6]
9 334 [6]
1 582 [6]
13 210 [6]
7 397 [6]
8 366 [6]
10 304 [6]
8 367 [6]
8 368 [6]
8 369 [6]
10 307 [6]
12 246 [6]
3 525 [6]
1 587 [6]
7 402 [6]
16 123 [6]
5 464 [6]
8 372 [6]
14 186 [6]
13 217 [6]
7 404 [6]
8 374 [6]
10 312 [6]
11 282 [6]
7 407 [6]
8 376 [6]
9 345 [6]
16 128 [6]
6 438 [6]
16 129 [6]
10 316 [6]
5 471 [6]
6 440 [6]
7 410 [6]
16 131 [6]
16 133 [6]
7 413 [6]
8 384 [6]
14 198 [6]
16 136 [6]
10 323 [6]
7 418 [6]
16 139 [6]
14 202 [6]
8 389 [6]
7 421 [6]
9 359 [6]
5 483 [6]
10 329 [6]
14 205 [6]
3 548 [6]
16 146 [6]
8 401 [6]
16 155 [6]
1 623 [6]
7 438 [6]
10 345 [6]
1 624 [6]
8 409 [6]
16 161 [6]
8 410 [6]
16 162 [6]
4 534 [6]
1 627 [6]
14 225 [6]
1 629 [6]
16 167 [6]
1 632 [6]
16 169 [6]
16 170 [6]
1 635 [6]
0 666 [6]
1 636 [6]
8 420 [6]
79 267 [6]
1 637 [6]
14 236 [6]
16 176 [6]
1 641 [6]
7 457 [6]
1 646 [6]
0 678 [6]
9 401 [6]
1 649 [6]
0 680 [6]
0 681 [6]
16 186 [6]
16 187 [6]
3 591 [6]
1 654 [6]
7 471 [6]
8 440 [6]
1 657 [6]
0 689 [6]
1 659 [6]
0 690 [6]
14 257 [6]
14 258 [6]
8 445 [6]
16 198 [6]
5 539 [6]
0 694 [6]
1 664 [6]
0 696 [6]
0 697 [6]
16 202 [6]
5 543 [6]
1 667 [6]
1 668 [6]
0 699 [6]
7 483 [6]
16 205 [6]
1 671 [6]
0 702 [6]
16 207 [6]
1 672 [6]
11 363 [6]
0 704 [6]
8 457 [6]
16 210 [6]
1 678 [6]
10 401 [6]
1 680 [6]
0 712 [6]
8 465 [6]
16 217 [6]
0 713 [6]
22 32 [6]
0 714 [6]
6 530 [6]
13 313 [6]
9 438 [6]
13 314 [6]
1 688 [6]
1 689 [6]
16 225 [6]
16 227 [6]
22 41 [6]
0 723 [6]
1 693 [6]
0 724 [6]
17 198 [6]
1 694 [6]
1 697 [6]
0 728 [6]
6 543 [6]
0 729 [6]
8 483 [6]
2 670 [6]
2 671 [6]
0 733 [6]
2 672 [6]
0 734 [6]
5 580 [6]
2 674 [6]
4 613 [6]
6 551 [6]
4 615 [6]
0 739 [6]
4 616 [6]
85 154 [6]
7 525 [6]
5 590 [6]
139 533 [6]
5 591 [6]
7 530 [6]
5 594 [6]
2 689 [6]
2 690 [6]
16 257 [6]
10 444 [6]
5 599 [6]
0 754 [6]
2 693 [6]
6 569 [6]
7 539 [6]
2 694 [6]
6 570 [6]
5 602 [6]
79 357 [6]
10 449 [6]
2 697 [6]
5 604 [6]
0 759 [6]
7 543 [6]
8 512 [6]
2 698 [6]
2 699 [6]
0 761 [6]
0 762 [6]
2 701 [6]
2 702 [6]
1 733 [6]
7 548 [6]
4 641 [6]
0 765 [6]
74 520 [6]
2 704 [6]
403 562 [6]
7 551 [6]
2 706 [6]
4 649 [6]
2 712 [6]
10 465 [6]
8 527 [6]
2 713 [6]
2 714 [6]
2 715 [6]
2 716 [6]
1 747 [6]
4 657 [6]
13 378 [6]
1 751 [6]
8 535 [6]
5 628 [6]
17 257 [6]
4 660 [6]
21 134 [6]
7 569 [6]
8 538 [6]
2 724 [6]
18 232 [6]
6 604 [6]
9 512 [6]
8 544 [6]
4 670 [6]
2 733 [6]
10 486 [6]
2 734 [6]
4 672 [6]
4 673 [6]
20 178 [6]
600 630 [6]
8 551 [6]
2 739 [6]
3 708 [6]
14 370 [6]
4 680 [6]
10 496 [6]
7 591 [6]
2 746 [6]
9 530 [6]
16 313 [6]
13 406 [6]
16 314 [6]
21 160 [6]
5 656 [6]
14 378 [6]
4 689 [6]
0 813 [6]
2 752 [6]
4 690 [6]
6 628 [6]
8 567 [6]
2 753 [6]
2 756 [6]
2 758 [6]
6 634 [6]
7 604 [6]
2 759 [6]
5 666 [6]
4 697 [6]
2 761 [6]
2 762 [6]
6 638 [6]
0 824 [6]
4 701 [6]
2 763 [6]
18 268 [6]
22 145 [6]
22 148 [6]
8 584 [6]
14 399 [6]
2 771 [6]
22 152 [6]
597 759 [6]
4 711 [6]
2 774 [6]
0 836 [6]
10 527 [6]
0 837 [6]
10 530 [6]
14 406 [6]
0 840 [6]
8 594 [6]
2 781 [6]
7 628 [6]
2 783 [6]
4 721 [6]
2 785 [6]
0 847 [6]
9 569 [6]
2 786 [6]
8 604 [6]
2 790 [6]
4 728 [6]
20 233 [6]
22 171 [6]
4 729 [6]
18 296 [6]
2 792 [6]
1 823 [6]
7 638 [6]
2 793 [6]
4 731 [6]
1 824 [6]
2 795 [6]
4 733 [6]
18 300 [6]
2 796 [6]
9 580 [6]
4 735 [6]
2 797 [6]
20 240 [6]
2 798 [6]
4 740 [6]
4 741 [6]
20 246 [6]
2 805 [6]
2 807 [6]
2 808 [6]
4 746 [6]
13 467 [6]
2 809 [6]
2 810 [6]
4 748 [6]
7 656 [6]
2 811 [6]
4 753 [6]
25 105 [6]
5 726 [6]
8 634 [6]
5 727 [6]
14 449 [6]
2 822 [6]
88 206 [6]
2 824 [6]
23 174 [6]
2 826 [6]
2 827 [6]
2 828 [6]
2 829 [6]
2 830 [6]
0 893 [6]
6 710 [6]
8 650 [6]
2 836 [6]
5 743 [6]
1 867 [6]
2 837 [6]
1 870 [6]
6 717 [6]
8 656 [6]
7 687 [6]
2 842 [6]
2 843 [6]
5 750 [6]
8 658 [6]
2 844 [6]
9 631 [6]
9 634 [6]
2 852 [6]
2 855 [6]
2 857 [6]
1 889 [6]
2 859 [6]
0 922 [6]
8 675 [6]
25 149 [6]
6 738 [6]
7 708 [6]
2 865 [6]
9 650 [6]
23 221 [6]
22 252 [6]
2 872 [6]
9 656 [6]
2 873 [6]
0 936 [6]
1 906 [6]
20 318 [6]
2 877 [6]
10 631 [6]
27 104 [6]
5 788 [6]
0 943 [6]
7 727 [6]
4 820 [6]
16 449 [6]
2 883 [6]
1 915 [6]
27 110 [6]
2 885 [6]
4 823 [6]
1 918 [6]
2 891 [6]
9 675 [6]
20 334 [6]
20 335 [6]
2 894 [6]
2 896 [6]
25 184 [6]
2 897 [6]
0 959 [6]
27 123 [6]
2 898 [6]
1 930 [6]
10 652 [6]
1 931 [6]
16 467 [6]
6 777 [6]
4 840 [6]
27 128 [6]
2 903 [6]
9 687 [6]
1 935 [6]
2 905 [6]
20 349 [6]
27 133 [6]
23 259 [6]
27 135 [6]
2 910 [6]
27 136 [6]
8 727 [6]
2 913 [6]
17 449 [6]
27 139 [6]
2 914 [6]
28 110 [6]
23 266 [6]
8 732 [6]
2 919 [6]
2 920 [6]
597 908 [6]
8 738 [6]
2 925 [6]
2 928 [6]
0 991 [6]
0 993 [6]
28 128 [6]
2 934 [6]
10 687 [6]
8 750 [6]
6 812 [6]
28 133 [6]
2 939 [6]
2 940 [6]
28 135 [6]
2 941 [6]
4 881 [6]
1 978 [6]
2 948 [6]
5 856 [6]
27 175 [6]
22 333 [6]
2 959 [6]
9 745 [6]
403 821 [6]
1 995 [6]
2 965 [6]
20 411 [6]
2 969 [6]
2 972 [6]
2 973 [6]
2 974 [6]
2 975 [6]
2 977 [6]
2 980 [6]
3 949 [6]
3 951 [6]
2 983 [6]
4 921 [6]
2 984 [6]
11 707 [6]
2 986 [6]
2 987 [6]
3 956 [6]
2 989 [6]
10 745 [6]
5 900 [6]
7 841 [6]
2 997 [6]
7 843 [6]
8 812 [6]
7 846 [6]
7 848 [6]
8 817 [6]
5 911 [6]
7 850 [6]
6 883 [6]
7 854 [6]
7 857 [6]
8 826 [6]
6 888 [6]
8 828 [6]
8 832 [6]
6 894 [6]
8 833 [6]
8 835 [6]
6 898 [6]
7 868 [6]
7 871 [6]
7 872 [6]
8 841 [6]
4 967 [6]
6 905 [6]
7 875 [6]
9 814 [6]
8 846 [6]
9 815 [6]
9 816 [6]
7 879 [6]
9 817 [6]
6 910 [6]
6 911 [6]
8 850 [6]
7 883 [6]
6 914 [6]
27 264 [6]
6 917 [6]
10 795 [6]
6 919 [6]
98 116 [6]
6 920 [6]
8 859 [6]
9 828 [6]
9 833 [6]
8 865 [6]
6 927 [6]
277 719 [6]
6 928 [6]
10 806 [6]
10 809 [6]
11 779 [6]
9 842 [6]
8 873 [6]
10 814 [6]
28 256 [6]
9 846 [6]
10 815 [6]
9 848 [6]
10 817 [6]
10 819 [6]
8 886 [6]
6 949 [6]
10 826 [6]
6 951 [6]
33 117 [6]
10 831 [6]
10 832 [6]
6 956 [6]
10 833 [6]
8 900 [6]
8 911 [6]
8 912 [6]
403 955 [6]
7 949 [6]
6 982 [6]
8 926 [6]
10 873 [6]
9 912 [6]
22 513 [6]
8 949 [6]
8 950 [6]
8 951 [6]
8 952 [6]
34 149 [6]
8 956 [6]
8 958 [6]
36 90 [6]
27 370 [6]
7 992 [6]
10 912 [6]
8 982 [6]
8 984 [6]
10 926 [6]
9 958 [6]
478 757 [6]
100 188 [6]
10 950 [6]
16 767 [6]
36 147 [6]
10 958 [6]
23 560 [6]
36 159 [6]
16 785 [6]
16 791 [6]
38 110 [6]
85 704 [6]
10 989 [6]
39 92 [6]
38 128 [6]
39 97 [6]
38 129 [6]
38 131 [6]
38 135 [6]
33 297 [6]
39 111 [6]
85 734 [6]
39 112 [6]
14 890 [6]
11 988 [6]
86 716 [6]
477 893 [6]
39 140 [6]
87 702 [6]
16 861 [6]
22 676 [6]
14 933 [6]
23 662 [6]
25 601 [6]
13 976 [6]
16 890 [6]
39 181 [6]
21 741 [6]
38 225 [6]
20 794 [6]
20 803 [6]
21 772 [6]
85 836 [6]
39 222 [6]
38 256 [6]
25 661 [6]
480 905 [6]
39 247 [6]
20 839 [6]
16 976 [6]
25 703 [6]
38 305 [6]
25 713 [6]
23 779 [6]
479 986 [6]
25 730 [6]
86 925 [6]
33 523 [6]
26 741 [6]
93 714 [6]
27 716 [6]
39 347 [6]
21 921 [6]
26 772 [6]
48 90 [6]
36 466 [6]
49 72 [6]
27 755 [6]
550 928 [6]
93 762 [6]
42 295 [6]
27 767 [6]
22 929 [6]
94 753 [6]
45 233 [6]
48 147 [6]
50 86 [6]
48 159 [6]
93 813 [6]
50 98 [6]
50 102 [6]
29 761 [6]
50 116 [6]
48 180 [6]
93 837 [6]
49 156 [6]
51 107 [6]
51 117 [6]
98 716 [6]
39 498 [6]
45 318 [6]
421 960 [6]
552 997 [6]
50 175 [6]
26 921 [6]
45 334 [6]
38 556 [6]
27 925 [6]
38 585 [6]
309 379 [6]
45 411 [6]
565 679 [6]
179 417 [6]
38 696 [6]
51 297 [6]
38 702 [6]
558 970 [6]
38 712 [6]
39 686 [6]
38 723 [6]
889 970 [6]
295 955 [6]
98 925 [6]
57 174 [6]
48 466 [6]
57 221 [6]
309 609 [6]
42 704 [6]
565 882 [6]
34 994 [7]
0 9 [7]
0 10 [7]
0 11 [7]
0 13 [7]
0 14 [7]
38 886 [7]
0 16 [7]
56 329 [7]
0 17 [7]
36 951 [7]
0 19 [7]
0 21 [7]
124 274 [7]
0 22 [7]
0 23 [7]
36 956 [7]
0 24 [7]
0 25 [7]
0 26 [7]
0 29 [7]
0 32 [7]
1 7 [7]
1 8 [7]
1 9 [7]
1 10 [7]
0 41 [7]
61 199 [7]
1 12 [7]
0 43 [7]
1 13 [7]
1 20 [7]
0 57 [7]
0 59 [7]
39 900 [7]
0 62 [7]
0 65 [7]
50 567 [7]
2 10 [7]
2 11 [7]
2 12 [7]
2 13 [7]
2 14 [7]
1 45 [7]
2 15 [7]
2 16 [7]
2 17 [7]
38 950 [7]
2 18 [7]
2 19 [7]
38 952 [7]
2 20 [7]
2 22 [7]
2 23 [7]
2 24 [7]
2 25 [7]
2 27 [7]
64 155 [7]
2 29 [7]
2 34 [7]
50 594 [7]
3 4 [7]
48 658 [7]
64 167 [7]
61 263 [7]
42 853 [7]
2 45 [7]
1 78 [7]
64 176 [7]
2 57 [7]
2 59 [7]
64 187 [7]
2 62 [7]
2 65 [7]
128 256 [7]
4 5 [7]
4 6 [7]
4 7 [7]
4 8 [7]
4 9 [7]
4 10 [7]
4 11 [7]
4 12 [7]
2 78 [7]
4 20 [7]
64 210 [7]
2 84 [7]
49 675 [7]
4 23 [7]
64 217 [7]
4 45 [7]
0 171 [7]
128 305 [7]
57 459 [7]
4 57 [7]
4 62 [7]
61 348 [7]
68 134 [7]
64 260 [7]
4 78 [7]
0 203 [7]
2 143 [7]
64 270 [7]
45 866 [7]
68 160 [7]
56 538 [7]
0 230 [7]
69 150 [7]
0 242 [7]
2 184 [7]
64 313 [7]
64 314 [7]
61 414 [7]
68 218 [7]
45 972 [7]
2 277 [7]
322 609 [7]
51 829 [7]
50 861 [7]
64 442 [7]
48 944 [7]
4 277 [7]
64 467 [7]
75 139 [7]
196 486 [7]
75 158 [7]
75 161 [7]
2 391 [7]
50 976 [7]
75 227 [7]
75 229 [7]
56 832 [7]
1 500 [7]
80 100 [7]
203 385 [7]
64 607 [7]
79 144 [7]
203 397 [7]
80 114 [7]
75 273 [7]
79 153 [7]
75 279 [7]
203 412 [7]
56 886 [7]
80 144 [7]
80 153 [7]
79 190 [7]
75 321 [7]
80 172 [7]
80 190 [7]
56 952 [7]
83 121 [7]
83 130 [7]
2 605 [7]
3 578 [7]
3 581 [7]
0 676 [7]
1 647 [7]
3 586 [7]
3 592 [7]
203 539 [7]
82 207 [7]
10 393 [7]
10 396 [7]
3 613 [7]
11 366 [7]
10 400 [7]
10 402 [7]
10 404 [7]
80 282 [7]
11 374 [7]
11 375 [7]
10 408 [7]
10 412 [7]
143 386 [7]
10 416 [7]
10 419 [7]
4 605 [7]
10 422 [7]
9 455 [7]
10 424 [7]
10 425 [7]
3 642 [7]
9 459 [7]
8 491 [7]
9 462 [7]
8 499 [7]
9 468 [7]
10 437 [7]
9 469 [7]
8 500 [7]
8 501 [7]
9 470 [7]
8 502 [7]
8 503 [7]
8 504 [7]
5 597 [7]
9 474 [7]
3 660 [7]
8 506 [7]
8 507 [7]
8 508 [7]
10 446 [7]
8 509 [7]
10 447 [7]
8 510 [7]
9 480 [7]
9 482 [7]
10 451 [7]
8 514 [7]
9 484 [7]
8 516 [7]
7 549 [7]
8 518 [7]
9 487 [7]
10 456 [7]
3 674 [7]
7 552 [7]
9 490 [7]
7 553 [7]
8 522 [7]
10 460 [7]
3 677 [7]
7 555 [7]
10 462 [7]
8 526 [7]
12 402 [7]
7 558 [7]
5 620 [7]
7 559 [7]
8 528 [7]
5 622 [7]
9 499 [7]
5 623 [7]
10 469 [7]
9 500 [7]
9 501 [7]
10 470 [7]
2 719 [7]
10 472 [7]
5 627 [7]
8 534 [7]
78 413 [7]
1 752 [7]
8 536 [7]
10 474 [7]
5 629 [7]
3 691 [7]
8 537 [7]
9 506 [7]
12 413 [7]
15 320 [7]
5 630 [7]
9 507 [7]
143 450 [7]
5 632 [7]
3 694 [7]
8 540 [7]
10 478 [7]
8 541 [7]
9 510 [7]
10 479 [7]
14 355 [7]
8 542 [7]
5 635 [7]
5 636 [7]
7 576 [7]
8 546 [7]
10 484 [7]
14 360 [7]
9 516 [7]
9 517 [7]
85 209 [7]
8 549 [7]
13 394 [7]
7 581 [7]
8 550 [7]
9 519 [7]
85 211 [7]
7 582 [7]
11 458 [7]
8 552 [7]
10 490 [7]
10 491 [7]
1 770 [7]
8 554 [7]
5 647 [7]
1 771 [7]
7 586 [7]
8 555 [7]
1 772 [7]
3 711 [7]
8 557 [7]
9 526 [7]
1 774 [7]
8 558 [7]
6 620 [7]
8 559 [7]
85 220 [7]
3 714 [7]
7 592 [7]
8 561 [7]
11 468 [7]
7 593 [7]
75 533 [7]
8 563 [7]
9 532 [7]
3 718 [7]
8 564 [7]
1 781 [7]
7 596 [7]
8 565 [7]
10 503 [7]
9 534 [7]
10 504 [7]
1 783 [7]
6 629 [7]
10 506 [7]
1 785 [7]
1 786 [7]
10 508 [7]
12 446 [7]
85 231 [7]
8 571 [7]
9 540 [7]
12 447 [7]
13 416 [7]
8 572 [7]
9 541 [7]
14 386 [7]
8 573 [7]
8 574 [7]
6 636 [7]
10 515 [7]
6 641 [7]
1 798 [7]
85 244 [7]
1 800 [7]
6 646 [7]
10 524 [7]
6 648 [7]
7 618 [7]
6 649 [7]
8 588 [7]
10 528 [7]
10 529 [7]
16 343 [7]
10 531 [7]
9 564 [7]
75 566 [7]
4 719 [7]
6 657 [7]
64 909 [7]
10 536 [7]
6 660 [7]
14 416 [7]
16 354 [7]
344 426 [7]
1 819 [7]
9 574 [7]
16 358 [7]
6 668 [7]
10 545 [7]
7 642 [7]
8 611 [7]
3 766 [7]
1 828 [7]
10 550 [7]
1 829 [7]
16 365 [7]
6 677 [7]
7 647 [7]
8 618 [7]
15 404 [7]
1 838 [7]
14 439 [7]
16 377 [7]
10 564 [7]
1 844 [7]
9 597 [7]
6 691 [7]
1 848 [7]
4 756 [7]
1 849 [7]
7 664 [7]
8 633 [7]
1 850 [7]
13 478 [7]
3 789 [7]
14 450 [7]
87 236 [7]
1 854 [7]
16 390 [7]
84 331 [7]
7 670 [7]
4 763 [7]
16 394 [7]
86 273 [7]
4 770 [7]
4 771 [7]
4 772 [7]
9 618 [7]
10 588 [7]
4 775 [7]
1 869 [7]
9 624 [7]
8 655 [7]
0 904 [7]
9 626 [7]
16 409 [7]
14 472 [7]
3 813 [7]
7 690 [7]
4 783 [7]
10 599 [7]
4 786 [7]
14 478 [7]
10 602 [7]
64 976 [7]
8 665 [7]
7 698 [7]
4 792 [7]
597 842 [7]
15 453 [7]
8 670 [7]
4 795 [7]
4 796 [7]
10 611 [7]
4 797 [7]
16 428 [7]
13 521 [7]
4 801 [7]
9 647 [7]
7 709 [7]
4 802 [7]
143 590 [7]
8 679 [7]
13 524 [7]
4 805 [7]
2 869 [7]
7 717 [7]
13 531 [7]
16 439 [7]
10 626 [7]
14 503 [7]
203 788 [7]
8 690 [7]
4 814 [7]
7 722 [7]
19 350 [7]
4 815 [7]
4 818 [7]
10 633 [7]
4 819 [7]
11 604 [7]
2 884 [7]
8 698 [7]
4 826 [7]
4 828 [7]
21 302 [7]
10 647 [7]
15 492 [7]
8 709 [7]
4 833 [7]
4 834 [7]
21 310 [7]
18 404 [7]
22 280 [7]
75 685 [7]
22 281 [7]
15 499 [7]
10 655 [7]
14 531 [7]
22 283 [7]
8 717 [7]
4 841 [7]
8 720 [7]
85 381 [7]
10 659 [7]
15 504 [7]
9 690 [7]
22 289 [7]
8 724 [7]
4 848 [7]
4 849 [7]
4 850 [7]
3 881 [7]
10 666 [7]
4 852 [7]
4 854 [7]
4 855 [7]
4 857 [7]
8 737 [7]
10 679 [7]
7 773 [7]
22 308 [7]
4 866 [7]
10 683 [7]
8 752 [7]
3 908 [7]
20 383 [7]
22 323 [7]
8 758 [7]
7 789 [7]
8 760 [7]
14 574 [7]
6 823 [7]
10 700 [7]
1 979 [7]
22 330 [7]
21 362 [7]
69 923 [7]
1 983 [7]
8 769 [7]
4 895 [7]
21 369 [7]
20 402 [7]
14 589 [7]
15 558 [7]
14 590 [7]
7 807 [7]
16 535 [7]
9 754 [7]
22 351 [7]
22 352 [7]
10 724 [7]
21 385 [7]
3 947 [7]
9 764 [7]
27 207 [7]
21 395 [7]
10 737 [7]
20 427 [7]
9 769 [7]
21 397 [7]
733 855 [7]
21 400 [7]
10 743 [7]
10 744 [7]
22 373 [7]
20 437 [7]
10 748 [7]
8 810 [7]
21 408 [7]
20 441 [7]
4 937 [7]
25 287 [7]
21 412 [7]
27 227 [7]
11 725 [7]
10 757 [7]
21 418 [7]
22 387 [7]
13 666 [7]
10 760 [7]
22 388 [7]
8 822 [7]
9 792 [7]
8 825 [7]
27 236 [7]
28 205 [7]
28 207 [7]
21 425 [7]
25 301 [7]
22 396 [7]
27 243 [7]
15 615 [7]
22 401 [7]
7 866 [7]
79 682 [7]
7 867 [7]
15 619 [7]
16 589 [7]
9 807 [7]
7 870 [7]
14 655 [7]
20 469 [7]
21 438 [7]
10 780 [7]
11 749 [7]
5 935 [7]
7 874 [7]
27 260 [7]
22 415 [7]
10 788 [7]
27 261 [7]
24 355 [7]
25 324 [7]
27 265 [7]
24 360 [7]
97 145 [7]
7 888 [7]
7 889 [7]
25 331 [7]
22 424 [7]
27 270 [7]
10 797 [7]
4 984 [7]
10 799 [7]
27 273 [7]
8 862 [7]
7 894 [7]
8 863 [7]
22 429 [7]
8 864 [7]
19 525 [7]
80 682 [7]
7 898 [7]
8 867 [7]
7 899 [7]
8 868 [7]
27 279 [7]
10 807 [7]
6 931 [7]
8 870 [7]
8 871 [7]
8 872 [7]
5 965 [7]
8 875 [7]
7 906 [7]
8 876 [7]
80 692 [7]
8 877 [7]
8 878 [7]
7 910 [7]
8 879 [7]
27 290 [7]
9 849 [7]
5 973 [7]
98 139 [7]
7 913 [7]
8 882 [7]
24 386 [7]
27 293 [7]
8 883 [7]
9 852 [7]
10 822 [7]
7 915 [7]
6 946 [7]
8 885 [7]
28 265 [7]
11 792 [7]
7 917 [7]
9 855 [7]
23 421 [7]
14 700 [7]
7 918 [7]
8 888 [7]
27 299 [7]
11 796 [7]
8 889 [7]
22 456 [7]
8 891 [7]
25 364 [7]
7 924 [7]
8 893 [7]
9 862 [7]
22 460 [7]
30 213 [7]
8 896 [7]
22 464 [7]
9 868 [7]
27 311 [7]
98 158 [7]
8 901 [7]
9 871 [7]
8 903 [7]
10 841 [7]
98 161 [7]
8 905 [7]
10 843 [7]
9 874 [7]
9 875 [7]
8 906 [7]
10 845 [7]
9 877 [7]
27 319 [7]
11 816 [7]
10 848 [7]
27 321 [7]
14 724 [7]
10 849 [7]
24 416 [7]
27 325 [7]
22 480 [7]
16 666 [7]
8 915 [7]
10 854 [7]
8 918 [7]
100 114 [7]
35 82 [7]
10 858 [7]
25 393 [7]
14 737 [7]
8 924 [7]
23 459 [7]
10 862 [7]
10 864 [7]
10 865 [7]
10 866 [7]
7 959 [7]
22 495 [7]
7 960 [7]
29 280 [7]
12 807 [7]
10 869 [7]
9 901 [7]
23 468 [7]
7 966 [7]
10 874 [7]
15 721 [7]
22 507 [7]
7 972 [7]
8 941 [7]
20 570 [7]
27 354 [7]
14 757 [7]
24 450 [7]
22 512 [7]
9 915 [7]
27 358 [7]
22 516 [7]
27 365 [7]
30 274 [7]
26 400 [7]
672 855 [7]
8 959 [7]
22 526 [7]
8 960 [7]
27 372 [7]
8 963 [7]
22 529 [7]
10 901 [7]
7 995 [7]
12 841 [7]
26 408 [7]
27 377 [7]
22 532 [7]
14 781 [7]
9 936 [7]
98 227 [7]
25 443 [7]
98 229 [7]
22 537 [7]
12 848 [7]
21 569 [7]
16 724 [7]
9 943 [7]
28 354 [7]
29 323 [7]
12 852 [7]
14 790 [7]
100 172 [7]
10 915 [7]
8 978 [7]
27 389 [7]
27 390 [7]
8 981 [7]
23 522 [7]
12 866 [7]
9 959 [7]
22 557 [7]
9 960 [7]
9 963 [7]
100 190 [7]
8 995 [7]
22 563 [7]
8 998 [7]
10 936 [7]
16 750 [7]
30 316 [7]
8 999 [7]
29 351 [7]
13 847 [7]
16 758 [7]
22 580 [7]
14 830 [7]
98 279 [7]
22 587 [7]
10 959 [7]
29 373 [7]
32 280 [7]
9 995 [7]
102 161 [7]
9 999 [7]
27 442 [7]
22 599 [7]
27 445 [7]
22 602 [7]
294 367 [7]
34 238 [7]
35 207 [7]
97 333 [7]
22 610 [7]
605 972 [7]
10 986 [7]
14 864 [7]
10 990 [7]
22 620 [7]
22 624 [7]
34 254 [7]
22 629 [7]
29 415 [7]
32 323 [7]
36 200 [7]
16 822 [7]
22 637 [7]
22 646 [7]
20 710 [7]
27 493 [7]
36 216 [7]
15 868 [7]
24 590 [7]
100 282 [7]
36 219 [7]
34 287 [7]
102 227 [7]
12 972 [7]
34 304 [7]
20 744 [7]
15 899 [7]
33 341 [7]
277 972 [7]
12 995 [7]
12 997 [7]
36 253 [7]
230 385 [7]
36 255 [7]
27 535 [7]
27 538 [7]
295 423 [7]
230 397 [7]
38 205 [7]
34 331 [7]
15 920 [7]
19 801 [7]
39 182 [7]
102 279 [7]
20 777 [7]
27 567 [7]
14 971 [7]
28 538 [7]
15 942 [7]
233 334 [7]
38 236 [7]
34 364 [7]
27 584 [7]
38 243 [7]
222 686 [7]
20 807 [7]
15 963 [7]
20 809 [7]
33 407 [7]
25 656 [7]
39 223 [7]
15 968 [7]
36 317 [7]
33 410 [7]
21 788 [7]
85 853 [7]
38 265 [7]
27 607 [7]
22 764 [7]
39 237 [7]
34 393 [7]
15 983 [7]
38 272 [7]
22 769 [7]
21 802 [7]
36 339 [7]
36 342 [7]
35 377 [7]
22 783 [7]
23 754 [7]
16 971 [7]
20 852 [7]
22 793 [7]
22 795 [7]
36 363 [7]
22 798 [7]
33 457 [7]
98 493 [7]
36 368 [7]
20 866 [7]
233 411 [7]
22 812 [7]
33 471 [7]
22 814 [7]
34 443 [7]
20 880 [7]
36 384 [7]
38 329 [7]
22 828 [7]
42 209 [7]
42 211 [7]
295 562 [7]
25 743 [7]
42 220 [7]
98 533 [7]
24 781 [7]
230 539 [7]
23 816 [7]
42 231 [7]
22 855 [7]
23 825 [7]
22 856 [7]
39 330 [7]
42 244 [7]
36 436 [7]
98 566 [7]
36 440 [7]
22 878 [7]
39 352 [7]
21 916 [7]
27 732 [7]
111 182 [7]
20 957 [7]
22 900 [7]
22 905 [7]
42 289 [7]
20 972 [7]
22 912 [7]
87 950 [7]
36 489 [7]
102 493 [7]
22 926 [7]
20 989 [7]
33 591 [7]
28 750 [7]
27 785 [7]
22 940 [7]
27 791 [7]
103 488 [7]
22 958 [7]
27 830 [7]
27 832 [7]
28 806 [7]
98 685 [7]
22 999 [7]
42 381 [7]
50 155 [7]
39 496 [7]
48 219 [7]
50 161 [7]
38 538 [7]
50 167 [7]
43 385 [7]
49 199 [7]
27 886 [7]
48 241 [7]
43 397 [7]
43 400 [7]
222 996 [7]
100 682 [7]
49 218 [7]
43 408 [7]
48 253 [7]
100 692 [7]
43 412 [7]
27 909 [7]
28 886 [7]
48 278 [7]
36 651 [7]
25 994 [7]
295 821 [7]
36 658 [7]
50 227 [7]
49 263 [7]
27 952 [7]
39 580 [7]
34 743 [7]
34 745 [7]
48 317 [7]
45 413 [7]
50 270 [7]
49 302 [7]
36 707 [7]
50 273 [7]
29 926 [7]
50 279 [7]
49 310 [7]
48 342 [7]
500 672 [7]
50 293 [7]
305 585 [7]
53 207 [7]
98 861 [7]
48 368 [7]
50 311 [7]
50 313 [7]
50 314 [7]
50 319 [7]
50 321 [7]
43 539 [7]
48 384 [7]
50 325 [7]
97 929 [7]
500 733 [7]
36 782 [7]
32 926 [7]
51 341 [7]
50 372 [7]
186 258 [7]
48 440 [7]
102 861 [7]
56 243 [7]
51 410 [7]
56 265 [7]
500 840 [7]
56 272 [7]
38 832 [7]
50 467 [7]
51 457 [7]
50 493 [7]
55 339 [7]
58 246 [7]
